%!PS-Adobe-3.0 EPSF-3.0
%%BoundingBox: 0 0 425 340
%%Title: Graphics produced by IDL
%%For: vrs@freya01, /freya/u/vrs/Coding/gpu_testbed/idl
%%Creator: IDL Version 8.5.1 (linux x86_64 m64)
%%CreationDate: Thu Jul 14 22:42:04 2022
%%DocumentData: Clean7bit
%%Requirements: color
%%LanguageLevel: 1
%%PageOrder: Ascend
%%Pages: (atend)
%%DocumentNeededResources: (atend)
%%EndComments
%%BeginProlog
%+ prolog.ps -- Prolog for IDL generated PostScript files
%+ Copyright (c) 1988-2015 Exelis Visual Information Solutions, Inc. All Rights Reserved.
%v 5
/$IDL_DICT 40 dict def $IDL_DICT begin /bdef { bind def } bind def /C
{currentpoint newpath moveto} bdef /CP {currentpoint} bdef /D {currentpoint
stroke moveto} bdef /F {closepath fill} bdef /K { setgray } bdef /M {moveto}
bdef /N {rmoveto} bdef /P {lineto} bdef /R {rlineto} bdef /S {gsave show
grestore} bdef /X {currentpoint pop} bdef /Z {gsave currentpoint lineto 20
setlinewidth 1 setlinecap stroke grestore} bdef /L0 {[] 0 setdash} bdef /L1
{[40 100] 0 setdash} bdef /L2 {[200 200] 0 setdash} bdef /L3 {[200 100 50
100] 0 setdash} bdef /L4 {[300 100 50 100 50 100 50 100] 0 setdash} bdef /L5
{[400 200] 0 setdash} bdef /STDFONT { findfont exch scalefont setfont } bdef
/ISOFONT { findfont dup length dict begin { 1 index /FID ne {def} {pop pop}
ifelse } forall /Encoding ISOLatin1Encoding def currentdict end /idltmpfont
exch definefont exch scalefont setfont } bdef /ISOBULLET { gsave /Helvetica
findfont exch scalefont setfont (\267) show currentpoint grestore moveto}
bdef /MITERLIMIT { 2.5 setmiterlimit } bdef end
%%EndProlog
%%Page: 0 1
%%PageRequirements: color
%%PageResources: (atend)
%%PageOrientation: Portrait
%%PageBoundingBox: 0 0 425 340
%%BeginPageSetup
$IDL_DICT begin 0.0283465 dup scale MITERLIMIT
%%IncludeResource: font Helvetica
423.333 /Helvetica STDFONT
%%EndPageSetup
25 setlinewidth L0 0.000 0.000 0.000 setrgbcolor 1332 1408 M 13002 0 R D
1332 1408 M 0 297 R D gsave 1332 880 translate 0 0 M -294.217 0 N
(0.4) show grestore 5666 1408 M 0 297 R D gsave 5666 880 translate 0 0 M
-294.217 0 N
(0.6) show grestore 10000 1408 M 0 297 R D gsave 10000 880 translate 0 0 M
-294.217 0 N
(0.8) show grestore 14334 1408 M 0 297 R D gsave 14334 880 translate 0 0 M
-294.217 0 N
(1.0) show grestore 2416 1408 M 0 148 R D 3499 1408 M 0 148 R D 4583 1408 M
0 148 R D 6750 1408 M 0 148 R D 7833 1408 M 0 148 R D 8917 1408 M 0 148 R D
11084 1408 M 0 148 R D 12167 1408 M 0 148 R D 13251 1408 M 0 148 R D
gsave 7833 422 translate 0 0 M -93.98 0 N
%%IncludeResource: font Times-Italic
423.333 /Times-Italic STDFONT
(x) show
%%IncludeResource: font Helvetica
423.333 /Helvetica STDFONT grestore 1332 11296 M 13002 0 R D 1332 11296 M
0 -297 R D 5666 11296 M 0 -297 R D 10000 11296 M 0 -297 R D 14334 11296 M
0 -297 R D 2416 11296 M 0 -148 R D 3499 11296 M 0 -148 R D 4583 11296 M
0 -148 R D 6750 11296 M 0 -148 R D 7833 11296 M 0 -148 R D 8917 11296 M
0 -148 R D 11084 11296 M 0 -148 R D 12167 11296 M 0 -148 R D 13251 11296 M
0 -148 R D 1332 1408 M 0 9888 R D 1332 1408 M 390 0 R D
gsave 1221 1408 translate 0 0 M -235.373 0 N
(0) show grestore 1332 2821 M 390 0 R D gsave 1221 2680 translate 0 0 M
-235.373 0 N
(1) show grestore 1332 4233 M 390 0 R D gsave 1221 4092 translate 0 0 M
-235.373 0 N
(2) show grestore 1332 5646 M 390 0 R D gsave 1221 5505 translate 0 0 M
-235.373 0 N
(3) show grestore 1332 7058 M 390 0 R D gsave 1221 6918 translate 0 0 M
-235.373 0 N
(4) show grestore 1332 8471 M 390 0 R D gsave 1221 8330 translate 0 0 M
-235.373 0 N
(5) show grestore 1332 9883 M 390 0 R D gsave 1221 9743 translate 0 0 M
-235.373 0 N
(6) show grestore 1332 11296 M 390 0 R D gsave 1221 11050 translate 0 0 M
-235.373 0 N
(7) show grestore 1332 1549 M 195 0 R D 1332 1691 M 195 0 R D 1332 1832 M
195 0 R D 1332 1973 M 195 0 R D 1332 2114 M 195 0 R D 1332 2256 M 195 0 R D
1332 2397 M 195 0 R D 1332 2538 M 195 0 R D 1332 2679 M 195 0 R D
1332 2962 M 195 0 R D 1332 3103 M 195 0 R D 1332 3244 M 195 0 R D
1332 3386 M 195 0 R D 1332 3527 M 195 0 R D 1332 3668 M 195 0 R D
1332 3809 M 195 0 R D 1332 3951 M 195 0 R D 1332 4092 M 195 0 R D
1332 4374 M 195 0 R D 1332 4516 M 195 0 R D 1332 4657 M 195 0 R D
1332 4798 M 195 0 R D 1332 4939 M 195 0 R D 1332 5081 M 195 0 R D
1332 5222 M 195 0 R D 1332 5363 M 195 0 R D 1332 5505 M 195 0 R D
1332 5787 M 195 0 R D 1332 5928 M 195 0 R D 1332 6070 M 195 0 R D
1332 6211 M 195 0 R D 1332 6352 M 195 0 R D 1332 6493 M 195 0 R D
1332 6635 M 195 0 R D 1332 6776 M 195 0 R D 1332 6917 M 195 0 R D
1332 7200 M 195 0 R D 1332 7341 M 195 0 R D 1332 7482 M 195 0 R D
1332 7623 M 195 0 R D 1332 7765 M 195 0 R D 1332 7906 M 195 0 R D
1332 8047 M 195 0 R D 1332 8188 M 195 0 R D 1332 8330 M 195 0 R D
1332 8612 M 195 0 R D 1332 8753 M 195 0 R D 1332 8895 M 195 0 R D
1332 9036 M 195 0 R D 1332 9177 M 195 0 R D 1332 9318 M 195 0 R D
1332 9460 M 195 0 R D 1332 9601 M 195 0 R D 1332 9742 M 195 0 R D
1332 10025 M 195 0 R D 1332 10166 M 195 0 R D 1332 10307 M 195 0 R D
1332 10449 M 195 0 R D 1332 10590 M 195 0 R D 1332 10731 M 195 0 R D
1332 10872 M 195 0 R D 1332 11014 M 195 0 R D 1332 11155 M 195 0 R D
gsave 653 6352 translate 0 0 M 90 rotate -116.205 0 N
%%IncludeResource: font Symbol
423.333 /Symbol STDFONT
(r) show
%%IncludeResource: font Helvetica
423.333 /Helvetica STDFONT grestore 14334 1408 M 0 9888 R D 14334 1408 M
-390 0 R D 14334 2821 M -390 0 R D 14334 4233 M -390 0 R D 14334 5646 M
-390 0 R D 14334 7058 M -390 0 R D 14334 8471 M -390 0 R D 14334 9883 M
-390 0 R D 14334 11296 M -390 0 R D 14334 1549 M -195 0 R D 14334 1691 M
-195 0 R D 14334 1832 M -195 0 R D 14334 1973 M -195 0 R D 14334 2114 M
-195 0 R D 14334 2256 M -195 0 R D 14334 2397 M -195 0 R D 14334 2538 M
-195 0 R D 14334 2679 M -195 0 R D 14334 2962 M -195 0 R D 14334 3103 M
-195 0 R D 14334 3244 M -195 0 R D 14334 3386 M -195 0 R D 14334 3527 M
-195 0 R D 14334 3668 M -195 0 R D 14334 3809 M -195 0 R D 14334 3951 M
-195 0 R D 14334 4092 M -195 0 R D 14334 4374 M -195 0 R D 14334 4516 M
-195 0 R D 14334 4657 M -195 0 R D 14334 4798 M -195 0 R D 14334 4939 M
-195 0 R D 14334 5081 M -195 0 R D 14334 5222 M -195 0 R D 14334 5363 M
-195 0 R D 14334 5505 M -195 0 R D 14334 5787 M -195 0 R D 14334 5928 M
-195 0 R D 14334 6070 M -195 0 R D 14334 6211 M -195 0 R D 14334 6352 M
-195 0 R D 14334 6493 M -195 0 R D 14334 6635 M -195 0 R D 14334 6776 M
-195 0 R D 14334 6917 M -195 0 R D 14334 7200 M -195 0 R D 14334 7341 M
-195 0 R D 14334 7482 M -195 0 R D 14334 7623 M -195 0 R D 14334 7765 M
-195 0 R D 14334 7906 M -195 0 R D 14334 8047 M -195 0 R D 14334 8188 M
-195 0 R D 14334 8330 M -195 0 R D 14334 8612 M -195 0 R D 14334 8753 M
-195 0 R D 14334 8895 M -195 0 R D 14334 9036 M -195 0 R D 14334 9177 M
-195 0 R D 14334 9318 M -195 0 R D 14334 9460 M -195 0 R D 14334 9601 M
-195 0 R D 14334 9742 M -195 0 R D 14334 10025 M -195 0 R D 14334 10166 M
-195 0 R D 14334 10307 M -195 0 R D 14334 10449 M -195 0 R D 14334 10590 M
-195 0 R D 14334 10731 M -195 0 R D 14334 10872 M -195 0 R D 14334 11014 M
-195 0 R D 14334 11155 M -195 0 R D 1332 1660 M 1 0 R 1 0 R 1 0 R 1 0 R
1 0 R 1 0 R 1 0 R 1 0 R 1 0 R 1 0 R 1 0 R 2 0 R 1 0 R 1 0 R 1 0 R 1 0 R
1 0 R 1 0 R 1 0 R 1 0 R 1 0 R 1 0 R 1 0 R 2 0 R 1 0 R 1 0 R 1 1 R 1 0 R
1 0 R 1 0 R 1 0 R 1 0 R 1 0 R 1 0 R 1 0 R 2 0 R 1 0 R 1 0 R 1 0 R 1 0 R
1 0 R 1 0 R 1 0 R 1 0 R 1 0 R 1 0 R 1 0 R 2 0 R 1 0 R 1 0 R 1 0 R 1 0 R
1 0 R 1 0 R 1 0 R 1 0 R 1 0 R 1 0 R 1 0 R 2 0 R 1 0 R 1 0 R 1 0 R 1 0 R
1 0 R 1 0 R 1 0 R 1 0 R 1 0 R 1 0 R 1 0 R 2 0 R 1 0 R 1 0 R 1 0 R 1 0 R
1 0 R 1 0 R 1 0 R 1 0 R 1 0 R 1 0 R 1 0 R 2 0 R 1 0 R 1 0 R 1 0 R 1 0 R
1 0 R 1 0 R 1 0 R 1 0 R 1 0 R 1 0 R 1 0 R 2 0 R 1 0 R 1 0 R 1 0 R 1 0 R
1 0 R 1 0 R 1 0 R 1 0 R 1 0 R 1 0 R 1 0 R 2 0 R 1 0 R 1 0 R 1 0 R 1 0 R
1 0 R 1 0 R 1 0 R 1 0 R 1 0 R 1 0 R 1 0 R 2 0 R 1 0 R 1 0 R 1 0 R 1 0 R
1 0 R 1 0 R 1 0 R 1 0 R 1 0 R 1 0 R 1 0 R 2 0 R 1 0 R 1 0 R 1 0 R 1 0 R
1 0 R 1 0 R 1 0 R 1 0 R 1 0 R 1 0 R 1 0 R 2 0 R 1 0 R 1 0 R 1 0 R 1 0 R
1 0 R 1 0 R 1 0 R 1 0 R 1 0 R 1 0 R 1 0 R 2 0 R 1 0 R 1 0 R 1 0 R 1 0 R
1 0 R 1 0 R 1 0 R 1 0 R 1 0 R 1 0 R 1 0 R 2 0 R 1 0 R 1 0 R 1 0 R 1 0 R
1 0 R 1 0 R 1 0 R 1 0 R 1 0 R 1 0 R 1 0 R 2 0 R 1 0 R 1 0 R 1 0 R 1 0 R
1 0 R 1 0 R 1 0 R 1 0 R 1 0 R 1 0 R 1 0 R 2 0 R 1 0 R 1 0 R 1 0 R 1 0 R
1 0 R 1 0 R 1 0 R 1 0 R 1 0 R 1 0 R 1 0 R 2 0 R 1 1 R 1 0 R 1 0 R 1 0 R
1 0 R 1 0 R 1 0 R 1 0 R 1 0 R 1 0 R 1 0 R 2 0 R 1 0 R 1 0 R 1 0 R 1 0 R
1 0 R 1 0 R 1 0 R 1 0 R 1 0 R 1 0 R 1 0 R 2 0 R 1 0 R 1 0 R 1 0 R 1 0 R
1 0 R 1 0 R 1 0 R 1 0 R 1 0 R 1 0 R 1 0 R 2 0 R 1 0 R 1 0 R 1 0 R 1 0 R
1 0 R 1 0 R 1 0 R 1 0 R 1 0 R 1 0 R 1 0 R 2 0 R 1 0 R 1 0 R 1 0 R 1 0 R
1 0 R 1 0 R 1 0 R 1 0 R 1 0 R 1 0 R 1 0 R 2 0 R 1 0 R 1 0 R 1 0 R 1 0 R
1 0 R 1 0 R 1 0 R 1 0 R 1 0 R 1 0 R 1 0 R 2 0 R 1 0 R 1 0 R 1 0 R 1 0 R
1 0 R 1 0 R 1 0 R 1 0 R 1 0 R 1 0 R 1 0 R 2 0 R 1 0 R 1 0 R 1 0 R 1 0 R
1 0 R 1 0 R 1 0 R 1 0 R 1 0 R 1 0 R 1 0 R 2 0 R 1 0 R 1 0 R 1 0 R 1 0 R
1 0 R 1 0 R 1 0 R 1 0 R 1 0 R 1 0 R 2 0 R 1 0 R 1 0 R 1 0 R 1 0 R 1 0 R
1 0 R 1 0 R 1 0 R 1 0 R 1 0 R 1 0 R 2 0 R 1 0 R 1 0 R 1 0 R 1 0 R 1 0 R
1 0 R 1 0 R 1 0 R 1 0 R 1 0 R 1 0 R 2 0 R 1 0 R 1 0 R 1 0 R 1 0 R 1 0 R
1 0 R 1 0 R 1 0 R 1 0 R 1 0 R 1 0 R 2 0 R 1 0 R 1 0 R 1 0 R 1 0 R 1 0 R
1 0 R 1 0 R 1 0 R 1 0 R 1 0 R 1 0 R 2 0 R 1 0 R 1 0 R 1 0 R 1 0 R 1 0 R
1 0 R 1 0 R 1 0 R 1 0 R 1 0 R 1 0 R 2 0 R 1 0 R 1 0 R 1 0 R 1 0 R 1 0 R
1 0 R 1 0 R 1 0 R 1 0 R 1 0 R 1 0 R 2 0 R 1 0 R 1 0 R 1 0 R 1 0 R 1 0 R
1 0 R 1 0 R 1 0 R 1 0 R 1 0 R 1 0 R 2 0 R 1 0 R 1 0 R 1 0 R 1 0 R 1 0 R
1 0 R 1 0 R 1 0 R 1 0 R 1 0 R 1 0 R 2 0 R 1 0 R 1 0 R 1 0 R 1 0 R 1 0 R
1 0 R 1 0 R 1 0 R 1 0 R 1 0 R 1 0 R 2 0 R 1 0 R 1 0 R 1 0 R 1 0 R 1 0 R
1 0 R 1 0 R 1 0 R 1 0 R 1 0 R 1 0 R 2 0 R 1 0 R 1 0 R 1 0 R 1 0 R 1 0 R
1 0 R 1 0 R 1 0 R 1 0 R 1 0 R 1 0 R 2 0 R 1 0 R 1 0 R 1 0 R 1 0 R 1 0 R
1 0 R 1 0 R 1 0 R 1 0 R 1 0 R 1 0 R 2 0 R 1 0 R 1 0 R 1 0 R 1 0 R 1 0 R
1 0 R 1 0 R 1 0 R 1 0 R 1 0 R 1 0 R 2 0 R 1 0 R 1 0 R 1 0 R 1 0 R 1 0 R
1 0 R 1 0 R 1 0 R 1 0 R 1 0 R 1 0 R 2 0 R 1 0 R 1 0 R 1 0 R 1 0 R 1 0 R
1 0 R 1 0 R 1 0 R 1 0 R 1 0 R 1 0 R 2 0 R 1 0 R 1 0 R 1 0 R 1 0 R 1 0 R
1 0 R 1 0 R 1 0 R 1 0 R 1 0 R 1 0 R 2 0 R 1 0 R 1 0 R 1 1 R 1 0 R 1 0 R
1 0 R 1 0 R 1 0 R 1 0 R 1 0 R 1 0 R 2 0 R 1 0 R 1 0 R 1 0 R 1 0 R 1 0 R
1 0 R 1 0 R 1 0 R 1 0 R 1 0 R 1 0 R 2 0 R 1 0 R 1 0 R 1 0 R 1 0 R 1 0 R
1 0 R 1 0 R 1 0 R 1 0 R 1 0 R 1 0 R 2 0 R 1 0 R 1 0 R 1 0 R 1 0 R 1 0 R
1 0 R 1 0 R 1 0 R 1 0 R 1 0 R 1 0 R 2 0 R 1 0 R 1 0 R 1 0 R 1 0 R 1 0 R
1 0 R 1 0 R 1 0 R 1 0 R 1 0 R 1 0 R 2 0 R 1 0 R 1 0 R 1 0 R 1 0 R 1 0 R
1 0 R 1 0 R 1 0 R 1 0 R 1 0 R 1 0 R 2 0 R 1 0 R 1 0 R 1 0 R 1 0 R 1 0 R
1 0 R 1 0 R 1 0 R 1 0 R 1 0 R 1 0 R 2 0 R 1 0 R 1 0 R 1 0 R 1 0 R 1 0 R
1 0 R 1 0 R 1 0 R 1 0 R 1 0 R 1 0 R 2 0 R 1 0 R 1 0 R 1 0 R 1 0 R 1 0 R
1 0 R 1 0 R 1 0 R 1 0 R 1 0 R 1 0 R 2 0 R 1 0 R 1 0 R 1 0 R 1 0 R 1 0 R
1 0 R 1 0 R 1 0 R 1 0 R 1 0 R 1 0 R 2 0 R 1 0 R 1 0 R 1 0 R 1 0 R 1 0 R
1 0 R 1 0 R 1 0 R 1 0 R 1 0 R 1 0 R 2 0 R 1 0 R 1 0 R 1 0 R 1 0 R 1 0 R
1 0 R 1 0 R 1 0 R 1 0 R 1 0 R 1 0 R 2 0 R 1 0 R 1 0 R 1 0 R 1 0 R 1 0 R
1 0 R 1 0 R 1 0 R 1 0 R 1 0 R 1 0 R 2 0 R 1 0 R 1 0 R 1 0 R 1 0 R 1 0 R
1 0 R 1 0 R 1 0 R 1 0 R 1 0 R 1 0 R 2 0 R 1 0 R 1 0 R 1 0 R 1 0 R 1 0 R
1 0 R 1 0 R 1 0 R 1 0 R 1 0 R 1 0 R 2 0 R 1 0 R 1 0 R 1 0 R 1 0 R 1 0 R
1 0 R 1 0 R 1 0 R 1 0 R 1 0 R 1 0 R 2 0 R 1 0 R 1 0 R 1 0 R 1 0 R 1 0 R
1 0 R 1 0 R 1 0 R 1 0 R 1 0 R 1 0 R 2 0 R 1 0 R 1 0 R 1 0 R 1 0 R 1 0 R
1 0 R 1 0 R 1 0 R 1 0 R 1 0 R 1 0 R 2 0 R 1 0 R 1 0 R 1 0 R 1 0 R 1 0 R
1 0 R 1 0 R 1 0 R 1 0 R 1 0 R 1 0 R 2 0 R 1 0 R 1 0 R 1 0 R 1 0 R 1 0 R
1 0 R 1 0 R 1 0 R 1 0 R 1 0 R 1 0 R 2 0 R 1 0 R 1 0 R 1 0 R 1 0 R 1 0 R
1 0 R 1 0 R D 2144 1663 M 1 0 R 1 0 R 1 0 R 1 0 R 2 0 R 1 0 R 1 0 R 1 0 R
1 0 R 1 0 R 1 0 R 1 0 R 1 0 R 1 0 R 1 0 R 1 0 R 2 0 R 1 0 R 1 0 R 1 0 R
1 0 R 1 0 R 1 0 R 1 0 R 1 0 R 1 0 R 1 0 R 1 0 R 2 0 R 1 0 R 1 0 R 1 0 R
1 0 R 1 0 R 1 0 R 1 0 R 1 0 R 1 0 R 1 0 R 1 0 R 2 0 R 1 0 R 1 0 R 1 0 R
1 0 R 1 0 R 1 0 R 1 0 R 1 0 R 1 0 R 1 0 R 2 0 R 1 0 R 1 0 R 1 0 R 1 0 R
1 0 R 1 0 R 1 0 R 1 0 R 1 0 R 1 0 R 1 0 R 2 0 R 1 0 R 1 0 R 1 0 R 1 0 R
1 0 R 1 0 R 1 0 R 1 0 R 1 0 R 1 0 R 1 0 R 2 0 R 1 0 R 1 0 R 1 0 R 1 0 R
1 0 R 1 0 R 1 0 R 1 0 R 1 0 R 1 0 R 1 0 R 2 0 R 1 0 R 1 0 R 1 0 R 1 0 R
1 0 R 1 0 R 1 0 R 1 1 R 1 0 R 1 0 R 1 0 R 2 0 R 1 0 R 1 0 R 1 0 R 1 0 R
1 0 R 1 0 R 1 0 R 1 0 R 1 0 R 1 0 R 1 0 R 2 0 R 1 0 R 1 0 R 1 0 R 1 0 R
1 0 R 1 0 R 1 0 R 1 0 R 1 0 R 1 0 R 1 0 R 2 0 R 1 0 R 1 0 R 1 0 R 1 0 R
1 0 R 1 0 R 1 0 R 1 0 R 1 0 R 1 0 R 1 0 R 2 0 R 1 0 R 1 0 R 1 0 R 1 0 R
1 0 R 1 0 R 1 0 R 1 0 R 1 0 R 1 0 R 1 0 R 2 0 R 1 0 R 1 0 R 1 0 R 1 0 R
1 0 R 1 0 R 1 0 R 1 0 R 1 0 R 1 0 R 1 0 R 2 0 R 1 0 R 1 0 R 1 0 R 1 0 R
1 0 R 1 0 R 1 0 R 1 0 R 1 0 R 1 0 R 1 0 R 2 0 R 1 0 R 1 0 R 1 0 R 1 0 R
1 0 R 1 0 R 1 0 R 1 0 R 1 0 R 1 0 R 1 0 R 2 0 R 1 0 R 1 0 R 1 0 R 1 0 R
1 0 R 1 0 R 1 0 R 1 0 R 1 0 R 1 0 R 1 0 R 2 0 R 1 0 R 1 0 R 1 0 R 1 0 R
1 0 R 1 0 R 1 0 R 1 0 R 1 0 R 1 0 R 1 0 R 2 0 R 1 0 R 1 0 R 1 0 R 1 0 R
1 0 R 1 0 R 1 0 R 1 0 R 1 0 R 1 0 R 1 0 R 2 0 R 1 0 R 1 0 R 1 0 R 1 0 R
1 0 R 1 0 R 1 0 R 1 0 R 1 0 R 1 0 R 1 0 R 2 0 R 1 0 R 1 0 R 1 0 R 1 0 R
1 0 R 1 0 R 1 0 R 1 0 R 1 0 R 1 0 R 1 0 R 2 0 R 1 0 R 1 0 R 1 0 R 1 0 R
1 0 R 1 0 R 1 0 R 1 0 R 1 0 R 1 0 R 1 0 R 2 0 R 1 0 R 1 0 R 1 0 R 1 0 R
1 0 R 1 0 R 1 0 R 1 0 R 1 0 R 1 0 R 1 0 R 2 0 R 1 0 R 1 0 R 1 0 R 1 0 R
1 0 R 1 0 R 1 0 R 1 0 R 1 0 R 1 0 R 1 0 R 2 0 R 1 0 R 1 0 R 1 0 R 1 0 R
1 0 R 1 0 R 1 0 R 1 0 R 1 0 R 1 0 R 1 0 R 2 0 R 1 0 R 1 0 R 1 0 R 1 0 R
1 0 R 1 0 R 1 0 R 1 0 R 1 0 R 1 0 R 1 0 R 2 0 R 1 0 R 1 0 R 1 0 R 1 0 R
1 0 R 1 0 R 1 0 R 1 0 R 1 0 R 1 0 R 1 0 R 2 0 R 1 0 R 1 0 R 1 0 R 1 0 R
1 0 R 1 0 R 1 0 R 1 0 R 1 0 R 1 0 R 1 0 R 2 0 R 1 0 R 1 0 R 1 0 R 1 0 R
1 0 R 1 0 R 1 0 R 1 0 R 1 0 R 1 0 R 1 0 R 2 0 R 1 0 R 1 0 R 1 0 R 1 0 R
1 0 R 1 0 R 1 0 R 1 0 R 1 0 R 1 0 R 1 0 R 2 0 R 1 0 R 1 0 R 1 0 R 1 0 R
1 0 R 1 0 R 1 0 R 1 0 R 1 0 R 1 0 R 1 0 R 2 0 R 1 0 R 1 0 R 1 0 R 1 0 R
1 0 R 1 0 R 1 0 R 1 0 R 1 0 R 1 0 R 1 0 R 2 0 R 1 0 R 1 0 R 1 0 R 1 0 R
1 0 R 1 0 R 1 0 R 1 0 R 1 0 R 1 0 R 1 0 R 2 0 R 1 0 R 1 0 R 1 0 R 1 0 R
1 0 R 1 0 R 1 0 R 1 0 R 1 0 R 1 0 R 1 0 R 2 0 R 1 0 R 1 0 R 1 0 R 1 0 R
1 0 R 1 0 R 1 0 R 1 0 R 1 0 R 1 0 R 1 0 R 2 0 R 1 0 R 1 0 R 1 0 R 1 0 R
1 0 R 1 0 R 1 0 R 1 0 R 1 0 R 1 0 R 1 0 R 2 0 R 1 0 R 1 0 R 1 0 R 1 0 R
1 0 R 1 0 R 1 0 R 1 0 R 1 1 R 1 0 R 1 0 R 2 0 R 1 0 R 1 0 R 1 0 R 1 0 R
1 0 R 1 0 R 1 0 R 1 0 R 1 0 R 1 0 R 1 0 R 2 0 R 1 0 R 1 0 R 1 0 R 1 0 R
1 0 R 1 0 R 1 0 R 1 0 R 1 0 R 1 0 R 1 0 R 2 0 R 1 0 R 1 0 R 1 0 R 1 0 R
1 0 R 1 0 R 1 0 R 1 0 R 1 0 R 1 0 R 1 0 R 2 0 R 1 0 R 1 0 R 1 0 R 1 0 R
1 0 R 1 0 R 1 0 R 1 0 R 1 0 R 1 0 R 1 0 R 2 0 R 1 0 R 1 0 R 1 0 R 1 0 R
1 0 R 1 0 R 1 0 R 1 0 R 1 0 R 1 0 R 1 0 R 2 0 R 1 0 R 1 0 R 1 0 R 1 0 R
1 0 R 1 0 R 1 0 R 1 0 R 1 0 R 1 0 R 1 0 R 2 0 R 1 0 R 1 0 R 1 0 R 1 0 R
1 0 R 1 0 R 1 0 R 1 0 R 1 0 R 1 0 R 1 0 R 2 0 R 1 0 R 1 0 R 1 0 R 1 0 R
1 0 R 1 0 R 1 0 R 1 0 R 1 0 R 1 0 R 1 0 R 2 0 R 1 0 R 1 0 R 1 0 R 1 0 R
1 0 R 1 0 R 1 0 R 1 0 R 1 0 R 1 0 R 1 0 R 2 0 R 1 0 R 1 0 R 1 0 R 1 0 R
1 0 R 1 0 R 1 0 R 1 0 R 1 0 R 1 0 R 2 0 R 1 0 R 1 0 R 1 0 R 1 0 R 1 0 R
1 0 R 1 0 R 1 0 R 1 0 R 1 0 R 1 0 R 2 0 R 1 0 R 1 0 R 1 0 R 1 0 R 1 0 R
1 0 R 1 0 R 1 0 R 1 0 R 1 0 R 1 0 R 2 0 R 1 0 R 1 0 R 1 0 R 1 0 R 1 0 R
1 0 R 1 0 R 1 0 R 1 0 R 1 0 R 1 0 R 2 0 R 1 0 R 1 0 R 1 0 R 1 0 R 1 0 R
1 0 R 1 0 R 1 0 R 1 0 R 1 0 R 1 0 R 2 0 R 1 0 R 1 0 R 1 0 R 1 0 R 1 0 R
1 0 R 1 0 R 1 0 R 1 0 R 1 0 R 1 0 R 2 0 R 1 0 R 1 0 R 1 0 R 1 0 R 1 0 R
1 0 R 1 0 R 1 0 R 1 0 R 1 0 R 1 0 R 2 0 R 1 0 R 1 0 R 1 0 R 1 0 R 1 0 R
1 0 R 1 0 R 1 0 R 1 0 R 1 0 R 1 0 R 2 0 R 1 0 R 1 0 R 1 0 R 1 0 R 1 0 R
1 0 R 1 0 R 1 0 R 1 0 R 1 0 R 1 0 R 2 0 R 1 0 R 1 0 R 1 0 R 1 0 R 1 0 R
1 0 R 1 0 R 1 0 R 1 0 R 1 0 R 1 0 R 2 0 R 1 0 R 1 0 R 1 0 R 1 0 R 1 0 R
1 0 R 1 0 R 1 0 R 1 0 R 1 0 R 1 0 R 2 0 R 1 0 R 1 0 R 1 0 R 1 0 R 1 0 R
1 0 R 1 0 R 1 0 R 1 0 R 1 0 R 1 0 R 2 0 R 1 0 R 1 0 R 1 0 R 1 0 R 1 0 R
1 0 R 1 0 R 1 0 R 1 0 R 1 0 R 1 0 R 2 0 R 1 0 R 1 0 R 1 0 R 1 0 R 1 0 R
1 0 R 1 0 R 1 0 R 1 0 R 1 0 R 1 0 R 2 0 R 1 0 R 1 0 R 1 0 R 1 0 R 1 0 R
1 0 R 1 0 R 1 0 R 1 0 R 1 0 R 1 0 R 2 0 R 1 0 R 1 0 R 1 0 R 1 0 R 1 0 R
1 0 R 1 0 R 1 0 R 1 0 R 1 0 R 1 0 R 2 0 R 1 0 R 1 0 R 1 0 R 1 0 R 1 0 R
1 0 R 1 0 R 1 0 R 1 0 R 1 0 R 1 0 R 2 0 R 1 0 R 1 0 R 1 0 R D 2957 1665 M
1 0 R 1 0 R 1 0 R 1 0 R 1 0 R 1 0 R 1 0 R 1 0 R 2 0 R 1 0 R 1 0 R 1 0 R
1 0 R 1 0 R 1 0 R 1 1 R 1 0 R 1 0 R 1 0 R 1 0 R 2 0 R 1 0 R 1 0 R 1 0 R
1 0 R 1 0 R 1 0 R 1 0 R 1 0 R 1 0 R 1 0 R 1 0 R 2 0 R 1 0 R 1 0 R 1 0 R
1 0 R 1 0 R 1 0 R 1 0 R 1 0 R 1 0 R 1 0 R 1 0 R 2 0 R 1 0 R 1 0 R 1 0 R
1 0 R 1 0 R 1 0 R 1 0 R 1 0 R 1 0 R 1 0 R 1 0 R 2 0 R 1 0 R 1 0 R 1 0 R
1 0 R 1 0 R 1 0 R 1 0 R 1 0 R 1 0 R 1 0 R 1 0 R 2 0 R 1 0 R 1 0 R 1 0 R
1 0 R 1 0 R 1 0 R 1 0 R 1 0 R 1 0 R 1 0 R 1 0 R 2 0 R 1 0 R 1 0 R 1 0 R
1 0 R 1 0 R 1 0 R 1 0 R 1 0 R 1 0 R 1 0 R 1 0 R 2 0 R 1 0 R 1 0 R 1 0 R
1 0 R 1 0 R 1 0 R 1 0 R 1 0 R 1 0 R 1 0 R 1 0 R 2 0 R 1 0 R 1 0 R 1 0 R
1 0 R 1 0 R 1 0 R 1 0 R 1 0 R 1 0 R 1 0 R 1 0 R 2 0 R 1 0 R 1 0 R 1 0 R
1 0 R 1 0 R 1 0 R 1 0 R 1 0 R 1 0 R 1 0 R 1 0 R 2 0 R 1 0 R 1 0 R 1 0 R
1 0 R 1 0 R 1 0 R 1 0 R 1 0 R 1 0 R 1 0 R 1 0 R 2 0 R 1 0 R 1 0 R 1 0 R
1 0 R 1 0 R 1 0 R 1 0 R 1 0 R 1 0 R 1 0 R 1 0 R 2 0 R 1 0 R 1 0 R 1 0 R
1 0 R 1 0 R 1 0 R 1 0 R 1 0 R 1 0 R 1 0 R 1 0 R 2 0 R 1 0 R 1 0 R 1 0 R
1 0 R 1 0 R 1 0 R 1 0 R 1 0 R 1 0 R 1 0 R 1 0 R 2 0 R 1 0 R 1 0 R 1 0 R
1 0 R 1 0 R 1 0 R 1 0 R 1 0 R 1 0 R 1 0 R 1 0 R 2 0 R 1 0 R 1 0 R 1 0 R
1 0 R 1 0 R 1 0 R 1 0 R 1 0 R 1 0 R 1 0 R 1 0 R 2 0 R 1 0 R 1 0 R 1 0 R
1 0 R 1 0 R 1 0 R 1 0 R 1 0 R 1 0 R 1 0 R 1 0 R 2 0 R 1 0 R 1 0 R 1 0 R
1 0 R 1 0 R 1 0 R 1 0 R 1 0 R 1 0 R 1 0 R 1 0 R 2 0 R 1 0 R 1 0 R 1 0 R
1 0 R 1 0 R 1 0 R 1 0 R 1 0 R 1 0 R 1 0 R 1 0 R 2 0 R 1 0 R 1 0 R 1 0 R
1 0 R 1 0 R 1 0 R 1 0 R 1 0 R 1 0 R 1 0 R 1 0 R 2 0 R 1 0 R 1 0 R 1 0 R
1 0 R 1 0 R 1 0 R 1 0 R 1 0 R 1 0 R 1 0 R 1 0 R 2 0 R 1 0 R 1 0 R 1 0 R
1 0 R 1 0 R 1 0 R 1 0 R 1 0 R 1 0 R 1 0 R 1 0 R 2 0 R 1 0 R 1 0 R 1 0 R
1 0 R 1 0 R 1 0 R 1 0 R 1 0 R 1 0 R 1 0 R 1 0 R 2 0 R 1 0 R 1 0 R 1 0 R
1 0 R 1 0 R 1 0 R 1 0 R 1 0 R 1 0 R 1 0 R 1 0 R 2 0 R 1 0 R 1 0 R 1 0 R
1 0 R 1 0 R 1 0 R 1 0 R 1 0 R 1 0 R 1 0 R 2 0 R 1 0 R 1 0 R 1 0 R 1 0 R
1 0 R 1 0 R 1 0 R 1 0 R 1 0 R 1 0 R 1 0 R 2 0 R 1 0 R 1 0 R 1 0 R 1 0 R
1 0 R 1 0 R 1 0 R 1 0 R 1 0 R 1 0 R 1 0 R 2 0 R 1 0 R 1 0 R 1 0 R 1 0 R
1 0 R 1 0 R 1 0 R 1 0 R 1 0 R 1 0 R 1 0 R 2 0 R 1 0 R 1 1 R 1 0 R 1 0 R
1 0 R 1 0 R 1 0 R 1 0 R 1 0 R 1 0 R 1 0 R 2 0 R 1 0 R 1 0 R 1 0 R 1 0 R
1 0 R 1 0 R 1 0 R 1 0 R 1 0 R 1 0 R 1 0 R 2 0 R 1 0 R 1 0 R 1 0 R 1 0 R
1 0 R 1 0 R 1 0 R 1 0 R 1 0 R 1 0 R 1 0 R 2 0 R 1 0 R 1 0 R 1 0 R 1 0 R
1 0 R 1 0 R 1 0 R 1 0 R 1 0 R 1 0 R 1 0 R 2 0 R 1 0 R 1 0 R 1 0 R 1 0 R
1 0 R 1 0 R 1 0 R 1 0 R 1 0 R 1 0 R 1 0 R 2 0 R 1 0 R 1 0 R 1 0 R 1 0 R
1 0 R 1 0 R 1 0 R 1 0 R 1 0 R 1 0 R 1 0 R 2 0 R 1 0 R 1 0 R 1 0 R 1 0 R
1 0 R 1 0 R 1 0 R 1 0 R 1 0 R 1 0 R 1 0 R 2 0 R 1 0 R 1 0 R 1 0 R 1 0 R
1 0 R 1 0 R 1 0 R 1 0 R 1 0 R 1 0 R 1 0 R 2 0 R 1 0 R 1 0 R 1 0 R 1 0 R
1 0 R 1 0 R 1 0 R 1 0 R 1 0 R 1 0 R 1 0 R 2 0 R 1 0 R 1 0 R 1 0 R 1 0 R
1 0 R 1 0 R 1 0 R 1 0 R 1 0 R 1 0 R 1 0 R 2 0 R 1 0 R 1 0 R 1 0 R 1 0 R
1 0 R 1 0 R 1 0 R 1 0 R 1 0 R 1 0 R 1 0 R 2 0 R 1 0 R 1 0 R 1 0 R 1 0 R
1 0 R 1 0 R 1 0 R 1 0 R 1 0 R 1 0 R 1 0 R 2 0 R 1 0 R 1 0 R 1 0 R 1 0 R
1 0 R 1 0 R 1 0 R 1 0 R 1 0 R 1 0 R 1 0 R 2 0 R 1 0 R 1 0 R 1 0 R 1 0 R
1 0 R 1 0 R 1 0 R 1 0 R 1 0 R 1 0 R 1 0 R 2 0 R 1 0 R 1 0 R 1 0 R 1 0 R
1 0 R 1 0 R 1 0 R 1 0 R 1 0 R 1 0 R 1 0 R 2 0 R 1 0 R 1 0 R 1 0 R 1 0 R
1 0 R 1 0 R 1 0 R 1 0 R 1 0 R 1 0 R 1 0 R 2 0 R 1 0 R 1 0 R 1 0 R 1 0 R
1 0 R 1 0 R 1 0 R 1 0 R 1 0 R 1 0 R 1 0 R 2 0 R 1 0 R 1 0 R 1 0 R 1 0 R
1 0 R 1 0 R 1 0 R 1 0 R 1 0 R 1 0 R 1 0 R 2 0 R 1 0 R 1 0 R 1 0 R 1 0 R
1 0 R 1 0 R 1 0 R 1 0 R 1 0 R 1 0 R 1 0 R 2 0 R 1 0 R 1 0 R 1 0 R 1 0 R
1 0 R 1 0 R 1 0 R 1 0 R 1 0 R 1 0 R 1 0 R 2 0 R 1 0 R 1 0 R 1 0 R 1 0 R
1 0 R 1 0 R 1 0 R 1 0 R 1 0 R 1 0 R 1 0 R 2 0 R 1 0 R 1 0 R 1 0 R 1 0 R
1 0 R 1 0 R 1 0 R 1 0 R 1 0 R 1 0 R 1 0 R 2 0 R 1 0 R 1 0 R 1 0 R 1 0 R
1 0 R 1 0 R 1 0 R 1 0 R 1 0 R 1 0 R 1 0 R 2 0 R 1 0 R 1 0 R 1 0 R 1 0 R
1 0 R 1 0 R 1 0 R 1 0 R 1 0 R 1 0 R 1 0 R 2 0 R 1 0 R 1 0 R 1 0 R 1 0 R
1 0 R 1 0 R 1 0 R 1 0 R 1 0 R 1 0 R 1 0 R 2 0 R 1 0 R 1 0 R 1 0 R 1 0 R
1 0 R 1 0 R 1 0 R 1 0 R 1 0 R 1 0 R 1 0 R 2 0 R 1 0 R 1 0 R 1 0 R 1 0 R
1 0 R 1 0 R 1 0 R 1 0 R 1 0 R 1 0 R 1 0 R 2 0 R 1 0 R 1 0 R 1 1 R 1 0 R
1 0 R 1 0 R 1 0 R 1 0 R 1 0 R 1 0 R 1 0 R 2 0 R 1 0 R 1 0 R 1 0 R 1 0 R
1 0 R 1 0 R 1 0 R 1 0 R 1 0 R 1 0 R 1 0 R 2 0 R 1 0 R 1 0 R 1 0 R 1 0 R
1 0 R 1 0 R 1 0 R 1 0 R 1 0 R 1 0 R 1 0 R 2 0 R 1 0 R 1 0 R 1 0 R 1 0 R
1 0 R 1 0 R 1 0 R 1 0 R 1 0 R 1 0 R 1 0 R 2 0 R 1 0 R 1 0 R 1 0 R 1 0 R
1 0 R 1 0 R 1 0 R 1 0 R 1 0 R 1 0 R 1 0 R 2 0 R 1 0 R 1 0 R 1 0 R 1 0 R
1 0 R 1 0 R 1 0 R 1 0 R 1 0 R 1 0 R 1 0 R 2 0 R 1 0 R 1 0 R 1 0 R 1 0 R
1 0 R 1 0 R 1 0 R 1 0 R 1 0 R 1 0 R D 3769 1668 M 1 0 R 2 0 R 1 0 R 1 0 R
1 0 R 1 0 R 1 0 R 1 0 R 1 0 R 1 0 R 1 0 R 1 0 R 1 0 R 2 0 R 1 0 R 1 0 R
1 0 R 1 0 R 1 0 R 1 0 R 1 0 R 1 0 R 1 0 R 1 0 R 1 0 R 2 0 R 1 0 R 1 0 R
1 0 R 1 0 R 1 0 R 1 0 R 1 0 R 1 0 R 1 0 R 1 0 R 1 0 R 2 0 R 1 0 R 1 0 R
1 0 R 1 0 R 1 0 R 1 0 R 1 0 R 1 0 R 1 0 R 1 0 R 1 0 R 2 0 R 1 0 R 1 0 R
1 0 R 1 0 R 1 0 R 1 0 R 1 0 R 1 0 R 1 0 R 1 0 R 2 0 R 1 0 R 1 0 R 1 0 R
1 0 R 1 0 R 1 0 R 1 0 R 1 0 R 1 0 R 1 0 R 1 0 R 2 0 R 1 0 R 1 0 R 1 0 R
1 0 R 1 0 R 1 0 R 1 0 R 1 0 R 1 0 R 1 0 R 1 0 R 2 0 R 1 0 R 1 0 R 1 0 R
1 0 R 1 0 R 1 0 R 1 0 R 1 0 R 1 0 R 1 0 R 1 0 R 2 0 R 1 0 R 1 0 R 1 0 R
1 0 R 1 0 R 1 0 R 1 0 R 1 0 R 1 0 R 1 0 R 1 0 R 2 0 R 1 0 R 1 0 R 1 0 R
1 0 R 1 0 R 1 0 R 1 0 R 1 0 R 1 0 R 1 0 R 1 0 R 2 0 R 1 0 R 1 0 R 1 0 R
1 0 R 1 0 R 1 0 R 1 0 R 1 0 R 1 0 R 1 0 R 1 0 R 2 0 R 1 0 R 1 0 R 1 0 R
1 0 R 1 0 R 1 0 R 1 0 R 1 0 R 1 0 R 1 0 R 1 0 R 2 0 R 1 0 R 1 0 R 1 0 R
1 0 R 1 0 R 1 0 R 1 0 R 1 0 R 1 0 R 1 0 R 1 0 R 2 0 R 1 0 R 1 0 R 1 0 R
1 0 R 1 0 R 1 0 R 1 0 R 1 0 R 1 0 R 1 0 R 1 0 R 2 0 R 1 0 R 1 0 R 1 0 R
1 0 R 1 0 R 1 0 R 1 0 R 1 0 R 1 0 R 1 0 R 1 0 R 2 0 R 1 0 R 1 0 R 1 0 R
1 0 R 1 0 R 1 0 R 1 0 R 1 0 R 1 0 R 1 0 R 1 0 R 2 0 R 1 0 R 1 0 R 1 0 R
1 0 R 1 0 R 1 0 R 1 0 R 1 0 R 1 0 R 1 0 R 1 0 R 2 0 R 1 0 R 1 0 R 1 0 R
1 0 R 1 0 R 1 0 R 1 0 R 1 0 R 1 0 R 1 0 R 1 0 R 2 0 R 1 0 R 1 0 R 1 0 R
1 0 R 1 0 R 1 0 R 1 0 R 1 0 R 1 0 R 1 0 R 1 0 R 2 0 R 1 0 R 1 0 R 1 0 R
1 0 R 1 0 R 1 0 R 1 0 R 1 0 R 1 0 R 1 0 R 1 0 R 2 0 R 1 0 R 1 0 R 1 0 R
1 0 R 1 1 R 1 0 R 1 0 R 1 0 R 1 0 R 1 0 R 1 0 R 2 0 R 1 0 R 1 0 R 1 0 R
1 0 R 1 0 R 1 0 R 1 0 R 1 0 R 1 0 R 1 0 R 1 0 R 2 0 R 1 0 R 1 0 R 1 0 R
1 0 R 1 0 R 1 0 R 1 0 R 1 0 R 1 0 R 1 0 R 1 0 R 2 0 R 1 0 R 1 0 R 1 0 R
1 0 R 1 0 R 1 0 R 1 0 R 1 0 R 1 0 R 1 0 R 1 0 R 2 0 R 1 0 R 1 0 R 1 0 R
1 0 R 1 0 R 1 0 R 1 0 R 1 0 R 1 0 R 1 0 R 1 0 R 2 0 R 1 0 R 1 0 R 1 0 R
1 0 R 1 0 R 1 0 R 1 0 R 1 0 R 1 0 R 1 0 R 1 0 R 2 0 R 1 0 R 1 0 R 1 0 R
1 0 R 1 0 R 1 0 R 1 0 R 1 0 R 1 0 R 1 0 R 1 0 R 2 0 R 1 0 R 1 0 R 1 0 R
1 0 R 1 0 R 1 0 R 1 0 R 1 0 R 1 0 R 1 0 R 1 0 R 2 0 R 1 0 R 1 0 R 1 0 R
1 0 R 1 0 R 1 0 R 1 0 R 1 0 R 1 0 R 1 0 R 1 0 R 2 0 R 1 0 R 1 0 R 1 0 R
1 0 R 1 0 R 1 0 R 1 0 R 1 0 R 1 0 R 1 0 R 1 0 R 2 0 R 1 0 R 1 0 R 1 0 R
1 0 R 1 0 R 1 0 R 1 0 R 1 0 R 1 0 R 1 0 R 1 0 R 2 0 R 1 0 R 1 0 R 1 0 R
1 0 R 1 0 R 1 0 R 1 0 R 1 0 R 1 0 R 1 0 R 1 0 R 2 0 R 1 0 R 1 0 R 1 0 R
1 0 R 1 0 R 1 0 R 1 0 R 1 0 R 1 0 R 1 0 R 1 0 R 2 0 R 1 0 R 1 0 R 1 0 R
1 0 R 1 0 R 1 0 R 1 0 R 1 0 R 1 0 R 1 0 R 1 0 R 2 0 R 1 0 R 1 0 R 1 0 R
1 0 R 1 0 R 1 0 R 1 0 R 1 0 R 1 0 R 1 0 R 1 0 R 2 0 R 1 0 R 1 0 R 1 0 R
1 0 R 1 0 R 1 0 R 1 0 R 1 0 R 1 0 R 1 0 R 1 0 R 2 0 R 1 0 R 1 0 R 1 0 R
1 0 R 1 0 R 1 0 R 1 0 R 1 0 R 1 0 R 1 0 R 1 0 R 2 0 R 1 0 R 1 0 R 1 0 R
1 0 R 1 0 R 1 0 R 1 0 R 1 0 R 1 0 R 1 0 R 1 0 R 2 0 R 1 0 R 1 0 R 1 0 R
1 0 R 1 0 R 1 0 R 1 0 R 1 0 R 1 0 R 1 0 R 1 0 R 2 0 R 1 0 R 1 0 R 1 0 R
1 0 R 1 0 R 1 0 R 1 0 R 1 0 R 1 0 R 1 0 R 1 0 R 2 0 R 1 0 R 1 0 R 1 0 R
1 0 R 1 0 R 1 0 R 1 0 R 1 0 R 1 0 R 1 0 R 1 0 R 2 0 R 1 0 R 1 0 R 1 0 R
1 0 R 1 0 R 1 0 R 1 0 R 1 0 R 1 0 R 1 0 R 1 0 R 2 0 R 1 0 R 1 0 R 1 0 R
1 0 R 1 0 R 1 0 R 1 0 R 1 0 R 1 0 R 1 0 R 1 0 R 2 0 R 1 0 R 1 0 R 1 0 R
1 0 R 1 0 R 1 0 R 1 0 R 1 0 R 1 0 R 1 0 R 1 0 R 2 0 R 1 0 R 1 0 R 1 0 R
1 0 R 1 0 R 1 0 R 1 0 R 1 0 R 1 0 R 1 0 R 1 0 R 2 0 R 1 0 R 1 0 R 1 0 R
1 0 R 1 0 R 1 0 R 1 0 R 1 0 R 1 0 R 1 0 R 2 0 R 1 0 R 1 0 R 1 0 R 1 0 R
1 0 R 1 0 R 1 0 R 1 0 R 1 0 R 1 0 R 1 0 R 2 0 R 1 0 R 1 0 R 1 1 R 1 0 R
1 0 R 1 0 R 1 0 R 1 0 R 1 0 R 1 0 R 1 0 R 2 0 R 1 0 R 1 0 R 1 0 R 1 0 R
1 0 R 1 0 R 1 0 R 1 0 R 1 0 R 1 0 R 1 0 R 2 0 R 1 0 R 1 0 R 1 0 R 1 0 R
1 0 R 1 0 R 1 0 R 1 0 R 1 0 R 1 0 R 1 0 R 2 0 R 1 0 R 1 0 R 1 0 R 1 0 R
1 0 R 1 0 R 1 0 R 1 0 R 1 0 R 1 0 R 1 0 R 2 0 R 1 0 R 1 0 R 1 0 R 1 0 R
1 0 R 1 0 R 1 0 R 1 0 R 1 0 R 1 0 R 1 0 R 2 0 R 1 0 R 1 0 R 1 0 R 1 0 R
1 0 R 1 0 R 1 0 R 1 0 R 1 0 R 1 0 R 1 0 R 2 0 R 1 0 R 1 0 R 1 0 R 1 0 R
1 0 R 1 0 R 1 0 R 1 0 R 1 0 R 1 0 R 1 0 R 2 0 R 1 0 R 1 0 R 1 0 R 1 0 R
1 0 R 1 0 R 1 0 R 1 0 R 1 0 R 1 0 R 1 0 R 2 0 R 1 0 R 1 0 R 1 0 R 1 0 R
1 0 R 1 0 R 1 0 R 1 0 R 1 0 R 1 0 R 1 0 R 2 0 R 1 0 R 1 0 R 1 0 R 1 0 R
1 0 R 1 0 R 1 0 R 1 0 R 1 0 R 1 0 R 1 0 R 2 0 R 1 0 R 1 0 R 1 0 R 1 0 R
1 0 R 1 0 R 1 0 R 1 0 R 1 0 R 1 0 R 1 0 R 2 0 R 1 0 R 1 0 R 1 0 R 1 0 R
1 0 R 1 0 R 1 0 R 1 0 R 1 0 R 1 0 R 1 0 R 2 0 R 1 0 R 1 0 R 1 0 R 1 0 R
1 0 R 1 0 R 1 0 R 1 0 R 1 0 R 1 0 R 1 0 R 2 0 R 1 0 R 1 0 R 1 0 R 1 0 R
1 0 R 1 0 R 1 0 R 1 0 R 1 0 R 1 0 R 1 0 R 2 0 R 1 0 R 1 0 R 1 0 R 1 0 R
1 0 R 1 0 R 1 0 R 1 0 R 1 0 R 1 0 R 1 0 R 2 0 R 1 0 R 1 0 R 1 0 R 1 0 R
1 0 R 1 0 R D 4582 1670 M 1 0 R 1 0 R 1 0 R 1 0 R 1 0 R 2 0 R 1 0 R 1 0 R
1 0 R 1 0 R 1 0 R 1 0 R 1 0 R 1 0 R 1 0 R 1 0 R 1 0 R 2 0 R 1 0 R 1 0 R
1 0 R 1 0 R 1 0 R 1 0 R 1 0 R 1 0 R 1 0 R 1 0 R 1 0 R 2 0 R 1 0 R 1 0 R
1 0 R 1 0 R 1 0 R 1 0 R 1 0 R 1 0 R 1 0 R 1 0 R 1 0 R 2 0 R 1 0 R 1 0 R
1 0 R 1 0 R 1 0 R 1 0 R 1 0 R 1 0 R 1 0 R 1 0 R 1 0 R 2 0 R 1 0 R 1 0 R
1 0 R 1 0 R 1 0 R 1 0 R 1 0 R 1 0 R 1 0 R 1 0 R 1 0 R 2 0 R 1 0 R 1 0 R
1 0 R 1 0 R 1 0 R 1 0 R 1 0 R 1 0 R 1 0 R 1 0 R 1 0 R 2 0 R 1 0 R 1 0 R
1 0 R 1 0 R 1 0 R 1 0 R 1 0 R 1 0 R 1 0 R 1 0 R 1 0 R 2 0 R 1 0 R 1 0 R
1 0 R 1 0 R 1 0 R 1 0 R 1 0 R 1 0 R 1 0 R 1 0 R 1 0 R 2 0 R 1 0 R 1 0 R
1 0 R 1 0 R 1 0 R 1 0 R 1 0 R 1 0 R 1 0 R 1 0 R 1 0 R 2 0 R 1 0 R 1 0 R
1 0 R 1 0 R 1 0 R 1 0 R 1 0 R 1 0 R 1 0 R 1 0 R 1 0 R 2 0 R 1 0 R 1 0 R
1 0 R 1 0 R 1 0 R 1 0 R 1 0 R 1 1 R 1 0 R 1 0 R 1 0 R 2 0 R 1 0 R 1 0 R
1 0 R 1 0 R 1 0 R 1 0 R 1 0 R 1 0 R 1 0 R 1 0 R 1 0 R 2 0 R 1 0 R 1 0 R
1 0 R 1 0 R 1 0 R 1 0 R 1 0 R 1 0 R 1 0 R 1 0 R 1 0 R 2 0 R 1 0 R 1 0 R
1 0 R 1 0 R 1 0 R 1 0 R 1 0 R 1 0 R 1 0 R 1 0 R 1 0 R 2 0 R 1 0 R 1 0 R
1 0 R 1 0 R 1 0 R 1 0 R 1 0 R 1 0 R 1 0 R 1 0 R 1 0 R 2 0 R 1 0 R 1 0 R
1 0 R 1 0 R 1 0 R 1 0 R 1 0 R 1 0 R 1 0 R 1 0 R 1 0 R 2 0 R 1 0 R 1 0 R
1 0 R 1 0 R 1 0 R 1 0 R 1 0 R 1 0 R 1 0 R 1 0 R 1 0 R 2 0 R 1 0 R 1 0 R
1 0 R 1 0 R 1 0 R 1 0 R 1 0 R 1 0 R 1 0 R 1 0 R 1 0 R 2 0 R 1 0 R 1 0 R
1 0 R 1 0 R 1 0 R 1 0 R 1 0 R 1 0 R 1 0 R 1 0 R 1 0 R 2 0 R 1 0 R 1 0 R
1 0 R 1 0 R 1 0 R 1 0 R 1 0 R 1 0 R 1 0 R 1 0 R 1 0 R 2 0 R 1 0 R 1 0 R
1 0 R 1 0 R 1 0 R 1 0 R 1 0 R 1 0 R 1 0 R 1 0 R 1 0 R 2 0 R 1 0 R 1 0 R
1 0 R 1 0 R 1 0 R 1 0 R 1 0 R 1 0 R 1 0 R 1 0 R 1 0 R 2 0 R 1 0 R 1 0 R
1 0 R 1 0 R 1 0 R 1 0 R 1 0 R 1 0 R 1 0 R 1 0 R 1 0 R 2 0 R 1 0 R 1 0 R
1 0 R 1 0 R 1 0 R 1 0 R 1 0 R 1 0 R 1 0 R 1 0 R 1 0 R 2 0 R 1 0 R 1 0 R
1 0 R 1 0 R 1 0 R 1 0 R 1 0 R 1 0 R 1 0 R 1 0 R 2 0 R 1 0 R 1 0 R 1 0 R
1 0 R 1 0 R 1 0 R 1 0 R 1 0 R 1 0 R 1 0 R 1 0 R 2 0 R 1 0 R 1 0 R 1 0 R
1 0 R 1 0 R 1 0 R 1 0 R 1 0 R 1 0 R 1 0 R 1 0 R 2 0 R 1 0 R 1 0 R 1 0 R
1 0 R 1 0 R 1 0 R 1 0 R 1 0 R 1 0 R 1 0 R 1 0 R 2 0 R 1 0 R 1 0 R 1 0 R
1 0 R 1 0 R 1 0 R 1 0 R 1 0 R 1 0 R 1 0 R 1 0 R 2 0 R 1 0 R 1 0 R 1 0 R
1 0 R 1 0 R 1 0 R 1 0 R 1 0 R 1 0 R 1 0 R 1 0 R 2 0 R 1 0 R 1 0 R 1 0 R
1 0 R 1 0 R 1 0 R 1 0 R 1 0 R 1 0 R 1 0 R 1 0 R 2 0 R 1 0 R 1 0 R 1 0 R
1 0 R 1 0 R 1 0 R 1 0 R 1 0 R 1 0 R 1 0 R 1 0 R 2 0 R 1 0 R 1 0 R 1 0 R
1 0 R 1 0 R 1 0 R 1 0 R 1 0 R 1 0 R 1 0 R 1 0 R 2 0 R 1 0 R 1 0 R 1 0 R
1 0 R 1 0 R 1 0 R 1 0 R 1 0 R 1 0 R 1 0 R 1 0 R 2 0 R 1 0 R 1 0 R 1 0 R
1 0 R 1 0 R 1 0 R 1 0 R 1 0 R 1 0 R 1 0 R 1 0 R 2 0 R 1 0 R 1 0 R 1 0 R
1 0 R 1 0 R 1 0 R 1 0 R 1 0 R 1 0 R 1 0 R 1 0 R 2 0 R 1 0 R 1 0 R 1 0 R
1 0 R 1 0 R 1 0 R 1 0 R 1 0 R 1 0 R 1 0 R 1 0 R 2 0 R 1 1 R 1 0 R 1 0 R
1 0 R 1 0 R 1 0 R 1 0 R 1 0 R 1 0 R 1 0 R 1 0 R 2 0 R 1 0 R 1 0 R 1 0 R
1 0 R 1 0 R 1 0 R 1 0 R 1 0 R 1 0 R 1 0 R 1 0 R 2 0 R 1 0 R 1 0 R 1 0 R
1 0 R 1 0 R 1 0 R 1 0 R 1 0 R 1 0 R 1 0 R 1 0 R 2 0 R 1 0 R 1 0 R 1 0 R
1 0 R 1 0 R 1 0 R 1 0 R 1 0 R 1 0 R 1 0 R 1 0 R 2 0 R 1 0 R 1 0 R 1 0 R
1 0 R 1 0 R 1 0 R 1 0 R 1 0 R 1 0 R 1 0 R 1 0 R 2 0 R 1 0 R 1 0 R 1 0 R
1 0 R 1 0 R 1 0 R 1 0 R 1 0 R 1 0 R 1 0 R 1 0 R 2 0 R 1 0 R 1 0 R 1 0 R
1 0 R 1 0 R 1 0 R 1 0 R 1 0 R 1 0 R 1 0 R 1 0 R 2 0 R 1 0 R 1 0 R 1 0 R
1 0 R 1 0 R 1 0 R 1 0 R 1 0 R 1 0 R 1 0 R 1 0 R 2 0 R 1 0 R 1 0 R 1 0 R
1 0 R 1 0 R 1 0 R 1 0 R 1 0 R 1 0 R 1 0 R 1 0 R 2 0 R 1 0 R 1 0 R 1 0 R
1 0 R 1 0 R 1 0 R 1 0 R 1 0 R 1 0 R 1 0 R 1 0 R 2 0 R 1 0 R 1 0 R 1 0 R
1 0 R 1 0 R 1 0 R 1 0 R 1 0 R 1 0 R 1 0 R 1 0 R 2 0 R 1 0 R 1 0 R 1 0 R
1 0 R 1 0 R 1 0 R 1 0 R 1 0 R 1 0 R 1 0 R 1 0 R 2 0 R 1 0 R 1 0 R 1 0 R
1 0 R 1 0 R 1 0 R 1 0 R 1 0 R 1 0 R 1 0 R 1 0 R 2 0 R 1 0 R 1 0 R 1 0 R
1 0 R 1 0 R 1 0 R 1 0 R 1 0 R 1 0 R 1 0 R 1 0 R 2 0 R 1 0 R 1 0 R 1 0 R
1 0 R 1 0 R 1 0 R 1 0 R 1 0 R 1 0 R 1 0 R 1 0 R 2 0 R 1 0 R 1 0 R 1 0 R
1 0 R 1 0 R 1 0 R 1 0 R 1 0 R 1 0 R 1 0 R 1 0 R 2 0 R 1 0 R 1 0 R 1 0 R
1 0 R 1 0 R 1 0 R 1 0 R 1 0 R 1 0 R 1 0 R 1 0 R 2 0 R 1 0 R 1 0 R 1 0 R
1 0 R 1 0 R 1 0 R 1 0 R 1 0 R 1 0 R 1 0 R 1 0 R 2 0 R 1 0 R 1 0 R 1 0 R
1 0 R 1 0 R 1 0 R 1 0 R 1 0 R 1 0 R 1 0 R 1 0 R 2 0 R 1 0 R 1 0 R 1 0 R
1 0 R 1 0 R 1 0 R 1 0 R 1 0 R 1 0 R 1 0 R 1 0 R 2 0 R 1 0 R 1 0 R 1 0 R
1 0 R 1 0 R 1 0 R 1 0 R 1 0 R 1 0 R 1 0 R 1 0 R 2 0 R 1 0 R 1 0 R 1 0 R
1 0 R 1 0 R 1 0 R 1 0 R 1 0 R 1 0 R 1 0 R 1 0 R 2 0 R 1 0 R 1 0 R 1 0 R
1 0 R 1 0 R 1 0 R 1 0 R 1 0 R 1 0 R 1 0 R 1 0 R 2 0 R 1 0 R 1 0 R 1 0 R
1 0 R 1 0 R 1 0 R 1 0 R 1 0 R 1 0 R 1 0 R 1 0 R 2 0 R 1 0 R 1 0 R 1 0 R
1 0 R 1 0 R 1 0 R 1 0 R 1 0 R 1 0 R 1 0 R 1 0 R 2 0 R 1 0 R D 5395 1672 M
1 0 R 1 0 R 1 1 R 1 0 R 1 0 R 1 0 R 1 0 R 1 0 R 1 0 R 1 0 R 2 0 R 1 0 R
1 0 R 1 0 R 1 0 R 1 0 R 1 0 R 1 0 R 1 0 R 1 0 R 1 0 R 1 0 R 2 0 R 1 0 R
1 0 R 1 0 R 1 0 R 1 0 R 1 0 R 1 0 R 1 0 R 1 1 R 1 0 R 1 0 R 2 0 R 1 0 R
1 0 R 1 0 R 1 1 R 1 0 R 1 0 R 1 0 R 1 1 R 1 0 R 1 0 R 1 1 R 2 0 R 1 1 R
1 0 R 1 1 R 1 0 R 1 1 R 1 1 R 1 0 R 1 1 R 1 1 R 1 1 R 2 1 R 1 1 R 1 1 R
1 2 R 1 1 R 1 2 R 1 1 R 1 2 R 1 2 R 1 2 R 1 2 R 1 3 R 2 2 R 1 3 R 1 3 R
1 3 R 1 3 R 1 4 R 1 3 R 1 4 R 1 5 R 1 4 R 1 5 R 1 5 R 2 6 R 1 6 R 1 6 R
1 6 R 1 7 R 1 8 R 1 8 R 1 8 R 1 9 R 1 9 R 1 10 R 1 10 R 2 11 R 1 11 R 1 12 R
1 12 R 1 14 R 1 14 R 1 14 R 1 15 R 1 16 R 1 17 R 1 17 R 1 19 R 2 19 R 1 20 R
1 20 R 1 22 R 1 22 R 1 24 R 1 24 R 1 25 R 1 26 R 1 28 R 1 28 R 1 29 R 2 30 R
1 31 R 1 32 R 1 33 R 1 34 R 1 36 R 1 36 R 1 37 R 1 38 R 1 40 R 1 40 R 1 41 R
2 42 R 1 44 R 1 44 R 1 45 R 1 46 R 1 47 R 1 48 R 1 48 R 1 50 R 1 50 R 1 51 R
1 51 R 2 52 R 1 53 R 1 54 R 1 54 R 1 54 R 1 55 R 1 55 R 1 56 R 1 55 R 1 56 R
1 56 R 1 56 R 2 56 R 1 54 R 1 52 R 1 47 R 1 33 R 1 8 R 1 0 R 1 0 R 1 0 R
1 0 R 1 0 R 1 0 R 2 0 R 1 0 R 1 0 R 1 0 R 1 0 R 1 0 R 1 0 R 1 0 R 1 0 R
1 0 R 1 0 R 1 -1 R 2 0 R 1 0 R 1 -1 R 1 0 R 1 0 R 1 -1 R 1 0 R 1 -1 R 1 0 R
1 -1 R 1 0 R 1 0 R 2 0 R 1 0 R 1 0 R 1 0 R 1 0 R 1 0 R 1 0 R 1 0 R 1 0 R
1 0 R 1 0 R 1 0 R 2 1 R 1 0 R 1 0 R 1 0 R 1 1 R 1 0 R 1 0 R 1 1 R 1 0 R
1 1 R 1 0 R 1 0 R 2 1 R 1 0 R 1 1 R 1 0 R 1 0 R 1 0 R 1 1 R 1 0 R 1 0 R
1 1 R 1 0 R 1 0 R 2 0 R 1 1 R 1 0 R 1 0 R 1 1 R 1 0 R 1 0 R 1 0 R 1 1 R
1 0 R 1 0 R 1 1 R 2 0 R 1 0 R 1 1 R 1 0 R 1 0 R 1 0 R 1 1 R 1 0 R 1 0 R
1 1 R 1 0 R 1 0 R 2 1 R 1 0 R 1 1 R 1 0 R 1 0 R 1 1 R 1 0 R 1 1 R 1 0 R
1 1 R 1 0 R 1 0 R 2 1 R 1 0 R 1 1 R 1 0 R 1 1 R 1 0 R 1 1 R 1 0 R 1 1 R
1 1 R 1 0 R 1 1 R 2 0 R 1 1 R 1 0 R 1 1 R 1 0 R 1 0 R 1 1 R 1 0 R 1 1 R
1 0 R 1 1 R 1 0 R 2 1 R 1 0 R 1 0 R 1 1 R 1 0 R 1 1 R 1 0 R 1 0 R 1 1 R
1 0 R 1 0 R 1 1 R 2 0 R 1 0 R 1 1 R 1 0 R 1 0 R 1 1 R 1 0 R 1 0 R 1 1 R
1 0 R 1 0 R 1 0 R 2 1 R 1 0 R 1 0 R 1 1 R 1 0 R 1 0 R 1 1 R 1 0 R 1 0 R
1 0 R 1 1 R 1 0 R 2 0 R 1 1 R 1 0 R 1 0 R 1 1 R 1 0 R 1 0 R 1 0 R 1 1 R
1 0 R 1 0 R 1 1 R 2 0 R 1 0 R 1 1 R 1 0 R 1 0 R 1 1 R 1 0 R 1 0 R 1 1 R
1 0 R 1 0 R 1 1 R 2 0 R 1 0 R 1 1 R 1 0 R 1 0 R 1 1 R 1 0 R 1 0 R 1 1 R
1 0 R 1 0 R 1 1 R 2 0 R 1 1 R 1 0 R 1 0 R 1 1 R 1 0 R 1 0 R 1 1 R 1 0 R
1 1 R 1 0 R 1 0 R 2 1 R 1 0 R 1 1 R 1 0 R 1 0 R 1 1 R 1 0 R 1 1 R 1 0 R
1 0 R 1 1 R 1 0 R 2 1 R 1 0 R 1 0 R 1 1 R 1 0 R 1 0 R 1 1 R 1 0 R 1 1 R
1 0 R 1 0 R 1 1 R 2 0 R 1 0 R 1 1 R 1 0 R 1 1 R 1 0 R 1 0 R 1 1 R 1 0 R
1 0 R 1 1 R 1 0 R 2 0 R 1 1 R 1 0 R 1 1 R 1 0 R 1 0 R 1 1 R 1 0 R 1 0 R
1 1 R 1 0 R 1 0 R 2 1 R 1 0 R 1 0 R 1 1 R 1 0 R 1 1 R 1 0 R 1 0 R 1 1 R
1 0 R 1 0 R 1 1 R 2 0 R 1 0 R 1 1 R 1 0 R 1 0 R 1 1 R 1 0 R 1 1 R 1 0 R
1 0 R 1 1 R 1 0 R 2 0 R 1 1 R 1 0 R 1 0 R 1 1 R 1 0 R 1 0 R 1 1 R 1 0 R
1 0 R 1 1 R 1 0 R 2 1 R 1 0 R 1 0 R 1 1 R 1 0 R 1 0 R 1 1 R 1 0 R 1 0 R
1 1 R 1 0 R 1 0 R 2 1 R 1 0 R 1 0 R 1 1 R 1 0 R 1 1 R 1 0 R 1 0 R 1 1 R
1 0 R 1 0 R 1 1 R 2 0 R 1 0 R 1 1 R 1 0 R 1 1 R 1 0 R 1 0 R 1 1 R 1 0 R
1 0 R 1 1 R 1 0 R 2 1 R 1 0 R 1 0 R 1 1 R 1 0 R 1 0 R 1 1 R 1 0 R 1 1 R
1 0 R 1 0 R 1 1 R 2 0 R 1 0 R 1 1 R 1 0 R 1 0 R 1 1 R 1 0 R 1 1 R 1 0 R
1 0 R 1 1 R 1 0 R 2 0 R 1 1 R 1 0 R 1 1 R 1 0 R 1 0 R 1 1 R 1 0 R 1 0 R
1 1 R 1 0 R 1 0 R 2 1 R 1 0 R 1 0 R 1 1 R 1 0 R 1 1 R 1 0 R 1 0 R 1 1 R
1 0 R 1 0 R 1 1 R 2 0 R 1 0 R 1 1 R 1 0 R 1 1 R 1 0 R 1 0 R 1 1 R 1 0 R
1 0 R 1 1 R 1 0 R 2 0 R 1 1 R 1 0 R 1 1 R 1 0 R 1 0 R 1 1 R 1 0 R 1 0 R
1 1 R 1 0 R 2 0 R 1 1 R 1 0 R 1 1 R 1 0 R 1 0 R 1 1 R 1 0 R 1 0 R 1 1 R
1 0 R 1 0 R 2 1 R 1 0 R 1 1 R 1 0 R 1 0 R 1 1 R 1 0 R 1 0 R 1 1 R 1 0 R
1 0 R 1 1 R 2 0 R 1 1 R 1 0 R 1 0 R 1 1 R 1 0 R 1 0 R 1 1 R 1 0 R 1 0 R
1 1 R 1 0 R 2 1 R 1 0 R 1 0 R 1 1 R 1 0 R 1 0 R 1 1 R 1 0 R 1 1 R 1 0 R
1 0 R 1 1 R 2 0 R 1 0 R 1 1 R 1 0 R 1 0 R 1 1 R 1 0 R 1 1 R 1 0 R 1 0 R
1 1 R 1 0 R 2 0 R 1 1 R 1 0 R 1 1 R 1 0 R 1 0 R 1 1 R 1 0 R 1 0 R 1 1 R
1 0 R 1 1 R 2 0 R 1 0 R 1 1 R 1 0 R 1 0 R 1 1 R 1 0 R 1 1 R 1 0 R 1 0 R
1 1 R 1 0 R 2 0 R 1 1 R 1 0 R 1 0 R 1 1 R 1 0 R 1 1 R 1 0 R 1 0 R 1 1 R
1 0 R 1 0 R 2 1 R 1 0 R 1 0 R 1 1 R 1 0 R 1 1 R 1 0 R 1 0 R 1 1 R 1 0 R
1 0 R 1 1 R 2 0 R 1 0 R 1 1 R 1 0 R 1 1 R 1 0 R 1 0 R 1 1 R 1 0 R 1 0 R
1 1 R 1 0 R 2 1 R 1 0 R 1 0 R 1 1 R 1 0 R 1 0 R 1 1 R 1 0 R 1 1 R 1 0 R
1 0 R 1 1 R 2 0 R 1 0 R 1 1 R 1 0 R 1 1 R 1 0 R 1 0 R 1 1 R 1 0 R 1 0 R
1 1 R 1 0 R 2 1 R 1 0 R 1 0 R 1 1 R 1 0 R 1 0 R 1 1 R 1 0 R 1 0 R 1 1 R
1 0 R 1 1 R 2 0 R 1 0 R 1 1 R 1 0 R 1 0 R 1 1 R 1 0 R 1 0 R 1 1 R 1 0 R
1 1 R 1 0 R 2 0 R 1 1 R 1 0 R 1 0 R 1 1 R 1 0 R 1 1 R 1 0 R 1 0 R 1 1 R
1 0 R 1 0 R 2 1 R 1 0 R 1 1 R 1 0 R 1 0 R 1 1 R 1 0 R 1 0 R 1 1 R 1 0 R D
6207 4395 M 1 1 R 1 0 R 2 0 R 1 1 R 1 0 R 1 0 R 1 1 R 1 0 R 1 1 R 1 0 R
1 0 R 1 1 R 1 0 R 1 0 R 2 1 R 1 0 R 1 1 R 1 0 R 1 0 R 1 1 R 1 0 R 1 0 R
1 1 R 1 0 R 1 1 R 1 0 R 2 0 R 1 1 R 1 0 R 1 0 R 1 1 R 1 0 R 1 0 R 1 1 R
1 0 R 1 1 R 1 0 R 1 0 R 2 1 R 1 0 R 1 0 R 1 1 R 1 0 R 1 1 R 1 0 R 1 0 R
1 1 R 1 0 R 1 0 R 1 1 R 2 0 R 1 1 R 1 0 R 1 0 R 1 1 R 1 0 R 1 0 R 1 1 R
1 0 R 1 1 R 1 0 R 1 0 R 2 1 R 1 0 R 1 0 R 1 1 R 1 0 R 1 1 R 1 0 R 1 0 R
1 1 R 1 0 R 1 0 R 1 1 R 2 0 R 1 1 R 1 0 R 1 0 R 1 1 R 1 0 R 1 0 R 1 1 R
1 0 R 1 1 R 1 0 R 1 0 R 2 1 R 1 0 R 1 0 R 1 1 R 1 0 R 1 1 R 1 0 R 1 0 R
1 1 R 1 0 R 1 0 R 1 1 R 2 0 R 1 1 R 1 0 R 1 0 R 1 1 R 1 0 R 1 0 R 1 1 R
1 0 R 1 1 R 1 0 R 1 0 R 2 1 R 1 0 R 1 0 R 1 1 R 1 0 R 1 1 R 1 0 R 1 0 R
1 1 R 1 0 R 1 0 R 1 1 R 2 0 R 1 1 R 1 0 R 1 0 R 1 1 R 1 0 R 1 0 R 1 1 R
1 0 R 1 1 R 1 0 R 1 0 R 2 1 R 1 0 R 1 0 R 1 1 R 1 0 R 1 1 R 1 0 R 1 0 R
1 1 R 1 0 R 1 1 R 1 0 R 2 0 R 1 1 R 1 0 R 1 0 R 1 1 R 1 0 R 1 1 R 1 0 R
1 0 R 1 1 R 1 0 R 1 0 R 2 1 R 1 0 R 1 1 R 1 0 R 1 0 R 1 1 R 1 0 R 1 0 R
1 1 R 1 0 R 1 1 R 1 0 R 2 0 R 1 1 R 1 0 R 1 0 R 1 1 R 1 0 R 1 1 R 1 0 R
1 0 R 1 1 R 1 0 R 1 0 R 2 1 R 1 0 R 1 1 R 1 0 R 1 0 R 1 1 R 1 0 R 1 0 R
1 1 R 1 0 R 1 1 R 1 0 R 2 0 R 1 1 R 1 0 R 1 1 R 1 0 R 1 0 R 1 1 R 1 0 R
1 0 R 1 1 R 1 0 R 1 1 R 2 0 R 1 0 R 1 1 R 1 0 R 1 0 R 1 1 R 1 0 R 1 1 R
1 0 R 1 0 R 1 1 R 1 0 R 2 1 R 1 0 R 1 0 R 1 1 R 1 0 R 1 0 R 1 1 R 1 0 R
1 1 R 1 0 R 1 0 R 1 1 R 2 0 R 1 0 R 1 1 R 1 0 R 1 1 R 1 0 R 1 0 R 1 1 R
1 0 R 1 0 R 1 1 R 1 0 R 2 1 R 1 0 R 1 0 R 1 1 R 1 0 R 1 0 R 1 1 R 1 0 R
1 1 R 1 0 R 1 0 R 1 1 R 2 0 R 1 1 R 1 0 R 1 0 R 1 1 R 1 0 R 1 0 R 1 1 R
1 0 R 1 1 R 1 0 R 1 0 R 2 1 R 1 0 R 1 1 R 1 0 R 1 0 R 1 1 R 1 0 R 1 0 R
1 1 R 1 0 R 1 1 R 1 0 R 2 0 R 1 1 R 1 0 R 1 1 R 1 0 R 1 0 R 1 1 R 1 0 R
1 0 R 1 1 R 1 0 R 1 1 R 2 0 R 1 0 R 1 1 R 1 0 R 1 0 R 1 1 R 1 0 R 1 1 R
1 0 R 1 0 R 1 1 R 2 0 R 1 1 R 1 0 R 1 0 R 1 1 R 1 0 R 1 0 R 1 1 R 1 0 R
1 1 R 1 0 R 1 0 R 2 1 R 1 0 R 1 0 R 1 1 R 1 0 R 1 1 R 1 0 R 1 0 R 1 1 R
1 0 R 1 0 R 1 1 R 2 0 R 1 1 R 1 0 R 1 0 R 1 1 R 1 0 R 1 1 R 1 0 R 1 0 R
1 1 R 1 0 R 1 1 R 2 0 R 1 0 R 1 1 R 1 0 R 1 0 R 1 1 R 1 0 R 1 1 R 1 0 R
1 0 R 1 1 R 1 0 R 2 1 R 1 0 R 1 0 R 1 1 R 1 0 R 1 0 R 1 1 R 1 0 R 1 1 R
1 0 R 1 0 R 1 1 R 2 0 R 1 1 R 1 0 R 1 0 R 1 1 R 1 0 R 1 0 R 1 1 R 1 0 R
1 1 R 1 0 R 1 0 R 2 1 R 1 0 R 1 0 R 1 1 R 1 0 R 1 1 R 1 0 R 1 0 R 1 1 R
1 0 R 1 1 R 1 0 R 2 0 R 1 1 R 1 0 R 1 0 R 1 1 R 1 0 R 1 1 R 1 0 R 1 0 R
1 1 R 1 0 R 1 1 R 2 0 R 1 0 R 1 1 R 1 0 R 1 1 R 1 0 R 1 0 R 1 1 R 1 0 R
1 0 R 1 1 R 1 0 R 2 1 R 1 0 R 1 0 R 1 1 R 1 0 R 1 1 R 1 0 R 1 0 R 1 1 R
1 0 R 1 1 R 1 0 R 2 0 R 1 1 R 1 0 R 1 0 R 1 1 R 1 0 R 1 1 R 1 0 R 1 0 R
1 1 R 1 0 R 1 1 R 2 0 R 1 0 R 1 1 R 1 0 R 1 0 R 1 1 R 1 207 R 1 3174 R
1 751 R 1 165 R 1 173 R 1 14 R 2 -107 R 1 -145 R 1 -14 R 1 50 R 1 119 R
1 29 R 1 -34 R 1 -86 R 1 -33 R 1 14 R 1 61 R 1 37 R 2 -9 R 1 -40 R 1 -34 R
1 -1 R 1 26 R 1 31 R 1 1 R 1 -14 R 1 -26 R 1 -6 R 1 8 R 1 19 R 2 8 R 1 -5 R
1 -15 R 1 -8 R 1 1 R 1 9 R 1 9 R 1 -1 R 1 -7 R 1 -7 R 1 -3 R 1 3 R 2 7 R
1 2 R 1 -3 R 1 -5 R 1 -4 R 1 0 R 1 4 R 1 3 R 1 -1 R 1 -3 R 1 -3 R 1 -2 R
2 1 R 1 3 R 1 1 R 1 -2 R 1 -2 R 1 -3 R 1 0 R 1 1 R 1 1 R 1 0 R 1 -2 R 1 -2 R
2 -1 R 1 0 R 1 1 R 1 0 R 1 -1 R 1 -2 R 1 -2 R 1 0 R 1 0 R 1 0 R 1 -1 R
1 -1 R 2 -2 R 1 -1 R 1 -1 R 1 0 R 1 -1 R 1 -1 R 1 -2 R 1 -2 R 1 -1 R 1 -1 R
1 -1 R 1 -1 R 2 -2 R 1 -2 R 1 -2 R 1 -1 R 1 -2 R 1 -1 R 1 -1 R 1 -2 R 1 -2 R
1 -2 R 1 -1 R 1 -1 R 2 -1 R 1 -2 R 1 -2 R 1 -1 R 1 -2 R 1 -1 R 1 -2 R 1 -1 R
1 -2 R 1 -1 R 1 -2 R 1 -1 R 2 -2 R 1 -1 R 1 -2 R 1 -1 R 1 -2 R 1 -1 R 1 -2 R
1 -1 R 1 -1 R 1 -2 R 1 -2 R 1 -1 R 2 -2 R 1 -1 R 1 -2 R 1 -1 R 1 -2 R 1 -1 R
1 -2 R 1 -1 R 1 -2 R 1 -1 R 1 -1 R 1 -2 R 2 -2 R 1 -1 R 1 -1 R 1 -2 R 1 -1 R
1 -2 R 1 -1 R 1 -2 R 1 -1 R 1 -2 R 1 -1 R 1 -2 R 2 -1 R 1 -2 R 1 -1 R 1 -2 R
1 -1 R 1 -2 R 1 -1 R 1 -2 R 1 -1 R 1 -2 R 1 -1 R 1 -2 R 2 -1 R 1 -2 R 1 -1 R
1 -2 R 1 -1 R 1 -2 R 1 -1 R 1 -2 R 1 -1 R 1 -2 R 1 -1 R 1 -2 R 2 -1 R 1 -2 R
1 -1 R 1 -2 R 1 -1 R 1 -2 R 1 -1 R 1 -2 R 1 -1 R 1 -2 R 1 -1 R 1 -2 R 2 -1 R
1 -2 R 1 -1 R 1 -2 R 1 -1 R 1 -2 R 1 -1 R 1 -2 R 1 -1 R 1 -2 R 1 -1 R 1 -2 R
2 -1 R 1 -2 R 1 -1 R 1 -2 R 1 -1 R 1 -1 R 1 -2 R 1 -2 R 1 -1 R 1 -2 R 1 -1 R
1 -2 R 2 -1 R 1 -2 R 1 -1 R 1 -2 R 1 -1 R 1 -1 R 1 -2 R 1 -1 R 1 -2 R 1 -1 R
1 -2 R 1 -1 R 2 -2 R 1 -1 R 1 -2 R 1 -1 R 1 -2 R 1 -1 R 1 -2 R 1 -1 R 1 -2 R
1 -1 R 1 -2 R 1 -1 R 2 -2 R 1 -1 R 1 -2 R 1 -1 R 1 -1 R 1 -2 R 1 -1 R 1 -2 R
1 -1 R 1 -2 R 1 -1 R 1 -2 R 2 -1 R 1 -2 R 1 -1 R 1 -2 R 1 -1 R 1 -2 R 1 -1 R
1 -1 R 1 -2 R 1 -1 R 1 -2 R 1 -1 R 2 -2 R 1 -1 R 1 -2 R 1 -1 R 1 -1 R 1 -2 R
1 -1 R 1 -2 R 1 -1 R 1 -2 R 1 -1 R 1 -2 R 2 -1 R 1 -2 R 1 -1 R 1 -1 R 1 -2 R
1 -1 R 1 -2 R 1 -1 R 1 -2 R 1 -1 R 1 -1 R 1 -2 R 2 -1 R 1 -2 R 1 -1 R 1 -2 R
1 -1 R 1 -2 R 1 -1 R 1 -2 R 1 -1 R 1 -2 R 1 -1 R 1 -2 R 2 -1 R 1 -1 R 1 -2 R
1 -1 R 1 -2 R 1 -1 R 1 -2 R 1 -1 R 1 -2 R 1 -1 R 1 -2 R 1 -1 R 2 -2 R 1 -1 R
1 -2 R 1 -1 R 1 -2 R D 7020 8517 M 1 -1 R 1 -2 R 1 -1 R 1 -1 R 1 -2 R 1 -1 R
1 -2 R 2 -1 R 1 -2 R 1 -1 R 1 -2 R 1 -1 R 1 -2 R 1 -1 R 1 -2 R 1 -1 R 1 -2 R
1 -2 R 1 -1 R 2 -2 R 1 -1 R 1 -2 R 1 -1 R 1 -2 R 1 -1 R 1 -2 R 1 -1 R 1 -1 R
1 -2 R 1 -1 R 1 -2 R 2 -1 R 1 -2 R 1 -1 R 1 -2 R 1 -1 R 1 -2 R 1 -1 R 1 -2 R
1 -1 R 1 -2 R 1 -1 R 1 -1 R 2 -2 R 1 -1 R 1 -2 R 1 -1 R 1 -1 R 1 -2 R 1 -1 R
1 -1 R 1 -2 R 1 -1 R 1 -2 R 2 -1 R 1 -2 R 1 -1 R 1 -1 R 1 -2 R 1 -1 R 1 -2 R
1 -1 R 1 -1 R 1 -2 R 1 -1 R 1 -1 R 2 -2 R 1 -1 R 1 -1 R 1 -2 R 1 -1 R 1 -2 R
1 -1 R 1 -2 R 1 -1 R 1 -2 R 1 -1 R 1 -2 R 2 -2 R 1 -1 R 1 -2 R 1 -2 R 1 -1 R
1 -2 R 1 -1 R 1 -2 R 1 -1 R 1 -1 R 1 -1 R 1 -1 R 2 -1 R 1 -1 R 1 0 R 1 -1 R
1 0 R 1 -1 R 1 0 R 1 -1 R 1 0 R 1 -1 R 1 -1 R 1 -1 R 2 -1 R 1 -1 R 1 -1 R
1 -1 R 1 -2 R 1 -1 R 1 -2 R 1 -2 R 1 -2 R 1 -2 R 1 -2 R 1 -2 R 2 -3 R 1 -2 R
1 -3 R 1 -2 R 1 -3 R 1 -3 R 1 -2 R 1 -3 R 1 -3 R 1 -3 R 1 -3 R 1 -2 R 2 -3 R
1 -3 R 1 -3 R 1 -3 R 1 -3 R 1 -3 R 1 -3 R 1 -3 R 1 -3 R 1 -3 R 1 -3 R 1 -3 R
2 -3 R 1 -3 R 1 -3 R 1 -4 R 1 -3 R 1 -3 R 1 -3 R 1 -3 R 1 -3 R 1 -3 R 1 -3 R
1 -3 R 2 -3 R 1 -3 R 1 -3 R 1 -3 R 1 -4 R 1 -3 R 1 -3 R 1 -3 R 1 -3 R 1 -3 R
1 -3 R 1 -3 R 2 -4 R 1 -3 R 1 -3 R 1 -3 R 1 -3 R 1 -3 R 1 -3 R 1 -3 R 1 -3 R
1 -3 R 1 -3 R 1 -4 R 2 -3 R 1 -3 R 1 -3 R 1 -3 R 1 -3 R 1 -3 R 1 -3 R 1 -4 R
1 -3 R 1 -3 R 1 -3 R 1 -3 R 2 -3 R 1 -3 R 1 -3 R 1 -3 R 1 -3 R 1 -3 R 1 -3 R
1 -4 R 1 -3 R 1 -3 R 1 -3 R 1 -3 R 2 -3 R 1 -3 R 1 -3 R 1 -3 R 1 -3 R 1 -4 R
1 -3 R 1 -3 R 1 -3 R 1 -3 R 1 -3 R 1 -3 R 2 -3 R 1 -3 R 1 -3 R 1 -3 R 1 -3 R
1 -3 R 1 -3 R 1 -3 R 1 -3 R 1 -3 R 1 -4 R 1 -3 R 2 -3 R 1 -3 R 1 -3 R 1 -3 R
1 -3 R 1 -3 R 1 -3 R 1 -3 R 1 -3 R 1 -3 R 1 -3 R 1 -3 R 2 -3 R 1 -3 R 1 -3 R
1 -3 R 1 -3 R 1 -3 R 1 -3 R 1 -3 R 1 -3 R 1 -3 R 1 -4 R 1 -3 R 2 -3 R 1 -3 R
1 -3 R 1 -3 R 1 -3 R 1 -3 R 1 -3 R 1 -3 R 1 -3 R 1 -3 R 1 -3 R 1 -3 R 2 -3 R
1 -3 R 1 -3 R 1 -3 R 1 -3 R 1 -3 R 1 -3 R 1 -3 R 1 -3 R 1 -3 R 1 -3 R 1 -3 R
2 -3 R 1 -3 R 1 -3 R 1 -3 R 1 -2 R 1 -3 R 1 -3 R 1 -3 R 1 -3 R 1 -3 R 1 -3 R
1 -3 R 2 -3 R 1 -3 R 1 -3 R 1 -3 R 1 -3 R 1 -3 R 1 -3 R 1 -3 R 1 -3 R 1 -3 R
1 -3 R 1 -3 R 2 -3 R 1 -3 R 1 -3 R 1 -3 R 1 -3 R 1 -3 R 1 -3 R 1 -3 R 1 -3 R
1 -3 R 1 -3 R 1 -3 R 2 -3 R 1 -3 R 1 -3 R 1 -3 R 1 -2 R 1 -3 R 1 -3 R 1 -3 R
1 -3 R 1 -3 R 1 -3 R 1 -3 R 2 -3 R 1 -3 R 1 -3 R 1 -3 R 1 -3 R 1 -3 R 1 -3 R
1 -3 R 1 -3 R 1 -2 R 1 -3 R 1 -3 R 2 -3 R 1 -3 R 1 -3 R 1 -3 R 1 -3 R 1 -3 R
1 -3 R 1 -3 R 1 -3 R 1 -3 R 1 -2 R 1 -3 R 2 -3 R 1 -3 R 1 -3 R 1 -3 R 1 -3 R
1 -3 R 1 -3 R 1 -3 R 1 -3 R 1 -3 R 1 -3 R 1 -2 R 2 -3 R 1 -3 R 1 -3 R 1 -3 R
1 -3 R 1 -3 R 1 -3 R 1 -3 R 1 -2 R 1 -3 R 1 -3 R 1 -3 R 2 -3 R 1 -3 R 1 -2 R
1 -3 R 1 -3 R 1 -3 R 1 -2 R 1 -3 R 1 -3 R 1 -2 R 1 -3 R 1 -2 R 2 -2 R 1 -3 R
1 -2 R 1 -2 R 1 -2 R 1 -1 R 1 -2 R 1 -2 R 1 -1 R 1 -1 R 1 -2 R 1 -1 R 2 -1 R
1 -1 R 1 -1 R 1 0 R 1 -1 R 1 0 R 1 -1 R 1 0 R 1 0 R 1 0 R 1 0 R 1 0 R 2 0 R
1 0 R 1 0 R 1 1 R 1 0 R 1 0 R 1 1 R 1 0 R 1 0 R 1 0 R 1 0 R 1 -1 R 2 0 R
1 0 R 1 -1 R 1 0 R 1 -1 R 1 0 R 1 -1 R 1 -1 R 1 0 R 1 -1 R 1 -1 R 1 0 R
2 -1 R 1 -1 R 1 0 R 1 -1 R 1 0 R 1 -1 R 1 0 R 1 -1 R 1 0 R 1 -1 R 1 0 R
1 0 R 2 -1 R 1 0 R 1 0 R 1 -1 R 1 0 R 1 0 R 1 -1 R 1 0 R 1 -1 R 1 0 R 1 0 R
1 -1 R 2 0 R 1 -1 R 1 0 R 1 -1 R 1 0 R 1 -1 R 1 -1 R 1 0 R 1 -1 R 1 0 R
1 -1 R 1 0 R 2 -1 R 1 0 R 1 -1 R 1 0 R 1 -1 R 1 0 R 1 -1 R 1 0 R 1 -1 R
1 0 R 1 -1 R 1 0 R 2 -1 R 1 0 R 1 -1 R 1 0 R 1 -1 R 1 0 R 1 -1 R 1 -1 R
1 0 R 1 -1 R 1 0 R 1 -1 R 2 0 R 1 -1 R 1 0 R 1 -1 R 1 -1 R 1 0 R 1 -1 R
1 0 R 1 -1 R 1 0 R 1 -1 R 1 -1 R 2 0 R 1 -1 R 1 0 R 1 -1 R 1 -1 R 1 0 R
1 -1 R 1 0 R 1 -1 R 1 0 R 1 -1 R 1 0 R 2 -1 R 1 -1 R 1 0 R 1 -1 R 1 0 R
1 -1 R 1 -1 R 1 0 R 1 -1 R 1 0 R 1 -1 R 1 0 R 2 -1 R 1 -1 R 1 0 R 1 -1 R
1 0 R 1 -1 R 1 0 R 1 -1 R 1 0 R 1 -1 R 1 -1 R 1 0 R 2 -1 R 1 0 R 1 -1 R
1 0 R 1 -1 R 1 0 R 1 -1 R 1 -1 R 1 0 R 1 -1 R 1 0 R 1 -1 R 2 0 R 1 -1 R
1 0 R 1 -1 R 1 0 R 1 -1 R 1 0 R 1 -1 R 1 0 R 1 -1 R 1 -1 R 2 0 R 1 -1 R
1 -1 R 1 0 R 1 -1 R 1 -1 R 1 0 R 1 -1 R 1 -1 R 1 0 R 1 -1 R 1 -1 R 2 0 R
1 -1 R 1 -1 R 1 0 R 1 -1 R 1 0 R 1 -1 R 1 -1 R 1 0 R 1 -1 R 1 0 R 1 -1 R
2 -1 R 1 0 R 1 -1 R 1 -1 R 1 -1 R 1 0 R 1 -1 R 1 -1 R 1 0 R 1 -1 R 1 0 R
1 -1 R 2 -1 R 1 0 R 1 -1 R 1 -1 R 1 0 R 1 -1 R 1 -1 R 1 0 R 1 -1 R 1 -1 R
1 -1 R 1 0 R 2 -1 R 1 -1 R 1 0 R 1 -1 R 1 -1 R 1 0 R 1 -1 R 1 -1 R 1 -1 R
1 0 R 1 -1 R 1 -1 R 2 0 R 1 -1 R 1 -1 R 1 -1 R 1 -1 R 1 0 R 1 -1 R 1 -1 R
1 -1 R 1 0 R 1 -1 R 1 -1 R 2 -1 R 1 0 R 1 -1 R 1 -1 R 1 -1 R 1 -1 R 1 0 R
1 -1 R 1 -1 R 1 -1 R 1 0 R 1 -1 R 2 -1 R 1 -1 R 1 -1 R 1 -1 R 1 0 R 1 -1 R
1 -1 R 1 -1 R 1 -1 R 1 -1 R 1 0 R 1 -1 R 2 -1 R 1 -1 R 1 -1 R 1 0 R 1 -1 R
1 -1 R 1 -1 R 1 -1 R 1 -1 R 1 -1 R 1 0 R 1 -1 R 2 -1 R 1 -1 R 1 -1 R 1 -1 R
1 -1 R 1 -1 R 1 0 R 1 -1 R 1 -1 R 1 -1 R 1 -1 R 1 -1 R 2 -1 R 1 -1 R 1 0 R
1 -1 R 1 -1 R 1 -1 R 1 -1 R 1 -1 R 1 -1 R 1 -1 R 1 -1 R 1 -1 R 2 0 R 1 -1 R
1 -1 R 1 -1 R 1 -1 R 1 -1 R 1 -1 R 1 -1 R 1 -1 R 1 -1 R 1 -1 R 1 -1 R 2 0 R
1 -1 R 1 -1 R 1 -1 R 1 -1 R 1 -1 R 1 -1 R 1 -1 R 1 -1 R 1 -1 R 1 -1 R 1 -1 R
2 -1 R 1 -1 R 1 -1 R 1 0 R 1 -1 R 1 -1 R 1 -1 R 1 -1 R 1 -1 R 1 -1 R 1 -1 R
1 -1 R 2 -1 R 1 -1 R 1 -1 R 1 -1 R 1 -1 R 1 -1 R 1 -1 R 1 -1 R 1 -1 R 1 -1 R
1 0 R 1 -1 R 2 -1 R 1 -1 R 1 -1 R 1 -1 R 1 -1 R 1 -1 R 1 -1 R 1 -1 R 1 -1 R
1 -1 R 1 -1 R 1 -1 R 2 -1 R D 7833 7315 M 1 -1 R 1 -1 R 1 -1 R 1 -1 R 1 -1 R
1 -1 R 1 -1 R 1 -1 R 1 -1 R 1 -1 R 1 -1 R 2 -1 R 1 -1 R 1 -1 R 1 -1 R 1 -1 R
1 -1 R 1 -1 R 1 -1 R 1 -1 R 1 -1 R 1 -2 R 1 -1 R 2 -1 R 1 -1 R 1 -1 R 1 -1 R
1 -1 R 1 -1 R 1 -1 R 1 -1 R 1 -1 R 1 -1 R 1 -1 R 1 -1 R 2 -1 R 1 -2 R 1 -1 R
1 -1 R 1 -1 R 1 -1 R 1 -1 R 1 -1 R 1 -1 R 1 -1 R 1 -1 R 1 -2 R 2 -1 R 1 -1 R
1 -1 R 1 -1 R 1 -1 R 1 -1 R 1 -1 R 1 -2 R 1 -1 R 1 -1 R 1 -1 R 1 -1 R 2 -1 R
1 -1 R 1 -1 R 1 -2 R 1 -1 R 1 -1 R 1 -1 R 1 -1 R 1 -1 R 1 -1 R 1 -2 R 1 -1 R
2 -1 R 1 -1 R 1 -1 R 1 -2 R 1 -1 R 1 -1 R 1 -1 R 1 -1 R 1 -1 R 1 -2 R 1 -1 R
1 -1 R 2 -1 R 1 -1 R 1 -1 R 1 -2 R 1 -1 R 1 -1 R 1 -1 R 1 -1 R 1 -2 R 1 -1 R
1 -1 R 1 -1 R 2 -1 R 1 -2 R 1 -1 R 1 -1 R 1 -1 R 1 -1 R 1 -2 R 1 -1 R 1 -1 R
1 -1 R 1 -1 R 1 -1 R 2 -2 R 1 -1 R 1 -1 R 1 -1 R 1 -2 R 1 -1 R 1 -1 R 1 -1 R
1 -2 R 1 -1 R 1 -1 R 1 -2 R 2 -1 R 1 -1 R 1 -1 R 1 -2 R 1 -1 R 1 -1 R 1 -2 R
1 -1 R 1 -1 R 1 -2 R 1 -1 R 1 -1 R 2 -1 R 1 -2 R 1 -1 R 1 -1 R 1 -1 R 1 -2 R
1 -1 R 1 -1 R 1 -1 R 1 -1 R 1 -2 R 1 -1 R 2 -1 R 1 -1 R 1 -2 R 1 -1 R 1 -1 R
1 -1 R 1 -2 R 1 -1 R 1 -1 R 1 -2 R 1 -1 R 1 -1 R 2 -1 R 1 -2 R 1 -1 R 1 -1 R
1 -2 R 1 -1 R 1 -1 R 1 -1 R 1 -2 R 1 -1 R 1 -1 R 1 -2 R 2 -1 R 1 -1 R 1 -2 R
1 -1 R 1 -1 R 1 -1 R 1 -2 R 1 -1 R 1 -1 R 1 -2 R 1 -1 R 1 -1 R 2 -2 R 1 -1 R
1 -1 R 1 -2 R 1 -1 R 1 -1 R 1 -2 R 1 -1 R 1 -1 R 1 -2 R 1 -1 R 1 -1 R 2 -2 R
1 -1 R 1 -1 R 1 -1 R 1 -2 R 1 -1 R 1 -1 R 1 -2 R 1 -1 R 1 -2 R 1 -1 R 1 -1 R
2 -2 R 1 -1 R 1 -1 R 1 -2 R 1 -1 R 1 -1 R 1 -2 R 1 -1 R 1 -1 R 1 -2 R 1 -1 R
1 -2 R 2 -1 R 1 -1 R 1 -2 R 1 -1 R 1 -2 R 1 -1 R 1 -2 R 1 -1 R 1 -1 R 1 -2 R
1 -1 R 1 -2 R 2 -1 R 1 -1 R 1 -2 R 1 -1 R 1 -2 R 1 -1 R 1 -1 R 1 -2 R 1 -1 R
1 -2 R 1 -1 R 1 -1 R 2 -2 R 1 -1 R 1 -2 R 1 -1 R 1 -2 R 1 -1 R 1 -2 R 1 -1 R
1 -2 R 1 -1 R 1 -1 R 1 -2 R 2 -1 R 1 -2 R 1 -1 R 1 -2 R 1 -1 R 1 -2 R 1 -1 R
1 -1 R 1 -2 R 1 -1 R 1 -2 R 1 -1 R 2 -2 R 1 -1 R 1 -2 R 1 -1 R 1 -2 R 1 -1 R
1 -2 R 1 -1 R 1 -2 R 1 -1 R 1 -2 R 1 -1 R 2 -2 R 1 -1 R 1 -2 R 1 -1 R 1 -2 R
1 -1 R 1 -2 R 1 -1 R 1 -2 R 1 -1 R 1 -2 R 1 -2 R 2 -1 R 1 -2 R 1 -1 R 1 -2 R
1 -1 R 1 -2 R 1 -1 R 1 -2 R 1 -1 R 1 -2 R 1 -1 R 1 -2 R 2 -1 R 1 -2 R 1 -1 R
1 -2 R 1 -2 R 1 -1 R 1 -2 R 1 -1 R 1 -2 R 1 -1 R 1 -2 R 2 -1 R 1 -2 R 1 -2 R
1 -1 R 1 -2 R 1 -1 R 1 -2 R 1 -1 R 1 -2 R 1 -2 R 1 -1 R 1 -2 R 2 -1 R 1 -2 R
1 -1 R 1 -2 R 1 -2 R 1 -1 R 1 -2 R 1 -1 R 1 -2 R 1 -1 R 1 -2 R 1 -2 R 2 -1 R
1 -2 R 1 -1 R 1 -2 R 1 -2 R 1 -1 R 1 -2 R 1 -1 R 1 -2 R 1 -1 R 1 -2 R 1 -2 R
2 -1 R 1 -2 R 1 -1 R 1 -2 R 1 -2 R 1 -1 R 1 -2 R 1 -1 R 1 -2 R 1 -2 R 1 -1 R
1 -2 R 2 -1 R 1 -2 R 1 -2 R 1 -1 R 1 -2 R 1 -1 R 1 -2 R 1 -1 R 1 -2 R 1 -2 R
1 -1 R 1 -2 R 2 -1 R 1 -2 R 1 -2 R 1 -1 R 1 -2 R 1 -1 R 1 -2 R 1 -2 R 1 -1 R
1 -2 R 1 -1 R 1 -2 R 2 -2 R 1 -1 R 1 -2 R 1 -1 R 1 -2 R 1 -2 R 1 -1 R 1 -2 R
1 -1 R 1 -2 R 1 -2 R 1 -1 R 2 -2 R 1 -2 R 1 -1 R 1 -2 R 1 -2 R 1 -1 R 1 -2 R
1 -2 R 1 -1 R 1 -2 R 1 -2 R 1 -1 R 2 -2 R 1 -2 R 1 -1 R 1 -2 R 1 -2 R 1 -1 R
1 -2 R 1 -2 R 1 -1 R 1 -2 R 1 -1 R 1 -2 R 2 -2 R 1 -1 R 1 -2 R 1 -2 R 1 -1 R
1 -2 R 1 -2 R 1 -1 R 1 -2 R 1 -2 R 1 -1 R 1 -2 R 2 -2 R 1 -1 R 1 -2 R 1 -1 R
1 -2 R 1 -2 R 1 -1 R 1 -2 R 1 -2 R 1 -1 R 1 -2 R 1 -2 R 2 -1 R 1 -2 R 1 -2 R
1 -2 R 1 -1 R 1 -2 R 1 -2 R 1 -1 R 1 -2 R 1 -2 R 1 -1 R 1 -2 R 2 -2 R 1 -2 R
1 -1 R 1 -2 R 1 -2 R 1 -1 R 1 -2 R 1 -2 R 1 -2 R 1 -1 R 1 -2 R 1 -2 R 2 -1 R
1 -2 R 1 -2 R 1 -2 R 1 -1 R 1 -2 R 1 -2 R 1 -2 R 1 -1 R 1 -2 R 1 -2 R 1 -2 R
2 -1 R 1 -2 R 1 -2 R 1 -1 R 1 -2 R 1 -2 R 1 -2 R 1 -2 R 1 -1 R 1 -2 R 1 -2 R
1 -2 R 2 -1 R 1 -2 R 1 -2 R 1 -2 R 1 -2 R 1 -2 R 1 -1 R 1 -2 R 1 -2 R 1 -2 R
1 -2 R 1 -2 R 2 -1 R 1 -2 R 1 -2 R 1 -2 R 1 -2 R 1 -2 R 1 -2 R 1 -1 R 1 -2 R
1 -2 R 1 -2 R 1 -2 R 2 -2 R 1 -2 R 1 -2 R 1 -1 R 1 -2 R 1 -2 R 1 -2 R 1 -2 R
1 -2 R 1 -1 R 1 -2 R 1 -2 R 2 -2 R 1 -2 R 1 -2 R 1 -2 R 1 -2 R 1 -1 R 1 -2 R
1 -2 R 1 -2 R 1 -2 R 1 -2 R 1 -2 R 2 -2 R 1 -1 R 1 -2 R 1 -2 R 1 -2 R 1 -2 R
1 -2 R 1 -2 R 1 -2 R 1 -2 R 1 -1 R 1 -2 R 2 -2 R 1 -2 R 1 -2 R 1 -2 R 1 -2 R
1 -2 R 1 -2 R 1 -2 R 1 -1 R 1 -2 R 1 -2 R 1 -2 R 2 -2 R 1 -2 R 1 -2 R 1 -2 R
1 -2 R 1 -1 R 1 -2 R 1 -2 R 1 -2 R 1 -2 R 1 -2 R 1 -2 R 2 -2 R 1 -2 R 1 -2 R
1 -2 R 1 -2 R 1 -2 R 1 -2 R 1 -2 R 1 -2 R 1 -1 R 1 -2 R 1 -2 R 2 -2 R 1 -2 R
1 -2 R 1 -2 R 1 -2 R 1 -2 R 1 -2 R 1 -2 R 1 -2 R 1 -2 R 1 -2 R 1 -2 R 2 -2 R
1 -2 R 1 -2 R 1 -2 R 1 -2 R 1 -2 R 1 -1 R 1 -2 R 1 -2 R 1 -2 R 1 -2 R 1 -2 R
2 -2 R 1 -2 R 1 -2 R 1 -2 R 1 -2 R 1 -2 R 1 -2 R 1 -2 R 1 -2 R 1 -2 R 1 -1 R
1 -2 R 2 -2 R 1 -2 R 1 -2 R 1 -2 R 1 -2 R 1 -2 R 1 -2 R 1 -2 R 1 -2 R 1 -2 R
1 -1 R 1 -2 R 2 -2 R 1 -2 R 1 -2 R 1 -2 R 1 -2 R 1 -2 R 1 -2 R 1 -2 R 1 -2 R
1 -2 R 1 -1 R 1 -2 R 2 -2 R 1 -2 R 1 -2 R 1 -2 R 1 -2 R 1 -2 R 1 -2 R 1 -2 R
1 -2 R 1 -2 R 1 -2 R 1 -2 R 2 -2 R 1 -2 R 1 -2 R 1 -2 R 1 -2 R 1 -2 R 1 -2 R
1 -2 R 1 -2 R 1 -2 R 1 -2 R 1 -2 R 2 -2 R 1 -2 R 1 -2 R 1 -2 R 1 -2 R 1 -2 R
1 -2 R 1 -2 R 1 -2 R 1 -2 R 1 -2 R 1 -2 R 2 -2 R 1 -2 R 1 -2 R 1 -2 R 1 -2 R
1 -2 R 1 -2 R 1 -2 R 1 -1 R 1 -2 R 1 -2 R 1 -2 R 2 -2 R 1 -2 R 1 -2 R 1 -2 R
1 -2 R 1 -2 R 1 -2 R 1 -2 R 1 -2 R 1 -2 R 1 -2 R 1 -2 R 2 -2 R 1 -2 R 1 -2 R
1 -1 R 1 -2 R 1 -2 R 1 -2 R 1 -2 R 1 -2 R 1 -2 R 1 -2 R 1 -2 R 2 -1 R 1 -2 R
1 -2 R 1 -2 R 1 -2 R 1 -2 R 1 -1 R 1 -2 R 1 -2 R 1 -2 R 1 -2 R 1 -1 R 2 -2 R
1 -2 R 1 -2 R 1 -2 R 1 -1 R 1 -2 R 1 -2 R 1 -2 R 1 -2 R 1 -1 R 1 -2 R 1 -2 R
2 -2 R 1 -2 R 1 -2 R 1 -2 R 1 -3 R 1 -2 R 1 -3 R 1 -2 R D 8645 6120 M 1 -3 R
1 -3 R 1 -4 R 1 -3 R 2 -4 R 1 -4 R 1 -5 R 1 -4 R 1 -5 R 1 -4 R 1 -4 R 1 -4 R
1 -4 R 1 -4 R 1 -3 R 1 -3 R 2 -2 R 1 -2 R 1 -2 R 1 -1 R 1 0 R 1 -1 R 1 0 R
1 0 R 1 0 R 1 0 R 1 -1 R 1 0 R 2 0 R 1 0 R 1 0 R 1 -1 R 1 0 R 1 -1 R 1 -1 R
1 -1 R 1 -1 R 1 -1 R 1 -1 R 1 -1 R 2 -1 R 1 -1 R 1 -1 R 1 -1 R 1 -1 R 1 -2 R
1 -1 R 1 -1 R 1 -1 R 1 -1 R 1 -1 R 2 -1 R 1 -1 R 1 -1 R 1 -1 R 1 -1 R 1 -1 R
1 -1 R 1 -2 R 1 -1 R 1 -1 R 1 -1 R 1 -1 R 2 -1 R 1 -1 R 1 -1 R 1 -1 R 1 -1 R
1 -1 R 1 -1 R 1 -1 R 1 -1 R 1 -1 R 1 -2 R 1 -1 R 2 -1 R 1 -1 R 1 -1 R 1 -1 R
1 -1 R 1 -1 R 1 -1 R 1 -1 R 1 -1 R 1 -1 R 1 -1 R 1 -1 R 2 -1 R 1 -1 R 1 -1 R
1 -1 R 1 -1 R 1 -1 R 1 -1 R 1 -2 R 1 -1 R 1 -1 R 1 -1 R 1 -1 R 2 -1 R 1 -1 R
1 -1 R 1 -1 R 1 -1 R 1 -1 R 1 -1 R 1 -1 R 1 -1 R 1 -1 R 1 -1 R 1 -1 R 2 -1 R
1 -1 R 1 -1 R 1 -1 R 1 -1 R 1 -1 R 1 -1 R 1 -1 R 1 -1 R 1 -1 R 1 -1 R 1 -1 R
2 -1 R 1 -1 R 1 -1 R 1 -1 R 1 -1 R 1 -1 R 1 -1 R 1 -1 R 1 -1 R 1 -1 R 1 -1 R
1 -1 R 2 -2 R 1 -1 R 1 -1 R 1 -1 R 1 -1 R 1 -1 R 1 -1 R 1 -1 R 1 -1 R 1 -1 R
1 -1 R 1 -1 R 2 -1 R 1 -1 R 1 -1 R 1 -1 R 1 -1 R 1 -1 R 1 -1 R 1 -1 R 1 -1 R
1 -1 R 1 -1 R 1 -1 R 2 -1 R 1 -1 R 1 -1 R 1 -2 R 1 -1 R 1 -1 R 1 -1 R 1 -1 R
1 -1 R 1 -1 R 1 -1 R 1 0 R 2 -1 R 1 -1 R 1 -1 R 1 -1 R 1 -1 R 1 -1 R 1 -1 R
1 0 R 1 -1 R 1 0 R 1 1 R 1 1 R 2 1 R 1 1 R 1 2 R 1 2 R 1 3 R 1 3 R 1 3 R
1 3 R 1 4 R 1 4 R 1 4 R 1 4 R 2 3 R 1 4 R 1 2 R 1 3 R 1 2 R 1 1 R 1 2 R
1 1 R 1 1 R 1 1 R 1 1 R 1 1 R 2 1 R 1 1 R 1 1 R 1 0 R 1 1 R 1 1 R 1 1 R
1 2 R 1 1 R 1 1 R 1 1 R 1 1 R 2 1 R 1 1 R 1 1 R 1 1 R 1 1 R 1 1 R 1 1 R
1 1 R 1 2 R 1 1 R 1 1 R 1 1 R 2 1 R 1 1 R 1 1 R 1 1 R 1 1 R 1 2 R 1 1 R
1 1 R 1 1 R 1 1 R 1 1 R 1 1 R 2 1 R 1 1 R 1 1 R 1 1 R 1 1 R 1 2 R 1 1 R
1 1 R 1 1 R 1 1 R 1 1 R 1 1 R 2 1 R 1 1 R 1 1 R 1 1 R 1 1 R 1 1 R 1 2 R
1 1 R 1 1 R 1 1 R 1 1 R 1 1 R 2 1 R 1 1 R 1 1 R 1 1 R 1 1 R 1 1 R 1 1 R
1 1 R 1 0 R 1 1 R 1 1 R 1 1 R 2 1 R 1 1 R 1 1 R 1 1 R 1 1 R 1 1 R 1 1 R
1 0 R 1 1 R 1 1 R 1 1 R 1 1 R 2 1 R 1 1 R 1 1 R 1 0 R 1 1 R 1 1 R 1 1 R
1 1 R 1 1 R 1 1 R 1 1 R 1 1 R 2 1 R 1 1 R 1 0 R 1 1 R 1 1 R 1 1 R 1 1 R
1 1 R 1 1 R 1 1 R 1 1 R 1 1 R 2 1 R 1 1 R 1 1 R 1 1 R 1 0 R 1 1 R 1 1 R
1 1 R 1 1 R 1 1 R 1 1 R 1 1 R 2 1 R 1 0 R 1 1 R 1 1 R 1 1 R 1 1 R 1 1 R
1 1 R 1 0 R 1 1 R 1 1 R 1 1 R 2 1 R 1 1 R 1 1 R 1 0 R 1 1 R 1 1 R 1 1 R
1 1 R 1 1 R 1 0 R 1 1 R 1 1 R 2 1 R 1 1 R 1 1 R 1 0 R 1 1 R 1 1 R 1 1 R
1 1 R 1 1 R 1 0 R 1 1 R 1 1 R 2 1 R 1 1 R 1 1 R 1 0 R 1 1 R 1 1 R 1 1 R
1 1 R 1 1 R 1 1 R 1 0 R 1 1 R 2 1 R 1 1 R 1 1 R 1 1 R 1 1 R 1 1 R 1 0 R
1 1 R 1 1 R 1 1 R 1 1 R 1 1 R 2 1 R 1 1 R 1 1 R 1 1 R 1 0 R 1 1 R 1 1 R
1 1 R 1 1 R 1 1 R 1 1 R 1 1 R 2 1 R 1 1 R 1 1 R 1 0 R 1 1 R 1 1 R 1 1 R
1 1 R 1 1 R 1 1 R 1 1 R 1 1 R 2 0 R 1 1 R 1 1 R 1 1 R 1 1 R 1 1 R 1 1 R
1 1 R 1 0 R 1 1 R 1 1 R 1 1 R 2 1 R 1 1 R 1 1 R 1 1 R 1 0 R 1 1 R 1 1 R
1 1 R 1 1 R 1 1 R 1 1 R 1 1 R 2 1 R 1 1 R 1 1 R 1 1 R 1 1 R 1 1 R 1 2 R
1 1 R 1 1 R 1 1 R 1 1 R 1 1 R 2 2 R 1 1 R 1 1 R 1 2 R 1 1 R 1 1 R 1 2 R
1 1 R 1 1 R 1 2 R 1 1 R 1 1 R 2 2 R 1 1 R 1 1 R 1 2 R 1 1 R 1 1 R 1 2 R
1 1 R 1 1 R 1 1 R 1 2 R 1 1 R 2 1 R 1 1 R 1 1 R 1 1 R 1 1 R 1 1 R 1 1 R
1 0 R 1 1 R 1 1 R 1 0 R 1 1 R 2 0 R 1 1 R 1 0 R 1 1 R 1 0 R 1 1 R 1 0 R
1 1 R 1 1 R 1 1 R 1 1 R 1 1 R 2 2 R 1 2 R 1 3 R 1 2 R 1 4 R 1 3 R 1 4 R
1 5 R 1 5 R 1 5 R 1 6 R 1 6 R 2 7 R 1 7 R 1 8 R 1 9 R 1 10 R 1 11 R 1 12 R
1 14 R 1 15 R 1 16 R 1 18 R 1 20 R 2 22 R 1 24 R 1 26 R 1 28 R 1 31 R 1 33 R
1 36 R 1 39 R 1 42 R 1 44 R 1 48 R 1 51 R 2 54 R 1 58 R 1 61 R 1 65 R 1 68 R
1 72 R 1 76 R 1 80 R 1 83 R 1 87 R 1 91 R 1 95 R 2 99 R 1 102 R 1 106 R
1 109 R 1 113 R 1 116 R 1 119 R 1 122 R 1 125 R 1 126 R 1 129 R 2 129 R
1 131 R 1 131 R 1 131 R 1 130 R 1 129 R 1 127 R 1 124 R 1 119 R 1 112 R
1 97 R 1 66 R 2 13 R 1 0 R 1 0 R 1 0 R 1 1 R 1 1 R 1 1 R 1 3 R 1 3 R 1 4 R
1 5 R 1 6 R 2 5 R 1 4 R 1 2 R 1 0 R 1 0 R 1 0 R 1 -1 R 1 -1 R 1 -2 R 1 -3 R
1 -3 R 1 -5 R 2 -5 R 1 -6 R 1 -6 R 1 -6 R 1 -7 R 1 -7 R 1 -7 R 1 -7 R 1 -6 R
1 -6 R 1 -6 R 1 -5 R 2 -4 R 1 -5 R 1 -3 R 1 -4 R 1 -2 R 1 -1 R 1 0 R 1 0 R
1 0 R 1 0 R 1 0 R 1 0 R 2 0 R 1 1 R 1 0 R 1 1 R 1 1 R 1 1 R 1 1 R 1 2 R
1 2 R 1 2 R 1 2 R 1 2 R 2 2 R 1 3 R 1 2 R 1 3 R 1 3 R 1 2 R 1 3 R 1 3 R
1 3 R 1 3 R 1 3 R 1 2 R 2 3 R 1 3 R 1 3 R 1 2 R 1 3 R 1 2 R 1 3 R 1 2 R
1 2 R 1 2 R 1 2 R 1 1 R 2 2 R 1 1 R 1 1 R 1 2 R 1 0 R 1 0 R 1 0 R 1 0 R
1 0 R 1 0 R 1 0 R 1 0 R 2 -1 R 1 0 R 1 -1 R 1 0 R 1 -1 R 1 -1 R 1 -1 R
1 -1 R 1 -1 R 1 -1 R 1 -1 R 1 -1 R 2 -1 R 1 -1 R 1 -1 R 1 0 R 1 0 R 1 0 R
1 0 R 1 0 R 1 0 R 1 0 R 1 1 R 1 0 R 2 1 R 1 0 R 1 1 R 1 1 R 1 0 R 1 2 R
1 1 R 1 1 R 1 1 R 1 2 R 1 1 R 1 2 R 2 1 R 1 2 R 1 2 R 1 1 R 1 2 R 1 2 R
1 2 R 1 1 R 1 2 R 1 2 R 1 2 R 1 1 R 2 2 R 1 1 R 1 2 R 1 1 R 1 1 R 1 1 R
1 2 R 1 1 R 1 0 R 1 1 R 1 1 R 1 1 R 2 0 R 1 0 R 1 0 R 1 0 R 1 -1 R 1 0 R
1 0 R 1 0 R 1 0 R 1 -1 R 1 0 R 1 0 R 2 -1 R 1 0 R 1 0 R 1 0 R 1 0 R 1 0 R
1 0 R 1 0 R 1 0 R 1 1 R 1 0 R 1 1 R 2 0 R 1 1 R 1 1 R 1 1 R D 9458 10490 M
1 1 R 1 1 R 1 1 R 1 1 R 1 1 R 1 1 R 1 1 R 1 2 R 2 1 R 1 1 R 1 1 R 1 2 R
1 1 R 1 1 R 1 2 R 1 1 R 1 1 R 1 1 R 1 1 R 1 1 R 2 1 R 1 1 R 1 1 R 1 0 R
1 1 R 1 1 R 1 0 R 1 0 R 1 1 R 1 0 R 1 0 R 1 0 R 2 0 R 1 0 R 1 0 R 1 0 R
1 0 R 1 0 R 1 0 R 1 0 R 1 0 R 1 0 R 1 0 R 1 0 R 2 0 R 1 0 R 1 1 R 1 0 R
1 0 R 1 1 R 1 0 R 1 1 R 1 0 R 1 1 R 1 0 R 1 1 R 2 1 R 1 0 R 1 1 R 1 0 R
1 1 R 1 0 R 1 1 R 1 1 R 1 0 R 1 0 R 1 1 R 1 0 R 2 0 R 1 1 R 1 0 R 1 0 R
1 0 R 1 0 R 1 0 R 1 0 R 1 -1 R 1 0 R 1 0 R 1 -1 R 2 0 R 1 -1 R 1 -1 R 1 0 R
1 -1 R 1 -1 R 1 -1 R 1 -1 R 1 -1 R 1 -1 R 1 -1 R 1 -1 R 2 -2 R 1 -1 R 1 -1 R
1 -1 R 1 -2 R 1 -1 R 1 -1 R 1 -2 R 1 -1 R 1 -2 R 1 -1 R 1 -2 R 2 -1 R 1 -2 R
1 -1 R 1 -2 R 1 -2 R 1 -1 R 1 -2 R 1 -2 R 1 -2 R 1 -2 R 1 -2 R 1 -2 R 2 -2 R
1 -2 R 1 -3 R 1 -2 R 1 -2 R 1 -3 R 1 -3 R 1 -2 R 1 -3 R 1 -3 R 1 -2 R 1 -3 R
2 -3 R 1 -3 R 1 -3 R 1 -4 R 1 -3 R 1 -3 R 1 -3 R 1 -3 R 1 -4 R 1 -3 R 1 -3 R
1 -3 R 2 -4 R 1 -3 R 1 -3 R 1 -4 R 1 -3 R 1 -3 R 1 -4 R 1 -3 R 1 -3 R 1 -3 R
1 -4 R 1 -3 R 2 -3 R 1 -3 R 1 -4 R 1 -3 R 1 -3 R 1 -3 R 1 -3 R 1 -3 R 1 -3 R
1 -3 R 1 -3 R 1 -3 R 2 -3 R 1 -3 R 1 -3 R 1 -3 R 1 -3 R 1 -3 R 1 -3 R 1 -3 R
1 -3 R 1 -3 R 1 -3 R 1 -3 R 2 -3 R 1 -3 R 1 -3 R 1 -3 R 1 -3 R 1 -3 R 1 -2 R
1 -3 R 1 -3 R 1 -3 R 1 -3 R 1 -3 R 2 -3 R 1 -3 R 1 -3 R 1 -3 R 1 -3 R 1 -3 R
1 -3 R 1 -3 R 1 -3 R 1 -3 R 1 -4 R 1 -3 R 2 -3 R 1 -3 R 1 -3 R 1 -3 R 1 -3 R
1 -3 R 1 -3 R 1 -4 R 1 -3 R 1 -3 R 1 -3 R 1 -3 R 2 -3 R 1 -4 R 1 -3 R 1 -3 R
1 -3 R 1 -3 R 1 -4 R 1 -3 R 1 -3 R 1 -3 R 1 -3 R 1 -4 R 2 -3 R 1 -3 R 1 -3 R
1 -3 R 1 -4 R 1 -3 R 1 -3 R 1 -3 R 1 -3 R 1 -4 R 1 -3 R 1 -3 R 2 -3 R 1 -3 R
1 -3 R 1 -4 R 1 -3 R 1 -3 R 1 -3 R 1 -3 R 1 -3 R 1 -3 R 1 -4 R 1 -3 R 2 -3 R
1 -3 R 1 -3 R 1 -3 R 1 -4 R 1 -3 R 1 -3 R 1 -3 R 1 -3 R 1 -4 R 1 -3 R 1 -3 R
2 -3 R 1 -4 R 1 -3 R 1 -3 R 1 -4 R 1 -3 R 1 -3 R 1 -4 R 1 -3 R 1 -3 R 1 -4 R
1 -3 R 2 -3 R 1 -4 R 1 -3 R 1 -4 R 1 -3 R 1 -3 R 1 -4 R 1 -3 R 1 -4 R 1 -3 R
1 -3 R 1 -4 R 2 -3 R 1 -4 R 1 -3 R 1 -3 R 1 -4 R 1 -3 R 1 -4 R 1 -3 R 1 -3 R
1 -4 R 1 -3 R 1 -4 R 2 -3 R 1 -3 R 1 -4 R 1 -3 R 1 -4 R 1 -3 R 1 -4 R 1 -3 R
1 -4 R 1 -3 R 1 -4 R 2 -3 R 1 -4 R 1 -4 R 1 -3 R 1 -4 R 1 -4 R 1 -4 R 1 -3 R
1 -4 R 1 -4 R 1 -4 R 1 -4 R 2 -4 R 1 -4 R 1 -4 R 1 -5 R 1 -4 R 1 -4 R 1 -4 R
1 -4 R 1 -5 R 1 -4 R 1 -4 R 1 -5 R 2 -4 R 1 -4 R 1 -5 R 1 -4 R 1 -4 R 1 -5 R
1 -4 R 1 -4 R 1 -5 R 1 -4 R 1 -5 R 1 -4 R 2 -4 R 1 -5 R 1 -4 R 1 -4 R 1 -5 R
1 -4 R 1 -5 R 1 -4 R 1 -5 R 1 -4 R 1 -4 R 1 -5 R 2 -4 R 1 -5 R 1 -4 R 1 -5 R
1 -4 R 1 -5 R 1 -4 R 1 -5 R 1 -4 R 1 -5 R 1 -4 R 1 -5 R 2 -4 R 1 -5 R 1 -4 R
1 -5 R 1 -4 R 1 -5 R 1 -4 R 1 -5 R 1 -4 R 1 -5 R 1 -4 R 1 -5 R 2 -4 R 1 -5 R
1 -4 R 1 -5 R 1 -5 R 1 -4 R 1 -5 R 1 -4 R 1 -5 R 1 -4 R 1 -5 R 1 -4 R 2 -5 R
1 -4 R 1 -5 R 1 -4 R 1 -5 R 1 -4 R 1 -5 R 1 -4 R 1 -4 R 1 -5 R 1 -4 R 1 -5 R
2 -4 R 1 -5 R 1 -4 R 1 -4 R 1 -5 R 1 -4 R 1 -5 R 1 -4 R 1 -5 R 1 -4 R 1 -5 R
1 -4 R 2 -5 R 1 -5 R 1 -4 R 1 -5 R 1 -4 R 1 -5 R 1 -5 R 1 -4 R 1 -5 R 1 -5 R
1 -5 R 1 -5 R 2 -5 R 1 -5 R 1 -6 R 1 -6 R 1 -6 R 1 -7 R 1 -8 R 1 -9 R
1 -10 R 1 -12 R 1 -14 R 1 -16 R 2 -19 R 1 -22 R 1 -27 R 1 -31 R 1 -37 R
1 -43 R 1 -50 R 1 -58 R 1 -68 R 1 -77 R 1 -89 R 1 -101 R 2 -114 R 1 -128 R
1 -143 R 1 -158 R 1 -175 R 1 -192 R 1 -209 R 1 -227 R 1 -243 R 1 -262 R
1 -277 R 1 -294 R 2 -308 R 1 -323 R 1 -334 R 1 -345 R 1 -354 R 1 -358 R
1 -361 R 1 -355 R 1 -337 R 1 -294 R 1 -196 R 1 -38 R 2 -1 R 1 0 R 1 0 R
1 0 R 1 0 R 1 0 R 1 0 R 1 0 R 1 0 R 1 0 R 1 1 R 1 0 R 2 0 R 1 1 R 1 0 R
1 1 R 1 1 R 1 1 R 1 1 R 1 0 R 1 1 R 1 2 R 1 1 R 1 1 R 2 1 R 1 1 R 1 1 R
1 1 R 1 1 R 1 1 R 1 1 R 1 1 R 1 1 R 1 1 R 1 0 R 1 1 R 2 0 R 1 1 R 1 0 R
1 0 R 1 1 R 1 0 R 1 0 R 1 0 R 1 0 R 1 0 R 1 0 R 1 0 R 2 0 R 1 0 R 1 0 R
1 0 R 1 1 R 1 0 R 1 0 R 1 0 R 1 0 R 1 1 R 1 0 R 1 0 R 2 0 R 1 0 R 1 1 R
1 0 R 1 0 R 1 0 R 1 0 R 1 0 R 1 0 R 1 0 R 1 0 R 1 0 R 2 0 R 1 0 R 1 0 R
1 0 R 1 0 R 1 0 R 1 0 R 1 0 R 1 0 R 1 0 R 1 0 R 1 0 R 2 0 R 1 0 R 1 0 R
1 0 R 1 0 R 1 0 R 1 0 R 1 0 R 1 0 R 1 0 R 1 0 R 1 0 R 2 -1 R 1 0 R 1 0 R
1 0 R 1 0 R 1 0 R 1 0 R 1 0 R 1 0 R 1 0 R 1 0 R 1 0 R 2 0 R 1 0 R 1 0 R
1 0 R 1 0 R 1 -1 R 1 0 R 1 0 R 1 0 R 1 0 R 1 0 R 1 0 R 2 0 R 1 0 R 1 0 R
1 0 R 1 0 R 1 0 R 1 0 R 1 0 R 1 -1 R 1 0 R 1 0 R 1 0 R 2 0 R 1 0 R 1 0 R
1 0 R 1 0 R 1 0 R 1 0 R 1 0 R 1 0 R 1 0 R 1 0 R 1 -1 R 2 0 R 1 0 R 1 0 R
1 0 R 1 0 R 1 0 R 1 0 R 1 0 R 1 0 R 1 0 R 1 0 R 1 0 R 2 0 R 1 -1 R 1 0 R
1 0 R 1 0 R 1 0 R 1 0 R 1 0 R 1 0 R 1 0 R 1 0 R 1 0 R 2 0 R 1 0 R 1 0 R
1 0 R 1 -1 R 1 0 R 1 0 R 1 0 R 1 0 R 1 0 R 1 0 R 1 0 R 2 0 R 1 0 R 1 0 R
1 0 R 1 0 R 1 0 R 1 0 R 1 -1 R 1 0 R 1 0 R 1 0 R 1 0 R 2 0 R 1 0 R 1 0 R
1 0 R 1 0 R 1 0 R 1 0 R 1 0 R 1 0 R 1 0 R 1 -1 R 1 0 R 2 0 R 1 0 R 1 0 R
1 0 R 1 0 R 1 0 R 1 0 R 1 0 R 1 0 R 1 0 R 1 0 R 1 0 R 2 0 R 1 -1 R 1 0 R
1 0 R 1 0 R 1 0 R 1 0 R 1 0 R 1 0 R 1 0 R 1 0 R 1 0 R 2 0 R 1 0 R 1 0 R
1 0 R 1 -1 R 1 0 R 1 0 R 1 0 R 1 0 R 1 0 R 1 0 R 1 0 R 2 0 R 1 0 R 1 0 R
1 0 R 1 0 R 1 0 R 1 -1 R 1 0 R 1 0 R 1 0 R 1 0 R 1 0 R 2 0 R 1 0 R 1 0 R
1 0 R 1 0 R 1 0 R 1 0 R 1 0 R 1 0 R 1 -1 R 1 0 R 1 0 R 2 0 R 1 0 R 1 0 R
1 0 R 1 0 R 1 0 R 1 0 R 1 0 R 1 0 R 1 0 R 1 0 R D 10270 2614 M 1 -1 R 2 0 R
1 0 R 1 0 R 1 0 R 1 0 R 1 0 R 1 0 R 1 0 R 1 0 R 1 0 R 1 0 R 1 0 R 2 0 R
1 0 R 1 -1 R 1 0 R 1 0 R 1 0 R 1 0 R 1 0 R 1 0 R 1 0 R 1 0 R 1 0 R 2 0 R
1 0 R 1 0 R 1 0 R 1 0 R 1 -1 R 1 0 R 1 0 R 1 0 R 1 0 R 1 0 R 1 0 R 2 0 R
1 0 R 1 0 R 1 0 R 1 0 R 1 0 R 1 0 R 1 0 R 1 0 R 1 -1 R 1 0 R 1 0 R 2 0 R
1 0 R 1 0 R 1 0 R 1 0 R 1 0 R 1 0 R 1 0 R 1 0 R 1 0 R 1 0 R 2 0 R 1 0 R
1 0 R 1 0 R 1 -1 R 1 0 R 1 0 R 1 0 R 1 0 R 1 0 R 1 0 R 1 0 R 2 0 R 1 0 R
1 0 R 1 0 R 1 0 R 1 0 R 1 0 R 1 0 R 1 0 R 1 0 R 1 0 R 1 0 R 2 0 R 1 0 R
1 0 R 1 0 R 1 -1 R 1 0 R 1 0 R 1 0 R 1 0 R 1 0 R 1 0 R 1 0 R 2 0 R 1 0 R
1 0 R 1 0 R 1 0 R 1 0 R 1 0 R 1 0 R 1 0 R 1 0 R 1 0 R 1 0 R 2 0 R 1 0 R
1 0 R 1 0 R 1 0 R 1 0 R 1 0 R 1 0 R 1 0 R 1 0 R 1 0 R 1 0 R 2 0 R 1 0 R
1 0 R 1 0 R 1 0 R 1 0 R 1 0 R 1 0 R 1 0 R 1 0 R 1 0 R 1 0 R 2 0 R 1 0 R
1 0 R 1 0 R 1 0 R 1 0 R 1 0 R 1 0 R 1 0 R 1 0 R 1 0 R 1 0 R 2 0 R 1 0 R
1 0 R 1 0 R 1 0 R 1 0 R 1 0 R 1 0 R 1 0 R 1 0 R 1 0 R 1 0 R 2 0 R 1 0 R
1 0 R 1 0 R 1 0 R 1 0 R 1 0 R 1 0 R 1 0 R 1 0 R 1 0 R 1 0 R 2 0 R 1 0 R
1 0 R 1 0 R 1 0 R 1 0 R 1 0 R 1 0 R 1 0 R 1 0 R 1 0 R 1 0 R 2 0 R 1 0 R
1 0 R 1 0 R 1 0 R 1 0 R 1 0 R 1 0 R 1 0 R 1 0 R 1 0 R 1 0 R 2 0 R 1 0 R
1 0 R 1 0 R 1 0 R 1 0 R 1 0 R 1 0 R 1 0 R 1 0 R 1 0 R 1 0 R 2 0 R 1 0 R
1 0 R 1 0 R 1 0 R 1 0 R 1 0 R 1 0 R 1 0 R 1 0 R 1 0 R 1 0 R 2 0 R 1 0 R
1 0 R 1 0 R 1 0 R 1 0 R 1 0 R 1 0 R 1 0 R 1 0 R 1 0 R 1 0 R 2 0 R 1 0 R
1 0 R 1 0 R 1 0 R 1 0 R 1 0 R 1 0 R 1 0 R 1 0 R 1 0 R 1 0 R 2 0 R 1 0 R
1 0 R 1 0 R 1 0 R 1 0 R 1 0 R 1 0 R 1 0 R 1 0 R 1 0 R 1 0 R 2 0 R 1 0 R
1 0 R 1 0 R 1 0 R 1 0 R 1 0 R 1 0 R 1 0 R 1 0 R 1 0 R 1 0 R 2 0 R 1 0 R
1 0 R 1 0 R 1 1 R 1 0 R 1 0 R 1 0 R 1 0 R 1 0 R 1 0 R 1 0 R 2 0 R 1 0 R
1 0 R 1 0 R 1 0 R 1 0 R 1 0 R 1 0 R 1 0 R 1 0 R 1 0 R 1 0 R 2 0 R 1 0 R
1 0 R 1 0 R 1 0 R 1 0 R 1 0 R 1 0 R 1 0 R 1 0 R 1 0 R 1 0 R 2 0 R 1 0 R
1 0 R 1 0 R 1 0 R 1 0 R 1 0 R 1 0 R 1 0 R 1 0 R 1 0 R 1 0 R 2 0 R 1 0 R
1 0 R 1 0 R 1 0 R 1 0 R 1 0 R 1 0 R 1 0 R 1 0 R 1 0 R 1 0 R 2 0 R 1 0 R
1 0 R 1 0 R 1 0 R 1 0 R 1 0 R 1 0 R 1 0 R 1 0 R 1 0 R 1 0 R 2 0 R 1 0 R
1 0 R 1 0 R 1 0 R 1 0 R 1 0 R 1 0 R 1 0 R 1 0 R 1 0 R 1 0 R 2 0 R 1 0 R
1 0 R 1 0 R 1 0 R 1 0 R 1 0 R 1 0 R 1 0 R 1 0 R 1 0 R 1 0 R 2 0 R 1 0 R
1 0 R 1 0 R 1 0 R 1 0 R 1 0 R 1 0 R 1 0 R 1 0 R 1 0 R 1 0 R 2 0 R 1 0 R
1 0 R 1 0 R 1 0 R 1 0 R 1 0 R 1 0 R 1 0 R 1 0 R 1 0 R 1 0 R 2 0 R 1 0 R
1 0 R 1 0 R 1 0 R 1 0 R 1 0 R 1 0 R 1 0 R 1 0 R 1 0 R 1 0 R 2 0 R 1 0 R
1 0 R 1 0 R 1 0 R 1 0 R 1 0 R 1 0 R 1 0 R 1 0 R 1 0 R 1 0 R 2 0 R 1 0 R
1 0 R 1 0 R 1 0 R 1 0 R 1 0 R 1 0 R 1 0 R 1 0 R 1 0 R 1 0 R 2 0 R 1 0 R
1 0 R 1 0 R 1 0 R 1 0 R 1 0 R 1 0 R 1 0 R 1 0 R 1 0 R 1 0 R 2 0 R 1 0 R
1 0 R 1 0 R 1 0 R 1 0 R 1 0 R 1 0 R 1 0 R 1 0 R 1 0 R 1 0 R 2 0 R 1 -1 R
1 0 R 1 0 R 1 0 R 1 0 R 1 1 R 1 0 R 1 0 R 1 0 R 1 0 R 1 0 R 2 0 R 1 0 R
1 0 R 1 0 R 1 0 R 1 0 R 1 0 R 1 0 R 1 0 R 1 0 R 1 0 R 1 0 R 2 0 R 1 0 R
1 0 R 1 -1 R 1 0 R 1 0 R 1 0 R 1 0 R 1 0 R 1 0 R 1 0 R 1 0 R 2 0 R 1 1 R
1 2 R 1 2 R 1 2 R 1 1 R 1 1 R 1 0 R 1 0 R 1 0 R 1 1 R 1 0 R 2 0 R 1 0 R
1 0 R 1 0 R 1 1 R 1 0 R 1 0 R 1 0 R 1 0 R 1 0 R 1 0 R 1 1 R 2 0 R 1 0 R
1 0 R 1 0 R 1 0 R 1 0 R 1 1 R 1 0 R 1 0 R 1 0 R 1 0 R 1 0 R 2 0 R 1 1 R
1 0 R 1 0 R 1 0 R 1 0 R 1 0 R 1 0 R 1 1 R 1 0 R 1 0 R 1 0 R 2 0 R 1 0 R
1 0 R 1 1 R 1 0 R 1 0 R 1 0 R 1 0 R 1 0 R 1 0 R 1 1 R 1 0 R 2 0 R 1 0 R
1 0 R 1 0 R 1 0 R 1 1 R 1 0 R 1 0 R 1 0 R 1 0 R 1 0 R 2 0 R 1 1 R 1 0 R
1 0 R 1 0 R 1 0 R 1 0 R 1 1 R 1 0 R 1 0 R 1 0 R 1 0 R 2 0 R 1 0 R 1 1 R
1 0 R 1 0 R 1 0 R 1 0 R 1 0 R 1 0 R 1 1 R 1 0 R 1 0 R 2 0 R 1 0 R 1 0 R
1 0 R 1 1 R 1 0 R 1 0 R 1 0 R 1 0 R 1 0 R 1 0 R 1 1 R 2 0 R 1 0 R 1 0 R
1 0 R 1 0 R 1 0 R 1 1 R 1 0 R 1 0 R 1 0 R 1 0 R 1 0 R 2 0 R 1 1 R 1 0 R
1 0 R 1 0 R 1 0 R 1 0 R 1 0 R 1 1 R 1 0 R 1 0 R 1 0 R 2 0 R 1 0 R 1 0 R
1 1 R 1 0 R 1 0 R 1 0 R 1 0 R 1 0 R 1 1 R 1 0 R 1 0 R 2 0 R 1 0 R 1 0 R
1 0 R 1 1 R 1 0 R 1 0 R 1 0 R 1 0 R 1 0 R 1 0 R 1 1 R 2 0 R 1 0 R 1 0 R
1 0 R 1 0 R 1 0 R 1 1 R 1 0 R 1 0 R 1 0 R 1 0 R 1 0 R 2 0 R 1 1 R 1 0 R
1 0 R 1 0 R 1 0 R 1 0 R 1 1 R 1 0 R 1 0 R 1 0 R 1 0 R 2 0 R 1 0 R 1 1 R
1 0 R 1 0 R 1 0 R 1 0 R 1 0 R 1 0 R 1 1 R 1 0 R 1 0 R 2 0 R 1 0 R 1 0 R
1 0 R 1 1 R 1 0 R 1 0 R 1 0 R 1 0 R 1 0 R 1 1 R 1 0 R 2 0 R 1 0 R 1 0 R
1 0 R 1 0 R 1 1 R 1 0 R 1 0 R 1 0 R 1 0 R 1 0 R 1 0 R 2 1 R 1 0 R 1 0 R
1 0 R 1 0 R 1 0 R 1 0 R 1 1 R 1 0 R 1 0 R 1 0 R 1 0 R 2 0 R 1 1 R 1 0 R
1 0 R 1 0 R 1 0 R 1 0 R 1 0 R 1 1 R 1 0 R 1 0 R 1 0 R 2 0 R 1 0 R 1 0 R
1 1 R 1 0 R 1 0 R 1 0 R 1 0 R 1 0 R 1 1 R 1 0 R 1 0 R 2 0 R 1 0 R 1 0 R
1 0 R 1 1 R 1 0 R 1 0 R 1 0 R 1 0 R 1 0 R 1 0 R 1 1 R 2 0 R 1 0 R 1 0 R
1 0 R 1 0 R 1 1 R 1 0 R D 11083 2656 M 1 0 R 1 0 R 1 0 R 1 0 R 1 0 R 2 1 R
1 0 R 1 0 R 1 0 R 1 0 R 1 0 R 1 0 R 1 1 R 1 0 R 1 0 R 1 0 R 1 0 R 2 0 R
1 1 R 1 0 R 1 0 R 1 0 R 1 0 R 1 0 R 1 0 R 1 1 R 1 0 R 1 0 R 1 0 R 2 0 R
1 0 R 1 0 R 1 1 R 1 0 R 1 0 R 1 0 R 1 0 R 1 0 R 1 1 R 1 0 R 1 0 R 2 0 R
1 0 R 1 0 R 1 0 R 1 1 R 1 0 R 1 0 R 1 0 R 1 0 R 1 0 R 1 1 R 1 0 R 2 0 R
1 0 R 1 0 R 1 0 R 1 0 R 1 1 R 1 0 R 1 0 R 1 0 R 1 0 R 1 0 R 1 0 R 2 1 R
1 0 R 1 0 R 1 0 R 1 0 R 1 0 R 1 1 R 1 0 R 1 0 R 1 0 R 1 0 R 1 0 R 2 0 R
1 1 R 1 0 R 1 0 R 1 0 R 1 0 R 1 0 R 1 1 R 1 0 R 1 0 R 1 0 R 1 0 R 2 0 R
1 0 R 1 1 R 1 0 R 1 0 R 1 0 R 1 0 R 1 0 R 1 1 R 1 0 R 1 0 R 1 0 R 2 0 R
1 0 R 1 1 R 1 0 R 1 0 R 1 0 R 1 0 R 1 1 R 1 0 R 1 0 R 1 0 R 1 1 R 2 0 R
1 0 R 1 0 R 1 1 R 1 0 R 1 0 R 1 0 R 1 1 R 1 0 R 1 0 R 1 0 R 1 0 R 2 1 R
1 0 R 1 0 R 1 0 R 1 0 R 1 0 R 1 1 R 1 0 R 1 0 R 1 0 R 1 0 R 1 1 R 2 0 R
1 0 R 1 0 R 1 0 R 1 1 R 1 0 R 1 0 R 1 0 R 1 0 R 1 1 R 1 0 R 1 0 R 2 0 R
1 0 R 1 1 R 1 0 R 1 0 R 1 0 R 1 0 R 1 1 R 1 0 R 1 0 R 1 0 R 1 0 R 2 1 R
1 0 R 1 0 R 1 0 R 1 0 R 1 1 R 1 0 R 1 0 R 1 0 R 1 0 R 1 1 R 1 0 R 2 0 R
1 0 R 1 0 R 1 1 R 1 0 R 1 0 R 1 0 R 1 0 R 1 1 R 1 0 R 1 0 R 1 0 R 2 0 R
1 1 R 1 0 R 1 0 R 1 0 R 1 0 R 1 1 R 1 0 R 1 0 R 1 0 R 1 0 R 1 1 R 2 0 R
1 0 R 1 0 R 1 0 R 1 1 R 1 0 R 1 0 R 1 0 R 1 0 R 1 1 R 1 0 R 1 0 R 2 0 R
1 0 R 1 1 R 1 0 R 1 0 R 1 0 R 1 0 R 1 1 R 1 0 R 1 0 R 1 0 R 1 0 R 2 1 R
1 0 R 1 0 R 1 0 R 1 0 R 1 1 R 1 0 R 1 0 R 1 0 R 1 0 R 1 1 R 1 0 R 2 0 R
1 0 R 1 0 R 1 1 R 1 0 R 1 0 R 1 0 R 1 0 R 1 1 R 1 0 R 1 0 R 1 0 R 2 0 R
1 0 R 1 1 R 1 0 R 1 0 R 1 0 R 1 0 R 1 1 R 1 0 R 1 0 R 1 0 R 1 0 R 2 1 R
1 0 R 1 0 R 1 0 R 1 0 R 1 1 R 1 0 R 1 0 R 1 0 R 1 0 R 1 0 R 1 1 R 2 0 R
1 0 R 1 0 R 1 0 R 1 1 R 1 0 R 1 0 R 1 0 R 1 0 R 1 0 R 1 1 R 1 0 R 2 0 R
1 0 R 1 0 R 1 1 R 1 0 R 1 0 R 1 0 R 1 0 R 1 0 R 1 1 R 1 0 R 1 0 R 2 0 R
1 0 R 1 0 R 1 1 R 1 0 R 1 0 R 1 0 R 1 0 R 1 0 R 1 1 R 1 0 R 2 0 R 1 0 R
1 0 R 1 0 R 1 0 R 1 -1 R 1 -17 R 1 -152 R 1 -463 R 1 -228 R 1 -6 R 1 0 R
2 0 R 1 0 R 1 0 R 1 0 R 1 0 R 1 0 R 1 0 R 1 0 R 1 0 R 1 0 R 1 0 R 1 0 R
2 0 R 1 0 R 1 0 R 1 0 R 1 0 R 1 0 R 1 0 R 1 0 R 1 0 R 1 0 R 1 0 R 1 0 R
2 0 R 1 0 R 1 0 R 1 0 R 1 0 R 1 0 R 1 0 R 1 0 R 1 0 R 1 0 R 1 0 R 1 0 R
2 0 R 1 0 R 1 0 R 1 0 R 1 0 R 1 0 R 1 0 R 1 0 R 1 0 R 1 0 R 1 0 R 1 0 R
2 0 R 1 0 R 1 0 R 1 0 R 1 0 R 1 0 R 1 0 R 1 0 R 1 0 R 1 0 R 1 0 R 1 0 R
2 0 R 1 0 R 1 0 R 1 0 R 1 0 R 1 0 R 1 0 R 1 0 R 1 0 R 1 0 R 1 0 R 1 0 R
2 0 R 1 0 R 1 0 R 1 0 R 1 0 R 1 0 R 1 0 R 1 0 R 1 0 R 1 0 R 1 0 R 1 0 R
2 0 R 1 0 R 1 0 R 1 0 R 1 0 R 1 0 R 1 0 R 1 0 R 1 0 R 1 0 R 1 0 R 1 0 R
2 0 R 1 0 R 1 0 R 1 0 R 1 0 R 1 0 R 1 0 R 1 0 R 1 0 R 1 0 R 1 0 R 1 0 R
2 0 R 1 0 R 1 0 R 1 0 R 1 0 R 1 0 R 1 0 R 1 0 R 1 0 R 1 0 R 1 0 R 1 0 R
2 0 R 1 0 R 1 0 R 1 0 R 1 0 R 1 0 R 1 0 R 1 0 R 1 0 R 1 0 R 1 0 R 1 0 R
2 0 R 1 0 R 1 0 R 1 0 R 1 0 R 1 0 R 1 0 R 1 0 R 1 0 R 1 0 R 1 0 R 1 0 R
2 0 R 1 0 R 1 0 R 1 0 R 1 0 R 1 0 R 1 0 R 1 0 R 1 0 R 1 0 R 1 0 R 1 0 R
2 0 R 1 0 R 1 0 R 1 0 R 1 0 R 1 0 R 1 0 R 1 0 R 1 0 R 1 0 R 1 0 R 1 0 R
2 0 R 1 0 R 1 0 R 1 0 R 1 0 R 1 0 R 1 0 R 1 0 R 1 0 R 1 0 R 1 0 R 1 0 R
2 0 R 1 0 R 1 0 R 1 0 R 1 0 R 1 0 R 1 0 R 1 0 R 1 0 R 1 0 R 1 0 R 1 0 R
2 0 R 1 0 R 1 0 R 1 0 R 1 0 R 1 0 R 1 0 R 1 0 R 1 0 R 1 0 R 1 0 R 1 0 R
2 0 R 1 0 R 1 0 R 1 0 R 1 0 R 1 0 R 1 0 R 1 0 R 1 0 R 1 0 R 1 0 R 1 0 R
2 0 R 1 0 R 1 0 R 1 0 R 1 0 R 1 0 R 1 0 R 1 0 R 1 0 R 1 0 R 1 0 R 1 0 R
2 0 R 1 0 R 1 0 R 1 0 R 1 0 R 1 0 R 1 0 R 1 0 R 1 0 R 1 0 R 1 0 R 1 0 R
2 0 R 1 0 R 1 0 R 1 0 R 1 0 R 1 0 R 1 0 R 1 0 R 1 0 R 1 0 R 1 0 R 1 0 R
2 0 R 1 0 R 1 0 R 1 0 R 1 0 R 1 0 R 1 0 R 1 0 R 1 0 R 1 0 R 1 0 R 1 0 R
2 0 R 1 0 R 1 0 R 1 0 R 1 0 R 1 0 R 1 0 R 1 0 R 1 0 R 1 0 R 1 0 R 1 0 R
2 0 R 1 0 R 1 0 R 1 0 R 1 0 R 1 0 R 1 0 R 1 0 R 1 0 R 1 0 R 1 0 R 1 0 R
2 0 R 1 0 R 1 0 R 1 0 R 1 0 R 1 0 R 1 0 R 1 0 R 1 0 R 1 0 R 1 0 R 1 0 R
2 0 R 1 0 R 1 0 R 1 0 R 1 0 R 1 0 R 1 0 R 1 0 R 1 0 R 1 0 R 1 0 R 1 0 R
2 0 R 1 0 R 1 0 R 1 0 R 1 0 R 1 0 R 1 0 R 1 0 R 1 0 R 1 0 R 1 0 R 1 0 R
2 0 R 1 0 R 1 0 R 1 0 R 1 0 R 1 0 R 1 0 R 1 0 R 1 0 R 1 0 R 1 0 R 1 0 R
2 0 R 1 0 R 1 0 R 1 0 R 1 0 R 1 0 R 1 0 R 1 0 R 1 0 R 1 0 R 1 0 R 1 0 R
2 0 R 1 0 R 1 0 R 1 0 R 1 0 R 1 0 R 1 0 R 1 0 R 1 0 R 1 0 R 1 0 R 1 0 R
2 0 R 1 0 R 1 0 R 1 0 R 1 0 R 1 0 R 1 0 R 1 0 R 1 0 R 1 0 R 1 0 R 1 0 R
2 0 R 1 0 R 1 0 R 1 0 R 1 0 R 1 0 R 1 0 R 1 0 R 1 0 R 1 0 R 1 0 R 1 0 R
2 0 R 1 0 R 1 0 R 1 0 R 1 0 R 1 0 R 1 0 R 1 0 R 1 0 R 1 0 R 1 0 R 1 0 R
2 0 R 1 0 R 1 0 R 1 0 R 1 0 R 1 0 R 1 0 R 1 0 R 1 0 R 1 0 R 1 0 R 1 0 R
2 0 R 1 0 R 1 0 R 1 0 R 1 0 R 1 0 R 1 0 R 1 0 R 1 0 R 1 0 R 1 0 R 1 0 R
2 0 R 1 0 R 1 0 R 1 0 R 1 0 R 1 0 R 1 0 R 1 0 R 1 0 R 1 0 R 1 0 R 1 0 R
2 0 R 1 0 R D 11896 1844 M 1 0 R 1 0 R 1 0 R 1 0 R 1 0 R 1 0 R 1 0 R 1 0 R
1 0 R 1 0 R 2 0 R 1 0 R 1 0 R 1 0 R 1 0 R 1 0 R 1 0 R 1 0 R 1 0 R 1 0 R
1 0 R 1 0 R 2 0 R 1 0 R 1 0 R 1 0 R 1 0 R 1 0 R 1 0 R 1 0 R 1 0 R 1 0 R
1 0 R 1 0 R 2 0 R 1 0 R 1 0 R 1 0 R 1 0 R 1 0 R 1 0 R 1 0 R 1 0 R 1 0 R
1 0 R 1 0 R 2 0 R 1 0 R 1 0 R 1 0 R 1 0 R 1 0 R 1 0 R 1 0 R 1 0 R 1 0 R
1 0 R 2 0 R 1 0 R 1 0 R 1 0 R 1 0 R 1 0 R 1 0 R 1 0 R 1 0 R 1 0 R 1 0 R
1 0 R 2 0 R 1 0 R 1 0 R 1 0 R 1 0 R 1 0 R 1 0 R 1 0 R 1 0 R 1 0 R 1 0 R
1 0 R 2 0 R 1 0 R 1 0 R 1 0 R 1 0 R 1 0 R 1 0 R 1 0 R 1 0 R 1 0 R 1 0 R
1 0 R 2 0 R 1 0 R 1 0 R 1 0 R 1 0 R 1 0 R 1 0 R 1 0 R 1 0 R 1 0 R 1 0 R
1 0 R 2 0 R 1 0 R 1 0 R 1 0 R 1 0 R 1 0 R 1 0 R 1 0 R 1 0 R 1 0 R 1 0 R
1 0 R 2 0 R 1 0 R 1 0 R 1 0 R 1 0 R 1 0 R 1 0 R 1 0 R 1 0 R 1 0 R 1 0 R
1 0 R 2 0 R 1 0 R 1 0 R 1 0 R 1 0 R 1 0 R 1 0 R 1 0 R 1 0 R 1 0 R 1 0 R
1 0 R 2 0 R 1 0 R 1 0 R 1 0 R 1 0 R 1 0 R 1 0 R 1 0 R 1 0 R 1 0 R 1 0 R
1 0 R 2 0 R 1 0 R 1 0 R 1 0 R 1 0 R 1 0 R 1 0 R 1 0 R 1 0 R 1 0 R 1 0 R
1 0 R 2 0 R 1 0 R 1 0 R 1 0 R 1 0 R 1 0 R 1 0 R 1 0 R 1 0 R 1 0 R 1 0 R
1 0 R 2 0 R 1 0 R 1 0 R 1 0 R 1 0 R 1 0 R 1 0 R 1 0 R 1 0 R 1 0 R 1 0 R
1 0 R 2 0 R 1 0 R 1 0 R 1 0 R 1 0 R 1 0 R 1 0 R 1 0 R 1 0 R 1 0 R 1 0 R
1 0 R 2 0 R 1 0 R 1 0 R 1 0 R 1 0 R 1 0 R 1 0 R 1 0 R 1 0 R 1 0 R 1 0 R
1 0 R 2 0 R 1 0 R 1 0 R 1 0 R 1 0 R 1 0 R 1 0 R 1 0 R 1 0 R 1 0 R 1 0 R
1 0 R 2 0 R 1 0 R 1 0 R 1 0 R 1 0 R 1 0 R 1 0 R 1 0 R 1 0 R 1 0 R 1 0 R
1 0 R 2 0 R 1 0 R 1 0 R 1 0 R 1 0 R 1 0 R 1 0 R 1 0 R 1 0 R 1 0 R 1 0 R
1 0 R 2 0 R 1 0 R 1 0 R 1 0 R 1 0 R 1 0 R 1 0 R 1 0 R 1 0 R 1 0 R 1 0 R
1 0 R 2 0 R 1 0 R 1 0 R 1 0 R 1 0 R 1 0 R 1 0 R 1 0 R 1 0 R 1 0 R 1 0 R
1 0 R 2 0 R 1 0 R 1 0 R 1 0 R 1 0 R 1 0 R 1 0 R 1 0 R 1 0 R 1 0 R 1 0 R
1 0 R 2 0 R 1 0 R 1 0 R 1 0 R 1 0 R 1 0 R 1 0 R 1 0 R 1 0 R 1 0 R 1 0 R
1 0 R 2 0 R 1 0 R 1 0 R 1 0 R 1 0 R 1 0 R 1 0 R 1 0 R 1 0 R 1 0 R 1 0 R
1 0 R 2 0 R 1 0 R 1 0 R 1 0 R 1 0 R 1 0 R 1 0 R 1 0 R 1 0 R 1 0 R 1 0 R
1 0 R 2 0 R 1 0 R 1 0 R 1 0 R 1 0 R 1 0 R 1 0 R 1 0 R 1 0 R 1 0 R 1 0 R
1 0 R 2 0 R 1 0 R 1 0 R 1 0 R 1 0 R 1 0 R 1 0 R 1 0 R 1 0 R 1 0 R 1 0 R
1 0 R 2 0 R 1 0 R 1 0 R 1 0 R 1 0 R 1 0 R 1 0 R 1 0 R 1 0 R 1 0 R 1 0 R
1 0 R 2 0 R 1 0 R 1 0 R 1 0 R 1 0 R 1 0 R 1 0 R 1 0 R 1 0 R 1 0 R 1 0 R
1 0 R 2 0 R 1 0 R 1 0 R 1 0 R 1 0 R 1 0 R 1 0 R 1 0 R 1 0 R 1 0 R 1 0 R
1 0 R 2 0 R 1 0 R 1 0 R 1 0 R 1 0 R 1 0 R 1 0 R 1 0 R 1 0 R 1 0 R 1 0 R
1 0 R 2 0 R 1 0 R 1 0 R 1 0 R 1 0 R 1 0 R 1 0 R 1 0 R 1 0 R 1 0 R 1 0 R
1 0 R 2 0 R 1 0 R 1 0 R 1 0 R 1 0 R 1 0 R 1 0 R 1 0 R 1 0 R 1 0 R 1 0 R
1 0 R 2 0 R 1 0 R 1 0 R 1 0 R 1 0 R 1 0 R 1 0 R 1 0 R 1 0 R 1 0 R 1 0 R
1 0 R 2 0 R 1 0 R 1 0 R 1 0 R 1 0 R 1 0 R 1 0 R 1 0 R 1 0 R 1 0 R 1 0 R
1 0 R 2 0 R 1 0 R 1 0 R 1 0 R 1 0 R 1 0 R 1 0 R 1 0 R 1 0 R 1 0 R 1 0 R
1 0 R 2 0 R 1 0 R 1 0 R 1 0 R 1 0 R 1 0 R 1 0 R 1 0 R 1 0 R 1 0 R 1 0 R
1 0 R 2 0 R 1 0 R 1 0 R 1 0 R 1 0 R 1 0 R 1 0 R 1 0 R 1 0 R 1 0 R 1 0 R
1 0 R 2 0 R 1 0 R 1 0 R 1 0 R 1 0 R 1 0 R 1 0 R 1 0 R 1 0 R 1 0 R 1 0 R
1 0 R 2 0 R 1 0 R 1 0 R 1 0 R 1 0 R 1 0 R 1 0 R 1 0 R 1 0 R 1 0 R 1 0 R
1 0 R 2 0 R 1 0 R 1 0 R 1 0 R 1 0 R 1 0 R 1 0 R 1 0 R 1 0 R 1 0 R 1 0 R
1 0 R 2 0 R 1 0 R 1 0 R 1 0 R 1 0 R 1 0 R 1 0 R 1 0 R 1 0 R 1 0 R 1 0 R
1 0 R 2 0 R 1 0 R 1 0 R 1 0 R 1 0 R 1 0 R 1 0 R 1 0 R 1 0 R 1 0 R 1 0 R
1 0 R 2 0 R 1 0 R 1 0 R 1 0 R 1 0 R 1 0 R 1 0 R 1 0 R 1 0 R 1 0 R 1 0 R
1 0 R 2 0 R 1 0 R 1 0 R 1 0 R 1 0 R 1 0 R 1 0 R 1 0 R 1 0 R 1 0 R 1 0 R
2 0 R 1 0 R 1 0 R 1 0 R 1 0 R 1 0 R 1 0 R 1 0 R 1 0 R 1 0 R 1 0 R 1 0 R
2 0 R 1 0 R 1 0 R 1 0 R 1 0 R 1 0 R 1 0 R 1 0 R 1 0 R 1 0 R 1 0 R 1 0 R
2 0 R 1 0 R 1 0 R 1 0 R 1 0 R 1 0 R 1 0 R 1 0 R 1 0 R 1 0 R 1 0 R 1 0 R
2 0 R 1 0 R 1 0 R 1 0 R 1 0 R 1 0 R 1 0 R 1 0 R 1 0 R 1 0 R 1 0 R 1 0 R
2 0 R 1 0 R 1 0 R 1 0 R 1 0 R 1 0 R 1 0 R 1 0 R 1 0 R 1 0 R 1 0 R 1 0 R
2 0 R 1 0 R 1 0 R 1 0 R 1 0 R 1 0 R 1 0 R 1 0 R 1 0 R 1 0 R 1 0 R 1 0 R
2 0 R 1 0 R 1 0 R 1 0 R 1 0 R 1 0 R 1 0 R 1 0 R 1 0 R 1 0 R 1 0 R 1 0 R
2 0 R 1 0 R 1 0 R 1 0 R 1 0 R 1 0 R 1 0 R 1 0 R 1 0 R 1 0 R 1 0 R 1 0 R
2 0 R 1 0 R 1 0 R 1 0 R 1 0 R 1 0 R 1 0 R 1 0 R 1 0 R 1 0 R 1 0 R 1 0 R
2 0 R 1 0 R 1 0 R 1 0 R 1 0 R 1 0 R 1 0 R 1 0 R 1 0 R 1 0 R 1 0 R 1 0 R
2 0 R 1 0 R 1 0 R 1 0 R 1 0 R 1 0 R 1 0 R 1 0 R 1 0 R 1 0 R 1 0 R 1 0 R
2 0 R 1 0 R 1 0 R 1 0 R 1 0 R 1 0 R 1 0 R 1 0 R 1 0 R 1 0 R 1 0 R 1 0 R
2 0 R 1 0 R 1 0 R 1 0 R 1 0 R 1 0 R 1 0 R 1 0 R 1 0 R 1 0 R 1 0 R 1 0 R
2 0 R 1 0 R 1 0 R 1 0 R 1 0 R 1 0 R 1 0 R 1 0 R 1 0 R 1 0 R 1 0 R 1 0 R
2 0 R 1 0 R 1 0 R 1 0 R 1 0 R 1 0 R 1 0 R 1 0 R 1 0 R 1 0 R 1 0 R 1 0 R
2 0 R 1 0 R 1 0 R 1 0 R 1 0 R 1 0 R 1 0 R 1 0 R 1 0 R 1 0 R D 12708 1844 M
1 0 R 1 0 R 2 0 R 1 0 R 1 0 R 1 0 R 1 0 R 1 0 R 1 0 R 1 0 R 1 0 R 1 0 R
1 0 R 1 0 R 2 0 R 1 0 R 1 0 R 1 0 R 1 0 R 1 0 R 1 0 R 1 0 R 1 0 R 1 0 R
1 0 R 1 0 R 2 0 R 1 0 R 1 0 R 1 0 R 1 0 R 1 0 R 1 0 R 1 0 R 1 0 R 1 0 R
1 0 R 1 0 R 2 0 R 1 0 R 1 0 R 1 0 R 1 0 R 1 0 R 1 0 R 1 0 R 1 0 R 1 0 R
1 0 R 1 0 R 2 0 R 1 0 R 1 0 R 1 0 R 1 0 R 1 0 R 1 0 R 1 0 R 1 0 R 1 0 R
1 0 R 1 0 R 2 0 R 1 0 R 1 0 R 1 0 R 1 0 R 1 0 R 1 0 R 1 0 R 1 0 R 1 0 R
1 0 R 1 0 R 2 0 R 1 0 R 1 0 R 1 0 R 1 0 R 1 0 R 1 0 R 1 0 R 1 0 R 1 0 R
1 0 R 1 0 R 2 0 R 1 0 R 1 0 R 1 0 R 1 0 R 1 0 R 1 0 R 1 0 R 1 0 R 1 0 R
1 0 R 1 0 R 2 0 R 1 0 R 1 0 R 1 0 R 1 0 R 1 0 R 1 0 R 1 0 R 1 0 R 1 0 R
1 0 R 1 0 R 2 0 R 1 0 R 1 0 R 1 0 R 1 0 R 1 0 R 1 0 R 1 0 R 1 0 R 1 0 R
1 0 R 1 0 R 2 0 R 1 0 R 1 0 R 1 0 R 1 0 R 1 0 R 1 0 R 1 0 R 1 0 R 1 0 R
1 0 R 1 0 R 2 0 R 1 0 R 1 0 R 1 0 R 1 0 R 1 0 R 1 0 R 1 0 R 1 0 R 1 0 R
1 0 R 1 0 R 2 0 R 1 0 R 1 0 R 1 0 R 1 0 R 1 0 R 1 0 R 1 0 R 1 0 R 1 0 R
1 0 R 1 0 R 2 0 R 1 0 R 1 0 R 1 0 R 1 0 R 1 0 R 1 0 R 1 0 R 1 0 R 1 0 R
1 0 R 1 0 R 2 0 R 1 0 R 1 0 R 1 0 R 1 0 R 1 0 R 1 0 R 1 0 R 1 0 R 1 0 R
1 0 R 1 0 R 2 0 R 1 0 R 1 0 R 1 0 R 1 0 R 1 0 R 1 0 R 1 0 R 1 0 R 1 0 R
1 0 R 1 0 R 2 0 R 1 0 R 1 0 R 1 0 R 1 0 R 1 0 R 1 0 R 1 0 R 1 0 R 1 0 R
1 0 R 1 0 R 2 0 R 1 0 R 1 0 R 1 0 R 1 0 R 1 0 R 1 0 R 1 0 R 1 0 R 1 0 R
1 0 R 1 0 R 2 0 R 1 0 R 1 0 R 1 0 R 1 0 R 1 0 R 1 0 R 1 0 R 1 0 R 1 0 R
1 0 R 1 0 R 2 0 R 1 0 R 1 0 R 1 0 R 1 0 R 1 0 R 1 0 R 1 0 R 1 0 R 1 0 R
1 0 R 1 0 R 2 0 R 1 0 R 1 0 R 1 0 R 1 0 R 1 0 R 1 0 R 1 0 R 1 0 R 1 0 R
1 0 R 1 0 R 2 0 R 1 0 R 1 0 R 1 0 R 1 0 R 1 0 R 1 0 R 1 0 R 1 0 R 1 0 R
1 0 R 1 0 R 2 0 R 1 0 R 1 0 R 1 0 R 1 0 R 1 0 R 1 0 R 1 0 R 1 0 R 1 0 R
1 0 R 1 0 R 2 0 R 1 0 R 1 0 R 1 0 R 1 0 R 1 0 R 1 0 R 1 0 R 1 0 R 1 0 R
1 0 R 1 0 R 2 0 R 1 0 R 1 0 R 1 0 R 1 0 R 1 0 R 1 0 R 1 0 R 1 0 R 1 0 R
1 0 R 2 0 R 1 0 R 1 0 R 1 0 R 1 0 R 1 0 R 1 0 R 1 0 R 1 0 R 1 0 R 1 0 R
1 0 R 2 0 R 1 0 R 1 0 R 1 0 R 1 0 R 1 0 R 1 0 R 1 0 R 1 0 R 1 0 R 1 0 R
1 0 R 2 0 R 1 0 R 1 0 R 1 0 R 1 0 R 1 0 R 1 0 R 1 0 R 1 0 R 1 0 R 1 0 R
1 0 R 2 0 R 1 0 R 1 0 R 1 0 R 1 0 R 1 0 R 1 0 R 1 0 R 1 0 R 1 0 R 1 0 R
1 0 R 2 0 R 1 0 R 1 0 R 1 0 R 1 0 R 1 0 R 1 0 R 1 0 R 1 0 R 1 0 R 1 0 R
1 0 R 2 0 R 1 0 R 1 0 R 1 0 R 1 0 R 1 0 R 1 0 R 1 0 R 1 0 R 1 0 R 1 0 R
1 0 R 2 0 R 1 0 R 1 0 R 1 0 R 1 0 R 1 0 R 1 0 R 1 0 R 1 0 R 1 0 R 1 0 R
1 0 R 2 0 R 1 0 R 1 0 R 1 0 R 1 0 R 1 0 R 1 0 R 1 0 R 1 0 R 1 0 R 1 0 R
1 0 R 2 0 R 1 0 R 1 0 R 1 0 R 1 0 R 1 0 R 1 0 R 1 0 R 1 0 R 1 0 R 1 0 R
1 0 R 2 0 R 1 0 R 1 0 R 1 0 R 1 0 R 1 0 R 1 0 R 1 0 R 1 0 R 1 0 R 1 0 R
1 0 R 2 0 R 1 0 R 1 0 R 1 0 R 1 0 R 1 0 R 1 0 R 1 0 R 1 0 R 1 0 R 1 0 R
1 0 R 2 0 R 1 0 R 1 0 R 1 0 R 1 0 R 1 0 R 1 0 R 1 0 R 1 0 R 1 0 R 1 0 R
1 0 R 2 0 R 1 0 R 1 0 R 1 0 R 1 0 R 1 0 R 1 0 R 1 0 R 1 0 R 1 0 R 1 0 R
1 0 R 2 0 R 1 0 R 1 0 R 1 0 R 1 0 R 1 0 R 1 0 R 1 0 R 1 0 R 1 0 R 1 0 R
1 0 R 2 0 R 1 0 R 1 0 R 1 0 R 1 0 R 1 0 R 1 0 R 1 0 R 1 0 R 1 0 R 1 0 R
1 0 R 2 0 R 1 0 R 1 0 R 1 0 R 1 0 R 1 0 R 1 0 R 1 0 R 1 0 R 1 0 R 1 0 R
1 0 R 2 0 R 1 0 R 1 0 R 1 0 R 1 0 R 1 0 R 1 0 R 1 0 R 1 0 R 1 0 R 1 0 R
1 0 R 2 0 R 1 0 R 1 0 R 1 0 R 1 0 R 1 0 R 1 0 R 1 0 R 1 0 R 1 0 R 1 0 R
1 0 R 2 0 R 1 0 R 1 0 R 1 0 R 1 0 R 1 0 R 1 0 R 1 0 R 1 0 R 1 0 R 1 0 R
1 0 R 2 0 R 1 0 R 1 0 R 1 0 R 1 0 R 1 0 R 1 0 R 1 0 R 1 0 R 1 0 R 1 0 R
1 0 R 2 0 R 1 0 R 1 0 R 1 0 R 1 0 R 1 0 R 1 0 R 1 0 R 1 0 R 1 0 R 1 0 R
1 0 R 2 0 R 1 0 R 1 0 R 1 0 R 1 0 R 1 0 R 1 0 R 1 0 R 1 0 R 1 0 R 1 0 R
1 0 R 2 0 R 1 0 R 1 0 R 1 0 R 1 0 R 1 0 R 1 0 R 1 0 R 1 0 R 1 0 R 1 0 R
1 0 R 2 0 R 1 0 R 1 0 R 1 0 R 1 0 R 1 0 R 1 0 R 1 0 R 1 0 R 1 0 R 1 0 R
1 0 R 2 0 R 1 0 R 1 0 R 1 0 R 1 0 R 1 0 R 1 0 R 1 0 R 1 0 R 1 0 R 1 0 R
1 0 R 2 0 R 1 0 R 1 0 R 1 0 R 1 0 R 1 0 R 1 0 R 1 0 R 1 0 R 1 0 R 1 0 R
1 0 R 2 0 R 1 0 R 1 0 R 1 0 R 1 0 R 1 0 R 1 0 R 1 0 R 1 0 R 1 0 R 1 0 R
1 0 R 2 0 R 1 0 R 1 0 R 1 0 R 1 0 R 1 0 R 1 0 R 1 0 R 1 0 R 1 0 R 1 0 R
1 0 R 2 0 R 1 0 R 1 0 R 1 0 R 1 0 R 1 0 R 1 0 R 1 0 R 1 0 R 1 0 R 1 0 R
1 0 R 2 0 R 1 0 R 1 0 R 1 0 R 1 0 R 1 0 R 1 0 R 1 0 R 1 0 R 1 0 R 1 0 R
1 0 R 2 0 R 1 0 R 1 0 R 1 0 R 1 0 R 1 0 R 1 0 R 1 0 R 1 0 R 1 0 R 1 0 R
1 0 R 2 0 R 1 0 R 1 0 R 1 0 R 1 0 R 1 0 R 1 0 R 1 0 R 1 0 R 1 0 R 1 0 R
1 0 R 2 0 R 1 0 R 1 0 R 1 0 R 1 0 R 1 0 R 1 0 R 1 0 R 1 0 R 1 0 R 1 0 R
1 0 R 2 0 R 1 0 R 1 0 R 1 0 R 1 0 R 1 0 R 1 0 R 1 0 R 1 0 R 1 0 R 1 0 R
1 0 R 2 0 R 1 0 R 1 0 R 1 0 R 1 0 R 1 0 R 1 0 R 1 0 R 1 0 R 1 0 R 1 0 R
1 0 R 2 0 R 1 0 R 1 0 R 1 0 R 1 0 R 1 0 R 1 0 R 1 0 R 1 0 R 1 0 R 1 0 R
1 0 R 2 0 R 1 0 R 1 0 R 1 0 R 1 0 R 1 0 R 1 0 R 1 0 R 1 0 R 1 0 R 1 0 R
1 0 R 2 0 R 1 0 R 1 0 R 1 0 R 1 0 R D 13521 1844 M 1 0 R 1 0 R 1 0 R 1 0 R
1 0 R 1 0 R 1 0 R 2 0 R 1 0 R 1 0 R 1 0 R 1 0 R 1 0 R 1 0 R 1 0 R 1 0 R
1 0 R 1 0 R 1 0 R 2 0 R 1 0 R 1 0 R 1 0 R 1 0 R 1 0 R 1 0 R 1 0 R 1 0 R
1 0 R 1 0 R 1 0 R 2 0 R 1 0 R 1 0 R 1 0 R 1 0 R 1 0 R 1 0 R 1 0 R 1 0 R
1 0 R 1 0 R 1 0 R 2 0 R 1 0 R 1 0 R 1 0 R 1 0 R 1 0 R 1 0 R 1 0 R 1 0 R
1 0 R 1 0 R 2 0 R 1 0 R 1 0 R 1 0 R 1 0 R 1 0 R 1 0 R 1 0 R 1 0 R 1 0 R
1 0 R 1 0 R 2 0 R 1 0 R 1 0 R 1 0 R 1 0 R 1 0 R 1 0 R 1 0 R 1 0 R 1 0 R
1 0 R 1 0 R 2 0 R 1 0 R 1 0 R 1 0 R 1 0 R 1 0 R 1 0 R 1 0 R 1 0 R 1 0 R
1 0 R 1 0 R 2 0 R 1 0 R 1 0 R 1 0 R 1 0 R 1 0 R 1 0 R 1 0 R 1 0 R 1 0 R
1 0 R 1 0 R 2 0 R 1 0 R 1 0 R 1 0 R 1 0 R 1 0 R 1 0 R 1 0 R 1 0 R 1 0 R
1 0 R 1 0 R 2 0 R 1 0 R 1 0 R 1 0 R 1 0 R 1 0 R 1 0 R 1 0 R 1 0 R 1 0 R
1 0 R 1 0 R 2 0 R 1 0 R 1 0 R 1 0 R 1 0 R 1 0 R 1 0 R 1 0 R 1 0 R 1 0 R
1 0 R 1 0 R 2 0 R 1 0 R 1 0 R 1 0 R 1 0 R 1 0 R 1 0 R 1 0 R 1 0 R 1 0 R
1 0 R 1 0 R 2 0 R 1 0 R 1 0 R 1 0 R 1 0 R 1 0 R 1 0 R 1 0 R 1 0 R 1 0 R
1 0 R 1 0 R 2 0 R 1 0 R 1 0 R 1 0 R 1 0 R 1 0 R 1 0 R 1 0 R 1 0 R 1 0 R
1 0 R 1 0 R 2 0 R 1 0 R 1 0 R 1 0 R 1 0 R 1 0 R 1 0 R 1 0 R 1 0 R 1 0 R
1 0 R 1 0 R 2 0 R 1 0 R 1 0 R 1 0 R 1 0 R 1 0 R 1 0 R 1 0 R 1 0 R 1 0 R
1 0 R 1 0 R 2 0 R 1 0 R 1 0 R 1 0 R 1 0 R 1 0 R 1 0 R 1 0 R 1 0 R 1 0 R
1 0 R 1 0 R 2 0 R 1 0 R 1 0 R 1 0 R 1 0 R 1 0 R 1 0 R 1 0 R 1 0 R 1 0 R
1 0 R 1 0 R 2 0 R 1 0 R 1 0 R 1 0 R 1 0 R 1 0 R 1 0 R 1 0 R 1 0 R 1 0 R
1 0 R 1 0 R 2 0 R 1 0 R 1 0 R 1 0 R 1 0 R 1 0 R 1 0 R 1 0 R 1 0 R 1 0 R
1 0 R 1 0 R 2 0 R 1 0 R 1 0 R 1 0 R 1 0 R 1 0 R 1 0 R 1 0 R 1 0 R 1 0 R
1 0 R 1 0 R 2 0 R 1 0 R 1 0 R 1 0 R 1 0 R 1 0 R 1 0 R 1 0 R 1 0 R 1 0 R
1 0 R 1 0 R 2 0 R 1 0 R 1 0 R 1 0 R 1 0 R 1 0 R 1 0 R 1 0 R 1 0 R 1 0 R
1 0 R 1 0 R 2 0 R 1 0 R 1 0 R 1 0 R 1 0 R 1 0 R 1 0 R 1 0 R 1 0 R 1 0 R
1 0 R 1 0 R 2 0 R 1 0 R 1 0 R 1 0 R 1 0 R 1 0 R 1 0 R 1 0 R 1 0 R 1 0 R
1 0 R 1 0 R 2 0 R 1 0 R 1 0 R 1 0 R 1 0 R 1 0 R 1 0 R 1 0 R 1 0 R 1 0 R
1 0 R 1 0 R 2 0 R 1 0 R 1 0 R 1 0 R 1 0 R 1 0 R 1 0 R 1 0 R 1 0 R 1 0 R
1 0 R 1 0 R 2 0 R 1 0 R 1 0 R 1 0 R 1 0 R 1 0 R 1 0 R 1 0 R 1 0 R 1 0 R
1 0 R 1 0 R 2 0 R 1 0 R 1 0 R 1 0 R 1 0 R 1 0 R 1 0 R 1 0 R 1 0 R 1 0 R
1 0 R 1 0 R 2 0 R 1 0 R 1 0 R 1 0 R 1 0 R 1 0 R 1 0 R 1 0 R 1 0 R 1 0 R
1 0 R 1 0 R 2 0 R 1 0 R 1 0 R 1 0 R 1 0 R 1 0 R 1 0 R 1 0 R 1 0 R 1 0 R
1 0 R 1 0 R 2 0 R 1 0 R 1 0 R 1 0 R 1 0 R 1 0 R 1 0 R 1 0 R 1 0 R 1 0 R
1 0 R 1 0 R 2 0 R 1 0 R 1 0 R 1 0 R 1 0 R 1 0 R 1 0 R 1 0 R 1 0 R 1 0 R
1 0 R 1 0 R 2 0 R 1 0 R 1 0 R 1 0 R 1 0 R 1 0 R 1 0 R 1 0 R 1 0 R 1 0 R
1 0 R 1 0 R 2 0 R 1 0 R 1 0 R 1 0 R 1 0 R 1 0 R 1 0 R 1 0 R 1 0 R 1 0 R
1 0 R 1 0 R 2 0 R 1 0 R 1 0 R 1 0 R 1 0 R 1 0 R 1 0 R 1 0 R 1 0 R 1 0 R
1 0 R 1 0 R 2 0 R 1 0 R 1 0 R 1 0 R 1 0 R 1 0 R 1 0 R 1 0 R 1 0 R 1 0 R
1 0 R 1 0 R 2 0 R 1 0 R 1 0 R 1 0 R 1 0 R 1 0 R 1 0 R 1 0 R 1 0 R 1 0 R
1 0 R 1 0 R 2 0 R 1 0 R 1 0 R 1 0 R 1 0 R 1 0 R 1 0 R 1 0 R 1 0 R 1 0 R
1 0 R 1 0 R 2 0 R 1 0 R 1 0 R 1 0 R 1 0 R 1 0 R 1 0 R 1 0 R 1 0 R 1 0 R
1 0 R 1 0 R 2 0 R 1 0 R 1 0 R 1 0 R 1 0 R 1 0 R 1 0 R 1 0 R 1 0 R 1 0 R
1 0 R 1 0 R 2 0 R 1 0 R 1 0 R 1 0 R 1 0 R 1 0 R 1 0 R 1 0 R 1 0 R 1 0 R
1 0 R 1 0 R 2 0 R 1 0 R 1 0 R 1 0 R 1 0 R 1 0 R 1 0 R 1 0 R 1 0 R 1 0 R
1 0 R 1 0 R 2 0 R 1 0 R 1 0 R 1 0 R 1 0 R 1 0 R 1 0 R 1 0 R 1 0 R 1 0 R
1 0 R 1 0 R 2 0 R 1 0 R 1 0 R 1 0 R 1 0 R 1 0 R 1 0 R 1 0 R 1 0 R 1 0 R
1 0 R 1 0 R 2 0 R 1 0 R 1 0 R 1 0 R 1 0 R 1 0 R 1 0 R 1 0 R 1 0 R 1 0 R
1 0 R 2 0 R 1 0 R 1 0 R 1 0 R 1 0 R 1 0 R 1 0 R 1 0 R 1 0 R 1 0 R 1 0 R
1 0 R 2 0 R 1 0 R 1 0 R 1 0 R 1 0 R 1 0 R 1 0 R 1 0 R 1 0 R 1 0 R 1 0 R
1 0 R 2 0 R 1 0 R 1 0 R 1 0 R 1 0 R 1 0 R 1 0 R 1 0 R 1 0 R 1 0 R 1 0 R
1 0 R 2 0 R 1 0 R 1 0 R 1 0 R 1 0 R 1 0 R 1 0 R 1 0 R 1 0 R 1 0 R 1 0 R
1 0 R 2 0 R 1 0 R 1 0 R 1 0 R 1 0 R 1 0 R 1 0 R 1 0 R 1 0 R 1 0 R 1 0 R
1 0 R 2 0 R 1 0 R 1 0 R 1 0 R 1 0 R 1 0 R 1 0 R 1 0 R 1 0 R 1 0 R 1 0 R
1 0 R 2 0 R 1 0 R 1 0 R 1 0 R 1 0 R 1 0 R 1 0 R 1 0 R 1 0 R 1 0 R 1 0 R
1 0 R 2 0 R 1 0 R 1 0 R 1 0 R 1 0 R 1 0 R 1 0 R 1 0 R 1 0 R 1 0 R 1 0 R
1 0 R 2 0 R 1 0 R 1 0 R 1 0 R 1 0 R 1 0 R 1 0 R 1 0 R 1 0 R 1 0 R 1 0 R
1 0 R 2 0 R 1 0 R 1 0 R 1 0 R 1 0 R 1 0 R 1 0 R 1 0 R 1 0 R 1 0 R 1 0 R
1 0 R 2 0 R 1 0 R 1 0 R 1 0 R 1 0 R 1 0 R 1 0 R 1 0 R 1 0 R 1 0 R 1 0 R
1 0 R 2 0 R 1 0 R 1 0 R 1 0 R 1 0 R 1 0 R 1 0 R 1 0 R 1 0 R 1 0 R 1 0 R
1 0 R 2 0 R 1 0 R 1 0 R 1 0 R 1 0 R 1 0 R 1 0 R 1 0 R 1 0 R 1 0 R 1 0 R
1 0 R 2 0 R 1 0 R 1 0 R 1 0 R 1 0 R 1 0 R 1 0 R 1 0 R 1 0 R 1 0 R 1 0 R
1 0 R 2 0 R 1 0 R 1 0 R 1 0 R 1 0 R 1 0 R 1 0 R 1 0 R 1 0 R 1 0 R 1 0 R
1 0 R 2 0 R 1 0 R 1 0 R 1 0 R 1 0 R 1 0 R 1 0 R 1 0 R 1 0 R 1 0 R 1 0 R
1 0 R D 50 setlinewidth 1.000 0.392 0.000 setrgbcolor 1332 1658 M 11 0 R
23 0 R 23 0 R 22 0 R 23 1 R 22 0 R 23 0 R 22 0 R 23 0 R 23 0 R 22 0 R 23 0 R
22 0 R 23 1 R 22 0 R 23 0 R 23 0 R 22 0 R 23 0 R 22 0 R 23 1 R 22 0 R 23 0 R
23 0 R 22 0 R 23 0 R 22 0 R 23 1 R 22 0 R 23 0 R 23 0 R 22 0 R 23 0 R 22 0 R
23 0 R 22 0 R 23 1 R 23 0 R 22 0 R 23 0 R 22 0 R 23 0 R 22 0 R 23 0 R 23 0 R
22 0 R 23 0 R 22 0 R 23 0 R 22 0 R 23 0 R 23 1 R 22 0 R 23 0 R 22 0 R 23 0 R
22 0 R 23 0 R 23 0 R 22 0 R 23 0 R 22 0 R 23 0 R 22 0 R 23 0 R 23 1 R 22 0 R
23 0 R 22 0 R 23 0 R 22 0 R 23 0 R 23 0 R 22 0 R 23 0 R 22 0 R 23 0 R 22 0 R
23 0 R 23 1 R 22 0 R 23 0 R 22 0 R 23 0 R 22 0 R 23 0 R 23 0 R 22 0 R 23 1 R
22 0 R 23 0 R 22 0 R 23 0 R 23 0 R 22 0 R 23 1 R 22 0 R 23 0 R 23 0 R 22 0 R
23 0 R 22 0 R 23 0 R 22 0 R 23 0 R 23 0 R 22 0 R 23 0 R 22 0 R 23 0 R 22 0 R
23 0 R 23 0 R 22 0 R 23 0 R 22 0 R 23 0 R 22 0 R 23 0 R 23 0 R 22 0 R 23 0 R
22 1 R 23 0 R 22 0 R 23 0 R 23 1 R 22 0 R 23 1 R 22 0 R 23 1 R 22 1 R 23 1 R
23 1 R 22 2 R 23 1 R 22 2 R 23 2 R 22 2 R 23 3 R 23 3 R 22 3 R 23 3 R 22 5 R
23 4 R 22 5 R 23 5 R 23 6 R 22 7 R 23 7 R 22 8 R 23 8 R 22 9 R 23 10 R
23 10 R 22 11 R 23 11 R 22 13 R 23 13 R 22 14 R 23 15 R 23 16 R 22 17 R
23 18 R 22 19 R 23 20 R 22 22 R 23 23 R 23 24 R 22 27 R 23 28 R 22 30 R
23 32 R 22 34 R 23 36 R 23 39 R 22 41 R 23 43 R 22 46 R 23 48 R 22 50 R
23 52 R 23 54 R 22 55 R 23 58 R 22 59 R 23 60 R 22 62 R 23 62 R 23 63 R
22 63 R 23 64 R 22 63 R 23 63 R 23 61 R 22 60 R 23 59 R 22 56 R 23 55 R
22 52 R 23 49 R 23 47 R 22 44 R 23 41 R 22 38 R 23 36 R 22 33 R 23 31 R
23 29 R 22 28 R 23 27 R 22 27 R 23 25 R 22 25 R 23 25 R 23 24 R 22 25 R
23 23 R 22 23 R 23 21 R 22 20 R 23 32 R 23 16 R 22 -4 R 23 4 R 22 25 R
23 42 R 22 41 R 23 2 R 23 -88 R 22 164 R 23 12 R 22 83 R 23 210 R 22 365 R
23 515 R 23 631 R 22 680 R 23 633 R 22 457 R 23 278 R 22 206 R 23 -9 R
23 -98 R 22 -99 R 23 -50 R 22 7 R 23 32 R 22 -12 R 23 -166 R 23 -28 R
22 -65 R 23 -30 R 22 -19 R 23 -23 R 22 -39 R 23 -55 R 23 -67 R 22 -66 R
23 -74 R 22 -15 R 23 -20 R 22 -22 R 23 -24 R 23 -25 R 22 -24 R 23 -21 R
22 -15 R 23 -7 R 22 -6 R 23 -35 R 23 -31 R 22 -21 R 23 -8 R 22 3 R 23 11 R
22 14 R 23 7 R 23 7 R 22 -48 R 23 12 R 22 46 R 23 58 R 22 53 R 23 35 R
23 10 R 22 -19 R 23 -46 R 22 -60 R 23 -44 R 23 -26 R 22 -20 R 23 -21 R
22 -28 R 23 -40 R 22 -52 R 23 -63 R 23 -69 R 22 -75 R 23 -69 R 22 -53 R
23 -39 R 22 -25 R 23 -16 R 23 -7 R 22 -3 R 23 -4 R 22 -6 R 23 -7 R 22 -2 R
23 5 R 23 13 R 22 19 R 23 26 R 22 31 R 23 35 R 22 37 R 23 37 R 23 36 R
22 33 R 23 28 R 22 20 R 23 11 R 22 3 R 23 -3 R 23 -8 R 22 -8 R 23 -8 R
22 1 R 23 10 R 22 19 R 23 28 R 23 36 R 22 44 R 23 49 R 22 52 R 23 55 R
22 54 R 23 58 R 23 61 R 22 62 R 23 61 R 22 57 R 23 53 R 22 46 R 23 38 R
23 33 R 22 27 R 23 28 R 22 33 R 23 43 R 22 53 R 23 62 R 23 69 R 22 72 R
23 70 R 22 58 R 23 53 R 22 44 R 23 33 R 23 19 R 22 3 R 23 -13 R 22 -27 R
23 -42 R 22 -50 R 23 -51 R 23 -56 R 22 -57 R 23 -55 R 22 -52 R 23 -48 R
22 -43 R 23 -42 R 23 -34 R 22 -79 R 23 -61 R 22 -73 R 23 -106 R 22 -154 R
23 -206 R 23 -259 R 22 -303 R 23 -331 R 22 -314 R 23 -372 R 23 -386 R
22 -372 R 23 -337 R 22 -291 R 23 -245 R 22 -207 R 23 -185 R 23 -191 R
22 -158 R 23 -124 R 22 -104 R 23 -84 R 22 -68 R 23 -53 R 23 -42 R 22 -35 R
23 -34 R 22 -44 R 23 -18 R 22 -23 R 23 -23 R 23 -19 R 22 -14 R 23 -9 R
22 -6 R 23 -5 R 22 -12 R 23 -9 R 23 4 R 22 -2 R 23 -5 R 22 -3 R 23 -2 R
22 0 R 23 -1 R 23 -8 R 22 -24 R 23 -3 R 22 -3 R 23 -1 R 22 3 R 23 5 R 23 6 R
22 6 R 23 1 R 22 -7 R 23 -5 R 22 11 R 23 8 R 23 6 R 22 7 R 23 8 R 22 7 R
23 2 R 22 -6 R 23 -22 R 23 15 R 22 -19 R 23 -22 R 22 -24 R 23 -26 R 22 -40 R
23 -68 R 23 -117 R 22 -196 R 23 -410 R 22 53 R 23 24 R 22 7 R 23 -3 R
23 -5 R 22 -3 R 23 0 R 22 4 R 23 3 R 22 -1 R 23 -1 R 23 0 R 22 1 R 23 1 R
22 1 R 23 0 R 22 0 R 23 -1 R 23 2 R 22 0 R 23 0 R 22 0 R 23 -1 R 22 0 R
23 0 R 23 0 R 22 0 R 23 0 R 22 0 R 23 0 R 23 1 R 22 0 R 23 0 R 22 0 R 23 1 R
22 0 R 23 0 R 23 1 R 22 0 R 23 0 R 22 0 R 23 0 R 22 0 R 23 0 R 23 0 R 22 0 R
23 0 R 22 -1 R 23 0 R 22 0 R 23 0 R 23 0 R 22 0 R 23 0 R 22 0 R 23 0 R
22 1 R 23 0 R 23 1 R 22 0 R 23 0 R 22 1 R 23 0 R 22 0 R 23 0 R 23 -1 R
22 0 R 23 0 R 22 0 R 23 0 R 22 0 R 23 -1 R 23 0 R 22 0 R 23 0 R 22 0 R
23 0 R 22 0 R 23 0 R 23 0 R 22 0 R 23 0 R 22 1 R 23 0 R 22 0 R 23 0 R 23 0 R
22 0 R 23 0 R 22 0 R 23 1 R 22 0 R 23 0 R 23 0 R 22 0 R 23 0 R 22 0 R 23 0 R
22 -1 R 23 0 R 23 0 R 22 0 R 23 0 R 22 0 R 23 0 R 22 0 R 23 0 R 23 0 R
22 0 R 23 1 R 22 0 R 23 0 R 22 0 R 23 0 R 23 0 R 22 0 R 23 0 R 22 0 R 23 0 R
22 0 R 23 0 R 23 0 R 22 0 R 23 0 R 11 0 R D 1332 1658 M 11 0 R 23 0 R 23 0 R
22 0 R 23 1 R 22 0 R 23 0 R 22 0 R 23 0 R 23 0 R 22 0 R 23 0 R 22 0 R 23 1 R
22 0 R 23 0 R 23 0 R 22 0 R 23 0 R 22 0 R 23 1 R 22 0 R 23 0 R 23 0 R 22 0 R
23 0 R 22 0 R 23 1 R 22 0 R 23 0 R 23 0 R 22 0 R 23 0 R 22 0 R 23 0 R 22 0 R
23 1 R 23 0 R 22 0 R 23 0 R 22 0 R 23 0 R 22 0 R 23 0 R 23 0 R 22 0 R 23 0 R
22 0 R 23 0 R 22 0 R 23 0 R 23 1 R 22 0 R 23 0 R 22 0 R 23 0 R 22 0 R 23 0 R
23 0 R 22 0 R 23 0 R 22 0 R 23 0 R 22 0 R 23 0 R 23 1 R 22 0 R 23 0 R 22 0 R
23 0 R 22 0 R 23 0 R 23 0 R 22 0 R 23 0 R 22 0 R 23 0 R 22 0 R 23 0 R 23 1 R
22 0 R 23 0 R 22 0 R 23 0 R 22 0 R 23 0 R 23 0 R 22 0 R 23 1 R 22 0 R 23 0 R
22 0 R 23 0 R 23 0 R 22 0 R 23 1 R 22 0 R 23 0 R 23 0 R 22 0 R 23 0 R 22 0 R
23 0 R 22 0 R 23 0 R 23 0 R 22 0 R 23 0 R 22 0 R 23 0 R 22 0 R 23 0 R 23 0 R
22 0 R 23 0 R 22 0 R 23 0 R 22 0 R 23 0 R 23 0 R 22 0 R 23 0 R 22 1 R 23 0 R
22 0 R 23 0 R 23 1 R 22 0 R 23 1 R 22 0 R 23 1 R 22 1 R 23 1 R 23 1 R 22 2 R
23 1 R 22 2 R 23 2 R 22 2 R 23 3 R 23 3 R 22 3 R 23 3 R 22 5 R 23 4 R 22 5 R
23 5 R 23 6 R 22 7 R 23 7 R 22 8 R 23 8 R 22 9 R 23 10 R 23 10 R 22 11 R
23 11 R 22 13 R 23 13 R 22 14 R 23 15 R 23 16 R 22 17 R 23 18 R 22 19 R
23 20 R 22 22 R 23 23 R 23 24 R 22 27 R 23 28 R 22 30 R 23 32 R 22 34 R
23 36 R 23 39 R 22 41 R 23 43 R 22 46 R 23 48 R 22 50 R 23 52 R 23 54 R
22 55 R 23 58 R 22 59 R 23 60 R 22 62 R 23 62 R 23 63 R 22 63 R 23 64 R
22 63 R 23 63 R 23 61 R 22 60 R 23 59 R 22 56 R 23 55 R 22 52 R 23 49 R
23 47 R 22 44 R 23 41 R 22 38 R 23 36 R 22 33 R 23 31 R 23 29 R 22 28 R
23 27 R 22 27 R 23 25 R 22 25 R 23 25 R 23 24 R 22 25 R 23 23 R 22 23 R
23 21 R 22 20 R 23 32 R 23 16 R 22 -4 R 23 4 R 22 25 R 23 42 R 22 41 R
23 2 R 23 -88 R 22 164 R 23 12 R 22 83 R 23 210 R 22 365 R 23 515 R 23 631 R
22 680 R 23 633 R 22 457 R 23 278 R 22 206 R 23 -9 R 23 -98 R 22 -99 R
23 -50 R 22 7 R 23 32 R 22 -12 R 23 -166 R 23 -28 R 22 -65 R 23 -30 R
22 -19 R 23 -23 R 22 -39 R 23 -55 R 23 -67 R 22 -66 R 23 -74 R 22 -15 R
23 -20 R 22 -22 R 23 -24 R 23 -25 R 22 -24 R 23 -21 R 22 -15 R 23 -7 R
22 -6 R 23 -35 R 23 -31 R 22 -21 R 23 -8 R 22 3 R 23 11 R 22 14 R 23 7 R
23 7 R 22 -48 R 23 12 R 22 46 R 23 58 R 22 53 R 23 35 R 23 10 R 22 -19 R
23 -46 R 22 -60 R 23 -44 R 23 -26 R 22 -20 R 23 -21 R 22 -28 R 23 -40 R
22 -52 R 23 -63 R 23 -69 R 22 -75 R 23 -69 R 22 -53 R 23 -39 R 22 -25 R
23 -16 R 23 -7 R 22 -3 R 23 -4 R 22 -6 R 23 -7 R 22 -2 R 23 5 R 23 13 R
22 19 R 23 26 R 22 31 R 23 35 R 22 37 R 23 37 R 23 36 R 22 33 R 23 28 R
22 20 R 23 11 R 22 3 R 23 -3 R 23 -8 R 22 -8 R 23 -8 R 22 1 R 23 10 R
22 19 R 23 28 R 23 36 R 22 44 R 23 49 R 22 52 R 23 55 R 22 54 R 23 58 R
23 61 R 22 62 R 23 61 R 22 57 R 23 53 R 22 46 R 23 38 R 23 33 R 22 27 R
23 28 R 22 33 R 23 43 R 22 53 R 23 62 R 23 69 R 22 72 R 23 70 R 22 58 R
23 53 R 22 44 R 23 33 R 23 19 R 22 3 R 23 -13 R 22 -27 R 23 -42 R 22 -50 R
23 -51 R 23 -56 R 22 -57 R 23 -55 R 22 -52 R 23 -48 R 22 -43 R 23 -42 R
23 -34 R 22 -79 R 23 -61 R 22 -73 R 23 -106 R 22 -154 R 23 -206 R 23 -259 R
22 -303 R 23 -331 R 22 -314 R 23 -372 R 23 -386 R 22 -372 R 23 -337 R
22 -291 R 23 -245 R 22 -207 R 23 -185 R 23 -191 R 22 -158 R 23 -124 R
22 -104 R 23 -84 R 22 -68 R 23 -53 R 23 -42 R 22 -35 R 23 -34 R 22 -44 R
23 -18 R 22 -23 R 23 -23 R 23 -19 R 22 -14 R 23 -9 R 22 -6 R 23 -5 R
22 -12 R 23 -9 R 23 4 R 22 -2 R 23 -5 R 22 -3 R 23 -2 R 22 0 R 23 -1 R
23 -8 R 22 -24 R 23 -3 R 22 -3 R 23 -1 R 22 3 R 23 5 R 23 6 R 22 6 R 23 1 R
22 -7 R 23 -5 R 22 11 R 23 8 R 23 6 R 22 7 R 23 8 R 22 7 R 23 2 R 22 -6 R
23 -22 R 23 15 R 22 -19 R 23 -22 R 22 -24 R 23 -26 R 22 -40 R 23 -68 R
23 -117 R 22 -196 R 23 -410 R 22 53 R 23 24 R 22 7 R 23 -3 R 23 -5 R 22 -3 R
23 0 R 22 4 R 23 3 R 22 -1 R 23 -1 R 23 0 R 22 1 R 23 1 R 22 1 R 23 0 R
22 0 R 23 -1 R 23 2 R 22 0 R 23 0 R 22 0 R 23 -1 R 22 0 R 23 0 R 23 0 R
22 0 R 23 0 R 22 0 R 23 0 R 23 1 R 22 0 R 23 0 R 22 0 R 23 1 R 22 0 R 23 0 R
23 1 R 22 0 R 23 0 R 22 0 R 23 0 R 22 0 R 23 0 R 23 0 R 22 0 R 23 0 R
22 -1 R 23 0 R 22 0 R 23 0 R 23 0 R 22 0 R 23 0 R 22 0 R 23 0 R 22 1 R
23 0 R 23 1 R 22 0 R 23 0 R 22 1 R 23 0 R 22 0 R 23 0 R 23 -1 R 22 0 R
23 0 R 22 0 R 23 0 R 22 0 R 23 -1 R 23 0 R 22 0 R 23 0 R 22 0 R 23 0 R
22 0 R 23 0 R 23 0 R 22 0 R 23 0 R 22 1 R 23 0 R 22 0 R 23 0 R 23 0 R 22 0 R
23 0 R 22 0 R 23 1 R 22 0 R 23 0 R 23 0 R 22 0 R 23 0 R 22 0 R 23 0 R
22 -1 R 23 0 R 23 0 R 22 0 R 23 0 R 22 0 R 23 0 R 22 0 R 23 0 R 23 0 R
22 0 R 23 1 R 22 0 R 23 0 R 22 0 R 23 0 R 23 0 R 22 0 R 23 0 R 22 0 R 23 0 R
22 0 R 23 0 R 23 0 R 22 0 R 23 0 R 11 0 R D
gsave 10500 10320 translate 0 0 M
%%IncludeResource: font Times-Roman
423.333 /Times-Roman STDFONT
(Order 5) show
%%IncludeResource: font Helvetica
423.333 /Helvetica STDFONT grestore
%%PageTrailer
end
%%PageResources: font Helvetica
%%+ font Times-Italic
%%+ font Symbol
%%+ font Times-Roman
%%Trailer
%%Pages: 1
%%DocumentNeededResources: font Helvetica
%%+ font Times-Italic
%%+ font Symbol
%%+ font Times-Roman
%%EOF
