%!PS-Adobe-3.0 EPSF-3.0
%%BoundingBox: 0 0 425 340
%%Title: Graphics produced by IDL
%%For: vrs@freya01, /freya/u/vrs/Coding/gpu_testbed/idl
%%Creator: IDL Version 8.5.1 (linux x86_64 m64)
%%CreationDate: Wed Jul 20 15:10:34 2022
%%DocumentData: Clean7bit
%%Requirements: color
%%LanguageLevel: 1
%%PageOrder: Ascend
%%Pages: (atend)
%%DocumentNeededResources: (atend)
%%EndComments
%%BeginProlog
%+ prolog.ps -- Prolog for IDL generated PostScript files
%+ Copyright (c) 1988-2015 Exelis Visual Information Solutions, Inc. All Rights Reserved.
%v 5
/$IDL_DICT 40 dict def $IDL_DICT begin /bdef { bind def } bind def /C
{currentpoint newpath moveto} bdef /CP {currentpoint} bdef /D {currentpoint
stroke moveto} bdef /F {closepath fill} bdef /K { setgray } bdef /M {moveto}
bdef /N {rmoveto} bdef /P {lineto} bdef /R {rlineto} bdef /S {gsave show
grestore} bdef /X {currentpoint pop} bdef /Z {gsave currentpoint lineto 20
setlinewidth 1 setlinecap stroke grestore} bdef /L0 {[] 0 setdash} bdef /L1
{[40 100] 0 setdash} bdef /L2 {[200 200] 0 setdash} bdef /L3 {[200 100 50
100] 0 setdash} bdef /L4 {[300 100 50 100 50 100 50 100] 0 setdash} bdef /L5
{[400 200] 0 setdash} bdef /STDFONT { findfont exch scalefont setfont } bdef
/ISOFONT { findfont dup length dict begin { 1 index /FID ne {def} {pop pop}
ifelse } forall /Encoding ISOLatin1Encoding def currentdict end /idltmpfont
exch definefont exch scalefont setfont } bdef /ISOBULLET { gsave /Helvetica
findfont exch scalefont setfont (\267) show currentpoint grestore moveto}
bdef /MITERLIMIT { 2.5 setmiterlimit } bdef end
%%EndProlog
%%Page: 0 1
%%PageRequirements: color
%%PageResources: (atend)
%%PageOrientation: Portrait
%%PageBoundingBox: 0 0 425 340
%%BeginPageSetup
$IDL_DICT begin 0.0283465 dup scale MITERLIMIT
%%IncludeResource: font Helvetica
423.333 /Helvetica STDFONT
%%EndPageSetup
25 setlinewidth L0 0.000 0.000 0.000 setrgbcolor 2131 1690 M 12070 0 R D
2131 1690 M 0 284 R D gsave 2131 1056 translate 0 0 M 1.2 dup scale
-117.687 0 N
(0) show grestore 4545 1690 M 0 284 R D gsave 4545 1056 translate 0 0 M
1.2 dup scale -117.687 0 N
(2) show grestore 6959 1690 M 0 284 R D gsave 6959 1056 translate 0 0 M
1.2 dup scale -117.687 0 N
(4) show grestore 9373 1690 M 0 284 R D gsave 9373 1056 translate 0 0 M
1.2 dup scale -117.687 0 N
(6) show grestore 11787 1690 M 0 284 R D gsave 11787 1056 translate 0 0 M
1.2 dup scale -117.687 0 N
(8) show grestore 14201 1690 M 0 284 R D gsave 14201 1056 translate 0 0 M
1.2 dup scale -235.373 0 N
(10) show grestore 2735 1690 M 0 142 R D 3338 1690 M 0 142 R D 3942 1690 M
0 142 R D 5149 1690 M 0 142 R D 5752 1690 M 0 142 R D 6356 1690 M 0 142 R D
7563 1690 M 0 142 R D 8166 1690 M 0 142 R D 8770 1690 M 0 142 R D
9977 1690 M 0 142 R D 10580 1690 M 0 142 R D 11183 1690 M 0 142 R D
12390 1690 M 0 142 R D 12994 1690 M 0 142 R D 13597 1690 M 0 142 R D
gsave 8166 507 translate 0 0 M 1.2 dup scale -58.8433 0 N
%%IncludeResource: font Times-Italic
423.333 /Times-Italic STDFONT
(t) show
%%IncludeResource: font Helvetica
423.333 /Helvetica STDFONT grestore 2131 11155 M 12070 0 R D 2131 11155 M
0 -284 R D 4545 11155 M 0 -284 R D 6959 11155 M 0 -284 R D 9373 11155 M
0 -284 R D 11787 11155 M 0 -284 R D 14201 11155 M 0 -284 R D 2735 11155 M
0 -142 R D 3338 11155 M 0 -142 R D 3942 11155 M 0 -142 R D 5149 11155 M
0 -142 R D 5752 11155 M 0 -142 R D 6356 11155 M 0 -142 R D 7563 11155 M
0 -142 R D 8166 11155 M 0 -142 R D 8770 11155 M 0 -142 R D 9977 11155 M
0 -142 R D 10580 11155 M 0 -142 R D 11183 11155 M 0 -142 R D 12390 11155 M
0 -142 R D 12994 11155 M 0 -142 R D 13597 11155 M 0 -142 R D 2131 1690 M
0 9465 R D 2131 1690 M 362 0 R D gsave 1998 1690 translate 0 0 M
1.2 dup scale -823.807 0 N
(0.05) show grestore 2131 3267 M 362 0 R D gsave 1998 3098 translate 0 0 M
1.2 dup scale -823.807 0 N
(0.10) show grestore 2131 4845 M 362 0 R D gsave 1998 4676 translate 0 0 M
1.2 dup scale -823.807 0 N
(0.15) show grestore 2131 6422 M 362 0 R D gsave 1998 6254 translate 0 0 M
1.2 dup scale -823.807 0 N
(0.20) show grestore 2131 8000 M 362 0 R D gsave 1998 7831 translate 0 0 M
1.2 dup scale -823.807 0 N
(0.25) show grestore 2131 9578 M 362 0 R D gsave 1998 9409 translate 0 0 M
1.2 dup scale -823.807 0 N
(0.30) show grestore 2131 11155 M 362 0 R D gsave 1998 10860 translate 0 0 M
1.2 dup scale -823.807 0 N
(0.35) show grestore 2131 2005 M 181 0 R D 2131 2321 M 181 0 R D 2131 2636 M
181 0 R D 2131 2952 M 181 0 R D 2131 3583 M 181 0 R D 2131 3898 M 181 0 R D
2131 4214 M 181 0 R D 2131 4529 M 181 0 R D 2131 5160 M 181 0 R D
2131 5476 M 181 0 R D 2131 5791 M 181 0 R D 2131 6107 M 181 0 R D
2131 6738 M 181 0 R D 2131 7054 M 181 0 R D 2131 7369 M 181 0 R D
2131 7685 M 181 0 R D 2131 8316 M 181 0 R D 2131 8631 M 181 0 R D
2131 8947 M 181 0 R D 2131 9262 M 181 0 R D 2131 9893 M 181 0 R D
2131 10209 M 181 0 R D 2131 10524 M 181 0 R D 2131 10840 M 181 0 R D
gsave 610 6422 translate 0 0 M 90 rotate 1.2 dup scale -105.833 0 N
%%IncludeResource: font Times-Italic
423.333 /Times-Italic STDFONT
(S) show
%%IncludeResource: font Helvetica
423.333 /Helvetica STDFONT grestore 14201 1690 M 0 9465 R D 14201 1690 M
-362 0 R D 14201 3267 M -362 0 R D 14201 4845 M -362 0 R D 14201 6422 M
-362 0 R D 14201 8000 M -362 0 R D 14201 9578 M -362 0 R D 14201 11155 M
-362 0 R D 14201 2005 M -181 0 R D 14201 2321 M -181 0 R D 14201 2636 M
-181 0 R D 14201 2952 M -181 0 R D 14201 3583 M -181 0 R D 14201 3898 M
-181 0 R D 14201 4214 M -181 0 R D 14201 4529 M -181 0 R D 14201 5160 M
-181 0 R D 14201 5476 M -181 0 R D 14201 5791 M -181 0 R D 14201 6107 M
-181 0 R D 14201 6738 M -181 0 R D 14201 7054 M -181 0 R D 14201 7369 M
-181 0 R D 14201 7685 M -181 0 R D 14201 8316 M -181 0 R D 14201 8631 M
-181 0 R D 14201 8947 M -181 0 R D 14201 9262 M -181 0 R D 14201 9893 M
-181 0 R D 14201 10209 M -181 0 R D 14201 10524 M -181 0 R D 14201 10840 M
-181 0 R D 40 setlinewidth 2131 2707 M 121 3 R 121 2 R 120 3 R 121 2 R
121 3 R 120 2 R 121 3 R 121 2 R 121 3 R 120 2 R 121 3 R 121 3 R 120 3 R
121 3 R 121 5 R 120 6 R 121 8 R 121 11 R 120 16 R 121 22 R 121 29 R 121 37 R
120 46 R 121 56 R 121 68 R 120 79 R 121 91 R 121 102 R 603 683 R 121 174 R
121 183 R 120 189 R 121 193 R 121 196 R 120 193 R 121 183 R 121 176 R
121 178 R 120 189 R 121 208 R 121 225 R 120 239 R 121 240 R 121 227 R
120 210 R 121 199 R 121 192 R 120 183 R 121 165 R 121 142 R 121 121 R
120 104 R 121 89 R 121 77 R 120 71 R 121 72 R 121 75 R 120 81 R 121 86 R
121 90 R 121 86 R 120 71 R 121 52 R 121 40 R 120 34 R 121 31 R 121 30 R
120 30 R 121 32 R 121 33 R 120 33 R 121 32 R 121 30 R 121 30 R 120 28 R
121 25 R 121 23 R 120 20 R 121 18 R 121 16 R 120 16 R 121 16 R 121 16 R
121 16 R 120 15 R 121 15 R 121 15 R 120 13 R 121 13 R 121 13 R 120 11 R
121 11 R 121 10 R 120 11 R 121 11 R 120 12 R D
gsave 9000 6000 translate 0 0 M
%%IncludeResource: font Times-Roman
423.333 /Times-Roman STDFONT
(N256_K3_Re5) show
%%IncludeResource: font Helvetica
423.333 /Helvetica STDFONT grestore 15 setlinewidth
1.000 0.392 0.000 setrgbcolor 2242 2688 M -2 22 R -7 21 R -11 20 R -14 17 R
-18 14 R -20 10 R -22 5 R -17 1 R D 2131 2577 M 17 1 R 22 6 R 20 9 R 18 14 R
14 17 R 11 20 R 7 21 R 2 23 R D 2842 2702 M -3 22 R -6 22 R -11 19 R
-15 17 R -18 14 R -20 10 R -22 6 R -22 1 R -22 -4 R -21 -8 R -19 -11 R
-17 -16 R -12 -18 R -9 -21 R -5 -22 R 0 -22 R 5 -22 R 9 -21 R 12 -18 R
17 -16 R 19 -12 R 21 -8 R 22 -3 R 22 1 R 22 6 R 20 10 R 18 13 R 15 17 R
11 20 R 6 21 R 3 23 R D 3450 2716 M -2 22 R -7 22 R -11 19 R -14 17 R
-18 14 R -20 10 R -22 6 R -22 1 R -22 -4 R -22 -7 R -19 -12 R -16 -16 R
-13 -18 R -9 -21 R -4 -22 R 0 -22 R 4 -22 R 9 -21 R 13 -18 R 16 -16 R
19 -12 R 22 -8 R 22 -3 R 22 1 R 22 6 R 20 10 R 18 13 R 14 18 R 11 19 R
7 22 R 2 22 R D 4050 2716 M -3 22 R -6 22 R -11 19 R -15 17 R -18 14 R
-20 10 R -21 6 R -23 1 R -22 -4 R -21 -7 R -19 -12 R -17 -16 R -12 -18 R
-9 -21 R -5 -22 R 0 -22 R 5 -22 R 9 -21 R 12 -18 R 17 -16 R 19 -12 R 21 -8 R
22 -3 R 23 1 R 21 6 R 20 10 R 18 13 R 15 18 R 11 19 R 6 22 R 3 22 R D
4668 2787 M -2 22 R -7 21 R -11 20 R -15 17 R -17 14 R -21 10 R -21 5 R
-23 1 R -22 -3 R -21 -8 R -19 -12 R -16 -15 R -13 -19 R -9 -20 R -5 -22 R
0 -23 R 5 -22 R 9 -20 R 13 -19 R 16 -15 R 19 -12 R 21 -8 R 22 -3 R 23 1 R
21 6 R 21 9 R 17 14 R 15 17 R 11 20 R 7 21 R 2 23 R D 5267 3027 M -2 22 R
-7 22 R -11 19 R -14 17 R -18 14 R -20 10 R -22 6 R -22 1 R -23 -4 R
-21 -7 R -19 -12 R -16 -16 R -13 -18 R -9 -21 R -4 -22 R 0 -22 R 4 -22 R
9 -21 R 13 -18 R 16 -16 R 19 -12 R 21 -8 R 23 -3 R 22 1 R 22 6 R 20 10 R
18 13 R 14 18 R 11 19 R 7 22 R 2 22 R D 5857 3536 M -2 22 R -7 22 R -11 19 R
-14 17 R -18 14 R -20 10 R -22 6 R -22 1 R -23 -4 R -21 -7 R -19 -12 R
-16 -16 R -13 -18 R -9 -21 R -4 -22 R 0 -22 R 4 -22 R 9 -21 R 13 -18 R
16 -16 R 19 -12 R 21 -8 R 23 -3 R 22 1 R 22 6 R 20 10 R 18 13 R 14 17 R
11 20 R 7 22 R 2 22 R D 6466 4342 M -2 22 R -7 21 R -11 20 R -15 17 R
-17 14 R -21 10 R -21 5 R -23 1 R -22 -3 R -21 -8 R -19 -12 R -16 -15 R
-13 -19 R -9 -20 R -5 -22 R 0 -23 R 5 -22 R 9 -20 R 13 -19 R 16 -15 R
19 -12 R 21 -8 R 22 -3 R 23 1 R 21 6 R 21 9 R 17 14 R 15 17 R 11 20 R 7 21 R
2 23 R D 7084 5303 M -2 22 R -7 22 R -11 19 R -15 17 R -17 14 R -20 10 R
-22 6 R -23 1 R -22 -4 R -21 -7 R -19 -12 R -16 -16 R -13 -18 R -9 -21 R
-4 -22 R 0 -22 R 4 -22 R 9 -21 R 13 -18 R 16 -16 R 19 -12 R 21 -8 R 22 -3 R
23 1 R 22 6 R 20 10 R 17 13 R 15 17 R 11 20 R 7 22 R 2 22 R D 7665 6264 M
-3 22 R -6 22 R -11 20 R -15 17 R -18 13 R -20 10 R -22 6 R -22 1 R -22 -3 R
-21 -8 R -19 -12 R -17 -16 R -12 -18 R -9 -21 R -5 -22 R 0 -22 R 5 -22 R
9 -21 R 12 -18 R 17 -16 R 19 -12 R 21 -7 R 22 -4 R 22 1 R 22 6 R 20 10 R
18 14 R 15 17 R 11 19 R 6 22 R 3 22 R D 8283 7381 M -3 22 R -6 22 R -11 19 R
-15 17 R -18 14 R -20 10 R -21 6 R -23 1 R -22 -4 R -21 -7 R -19 -12 R
-17 -16 R -12 -18 R -9 -21 R -5 -22 R 0 -22 R 5 -22 R 9 -21 R 12 -18 R
17 -16 R 19 -12 R 21 -8 R 22 -3 R 23 1 R 21 6 R 20 10 R 18 13 R 15 17 R
11 20 R 6 22 R 3 22 R D 8882 8201 M -2 22 R -7 22 R -11 19 R -14 17 R
-18 14 R -20 10 R -22 6 R -23 1 R -22 -4 R -21 -8 R -19 -11 R -16 -16 R
-13 -18 R -9 -21 R -4 -22 R 0 -22 R 4 -22 R 9 -21 R 13 -19 R 16 -15 R
19 -12 R 21 -8 R 22 -3 R 23 1 R 22 6 R 20 10 R 18 13 R 14 17 R 11 20 R
7 21 R 2 23 R D 9500 8597 M -2 22 R -7 21 R -11 20 R -14 17 R -18 14 R
-20 10 R -22 5 R -22 1 R -23 -3 R -21 -8 R -19 -12 R -16 -15 R -13 -19 R
-9 -20 R -4 -22 R 0 -23 R 4 -22 R 9 -20 R 13 -19 R 16 -15 R 19 -12 R 21 -8 R
23 -3 R 22 1 R 22 6 R 20 9 R 18 14 R 14 17 R 11 20 R 7 21 R 2 23 R D
10100 9021 M -3 22 R -6 21 R -11 20 R -15 17 R -18 14 R -20 10 R -22 5 R
-22 2 R -22 -4 R -21 -8 R -19 -12 R -17 -15 R -13 -18 R -8 -21 R -5 -22 R
0 -23 R 5 -22 R 8 -20 R 13 -19 R 17 -15 R 19 -12 R 21 -8 R 22 -3 R 22 1 R
22 6 R 20 9 R 18 14 R 15 17 R 11 20 R 6 21 R 3 23 R D 10699 9233 M -2 22 R
-7 22 R -11 19 R -15 17 R -17 14 R -21 10 R -21 5 R -23 2 R -22 -4 R
-21 -8 R -19 -11 R -16 -16 R -13 -18 R -9 -21 R -5 -22 R 0 -22 R 5 -22 R
9 -21 R 13 -19 R 16 -15 R 19 -12 R 21 -8 R 22 -3 R 23 1 R 21 6 R 21 10 R
17 13 R 15 17 R 11 20 R 7 21 R 2 23 R D 11308 9402 M -3 23 R -6 21 R
-11 20 R -15 17 R -18 14 R -20 9 R -22 6 R -22 1 R -22 -3 R -21 -8 R
-19 -12 R -17 -15 R -12 -19 R -9 -20 R -5 -22 R 0 -23 R 5 -22 R 9 -20 R
12 -19 R 17 -15 R 19 -12 R 21 -8 R 22 -3 R 22 1 R 22 5 R 20 10 R 18 14 R
15 17 R 11 20 R 6 21 R 3 22 R D 11907 9544 M -2 22 R -7 22 R -11 19 R
-15 17 R -17 14 R -21 10 R -21 5 R -23 2 R -22 -4 R -21 -8 R -19 -11 R
-16 -16 R -13 -18 R -9 -21 R -4 -22 R 0 -22 R 4 -22 R 9 -21 R 13 -19 R
16 -15 R 19 -12 R 21 -8 R 22 -3 R 23 1 R 21 6 R 21 10 R 17 13 R 15 17 R
11 20 R 7 21 R 2 23 R D 12516 9643 M -3 22 R -6 21 R -11 20 R -15 17 R
-18 14 R -20 10 R -22 5 R -22 2 R -22 -4 R -21 -8 R -19 -12 R -17 -15 R
-12 -18 R -9 -21 R -5 -22 R 0 -23 R 5 -22 R 9 -20 R 12 -19 R 17 -15 R
19 -12 R 21 -8 R 22 -3 R 22 1 R 22 6 R 20 9 R 18 14 R 15 17 R 11 20 R 6 21 R
3 23 R D 13124 9713 M -2 23 R -7 21 R -11 20 R -14 17 R -18 14 R -20 9 R
-22 6 R -22 1 R -22 -3 R -21 -8 R -20 -12 R -16 -15 R -13 -19 R -9 -20 R
-4 -22 R 0 -23 R 4 -22 R 9 -21 R 13 -18 R 16 -15 R 20 -12 R 21 -8 R 22 -3 R
22 1 R 22 5 R 20 10 R 18 14 R 14 17 R 11 20 R 7 21 R 2 22 R D 13733 9784 M
-2 22 R -7 22 R -11 19 R -14 18 R -18 13 R -20 10 R -22 6 R -23 1 R -22 -3 R
-21 -8 R -19 -12 R -16 -16 R -13 -18 R -9 -21 R -4 -22 R 0 -22 R 4 -22 R
9 -21 R 13 -18 R 16 -16 R 19 -12 R 21 -7 R 22 -4 R 23 1 R 22 6 R 20 10 R
18 14 R 14 17 R 11 19 R 7 22 R 2 22 R D 14200 9950 M -3 1 R -22 -3 R
-21 -8 R -19 -12 R -16 -15 R -13 -19 R -9 -20 R -5 -22 R 0 -23 R 5 -22 R
9 -20 R 13 -19 R 16 -15 R 19 -12 R 21 -8 R 22 -3 R 3 0 R D
gsave 9000 4800 translate 0 0 M
%%IncludeResource: font Times-Roman
423.333 /Times-Roman STDFONT
(Lecoanet et al. \(2016\)) show
%%IncludeResource: font Helvetica
423.333 /Helvetica STDFONT grestore
%%PageTrailer
end
%%PageResources: font Helvetica
%%+ font Times-Italic
%%+ font Times-Roman
%%Trailer
%%Pages: 1
%%DocumentNeededResources: font Helvetica
%%+ font Times-Italic
%%+ font Times-Roman
%%EOF
