%!PS-Adobe-3.0 EPSF-3.0
%%BoundingBox: 0 0 340 226
%%Title: Graphics produced by IDL
%%For: vrs@freya01, /freya/u/vrs/Coding/gpu_testbed/idl
%%Creator: IDL Version 8.5.1 (linux x86_64 m64)
%%CreationDate: Sun Jul  3 21:50:05 2022
%%DocumentData: Clean7bit
%%Requirements: color
%%LanguageLevel: 1
%%PageOrder: Ascend
%%Pages: (atend)
%%DocumentNeededResources: (atend)
%%EndComments
%%BeginProlog
%+ prolog.ps -- Prolog for IDL generated PostScript files
%+ Copyright (c) 1988-2015 Exelis Visual Information Solutions, Inc. All Rights Reserved.
%v 5
/$IDL_DICT 40 dict def $IDL_DICT begin /bdef { bind def } bind def /C
{currentpoint newpath moveto} bdef /CP {currentpoint} bdef /D {currentpoint
stroke moveto} bdef /F {closepath fill} bdef /K { setgray } bdef /M {moveto}
bdef /N {rmoveto} bdef /P {lineto} bdef /R {rlineto} bdef /S {gsave show
grestore} bdef /X {currentpoint pop} bdef /Z {gsave currentpoint lineto 20
setlinewidth 1 setlinecap stroke grestore} bdef /L0 {[] 0 setdash} bdef /L1
{[40 100] 0 setdash} bdef /L2 {[200 200] 0 setdash} bdef /L3 {[200 100 50
100] 0 setdash} bdef /L4 {[300 100 50 100 50 100 50 100] 0 setdash} bdef /L5
{[400 200] 0 setdash} bdef /STDFONT { findfont exch scalefont setfont } bdef
/ISOFONT { findfont dup length dict begin { 1 index /FID ne {def} {pop pop}
ifelse } forall /Encoding ISOLatin1Encoding def currentdict end /idltmpfont
exch definefont exch scalefont setfont } bdef /ISOBULLET { gsave /Helvetica
findfont exch scalefont setfont (\267) show currentpoint grestore moveto}
bdef /MITERLIMIT { 2.5 setmiterlimit } bdef end
%%EndProlog
%%Page: 0 1
%%PageRequirements: color
%%PageResources: (atend)
%%PageOrientation: Portrait
%%PageBoundingBox: 0 0 340 226
%%BeginPageSetup
$IDL_DICT begin 0.0283465 dup scale MITERLIMIT
%%IncludeResource: font Helvetica
423.333 /Helvetica STDFONT
%%EndPageSetup
25 setlinewidth L0 0.000 0.000 0.000 setrgbcolor 2131 1690 M 9070 0 R D
2131 1690 M 0 164 R D gsave 2131 1056 translate 0 0 M 1.2 dup scale
-117.687 0 N
(0) show grestore 3780 1690 M 0 164 R D gsave 3780 1056 translate 0 0 M
1.2 dup scale -117.687 0 N
(2) show grestore 5429 1690 M 0 164 R D gsave 5429 1056 translate 0 0 M
1.2 dup scale -117.687 0 N
(4) show grestore 7078 1690 M 0 164 R D gsave 7078 1056 translate 0 0 M
1.2 dup scale -117.687 0 N
(6) show grestore 8727 1690 M 0 164 R D gsave 8727 1056 translate 0 0 M
1.2 dup scale -117.687 0 N
(8) show grestore 10376 1690 M 0 164 R D gsave 10376 1056 translate 0 0 M
1.2 dup scale -235.373 0 N
(10) show grestore 2544 1690 M 0 82 R D 2956 1690 M 0 82 R D 3368 1690 M
0 82 R D 4193 1690 M 0 82 R D 4605 1690 M 0 82 R D 5017 1690 M 0 82 R D
5842 1690 M 0 82 R D 6254 1690 M 0 82 R D 6666 1690 M 0 82 R D 7491 1690 M
0 82 R D 7903 1690 M 0 82 R D 8315 1690 M 0 82 R D 9140 1690 M 0 82 R D
9552 1690 M 0 82 R D 9964 1690 M 0 82 R D 10789 1690 M 0 82 R D 11201 1690 M
0 82 R D gsave 6666 507 translate 0 0 M 1.2 dup scale -105.833 0 N
%%IncludeResource: font Times-Italic
423.333 /Times-Italic STDFONT
(p) show
%%IncludeResource: font Helvetica
423.333 /Helvetica STDFONT grestore 2131 7155 M 9070 0 R D 2131 7155 M
0 -164 R D 3780 7155 M 0 -164 R D 5429 7155 M 0 -164 R D 7078 7155 M
0 -164 R D 8727 7155 M 0 -164 R D 10376 7155 M 0 -164 R D 2544 7155 M
0 -82 R D 2956 7155 M 0 -82 R D 3368 7155 M 0 -82 R D 4193 7155 M 0 -82 R D
4605 7155 M 0 -82 R D 5017 7155 M 0 -82 R D 5842 7155 M 0 -82 R D
6254 7155 M 0 -82 R D 6666 7155 M 0 -82 R D 7491 7155 M 0 -82 R D
7903 7155 M 0 -82 R D 8315 7155 M 0 -82 R D 9140 7155 M 0 -82 R D
9552 7155 M 0 -82 R D 9964 7155 M 0 -82 R D 10789 7155 M 0 -82 R D
11201 7155 M 0 -82 R D 2131 1690 M 0 5465 R D 2131 1690 M 272 0 R D
gsave 1998 1690 translate 0 0 M 1.2 dup scale -704.08 0 N
(10) show X 192.937 M
%%IncludeResource: font Helvetica
262.467 /Helvetica STDFONT
(-7) show grestore
%%IncludeResource: font Helvetica
423.333 /Helvetica STDFONT 2131 2518 M 272 0 R D
gsave 1998 2349 translate 0 0 M 1.2 dup scale -704.08 0 N
(10) show X 192.937 M
%%IncludeResource: font Helvetica
262.467 /Helvetica STDFONT
(-6) show grestore
%%IncludeResource: font Helvetica
423.333 /Helvetica STDFONT 2131 3345 M 272 0 R D
gsave 1998 3176 translate 0 0 M 1.2 dup scale -704.08 0 N
(10) show X 192.937 M
%%IncludeResource: font Helvetica
262.467 /Helvetica STDFONT
(-5) show grestore
%%IncludeResource: font Helvetica
423.333 /Helvetica STDFONT 2131 4173 M 272 0 R D
gsave 1998 4004 translate 0 0 M 1.2 dup scale -704.08 0 N
(10) show X 192.937 M
%%IncludeResource: font Helvetica
262.467 /Helvetica STDFONT
(-4) show grestore
%%IncludeResource: font Helvetica
423.333 /Helvetica STDFONT 2131 5001 M 272 0 R D
gsave 1998 4832 translate 0 0 M 1.2 dup scale -704.08 0 N
(10) show X 192.937 M
%%IncludeResource: font Helvetica
262.467 /Helvetica STDFONT
(-3) show grestore
%%IncludeResource: font Helvetica
423.333 /Helvetica STDFONT 2131 5829 M 272 0 R D
gsave 1998 5660 translate 0 0 M 1.2 dup scale -704.08 0 N
(10) show X 192.937 M
%%IncludeResource: font Helvetica
262.467 /Helvetica STDFONT
(-2) show grestore
%%IncludeResource: font Helvetica
423.333 /Helvetica STDFONT 2131 6657 M 272 0 R D
gsave 1998 6488 translate 0 0 M 1.2 dup scale -704.08 0 N
(10) show X 192.937 M
%%IncludeResource: font Helvetica
262.467 /Helvetica STDFONT
(-1) show grestore
%%IncludeResource: font Helvetica
423.333 /Helvetica STDFONT gsave 754 4422 translate 0 0 M 90 rotate
1.2 dup scale -235.162 0 N
%%IncludeResource: font Times-Roman
423.333 /Times-Roman STDFONT
(L1) show
%%IncludeResource: font Helvetica
423.333 /Helvetica STDFONT grestore 11201 1690 M 0 5465 R D 11201 1690 M
-272 0 R D 11201 2518 M -272 0 R D 11201 3345 M -272 0 R D 11201 4173 M
-272 0 R D 11201 5001 M -272 0 R D 11201 5829 M -272 0 R D 11201 6657 M
-272 0 R D 30 setlinewidth 1.000 1.000 1.000 setrgbcolor 2956 6823 M
154 -32 R 155 -30 R 155 -26 R 154 -23 R 155 -19 R 154 -18 R 155 -17 R
155 -16 R 154 -12 R 155 -11 R 154 -10 R 155 -10 R 155 -10 R 154 -9 R
155 -10 R 154 -8 R D L1 2956 6482 M 154 -62 R 155 -52 R 155 -44 R 154 -22 R
155 -13 R 154 -8 R 155 -8 R 155 -8 R 154 -10 R 155 -7 R 154 -6 R 155 -6 R
155 -4 R 154 -5 R 155 -6 R 154 -8 R D L2 2956 6066 M 154 -25 R 155 -24 R
155 -23 R 154 -25 R 155 -28 R 154 -30 R 155 -34 R 155 -32 R 154 -31 R
155 -32 R 154 -30 R 155 -31 R 155 -30 R 154 -30 R 155 -29 R 154 -30 R D L3
2956 5733 M 154 3 R 155 -40 R 155 -53 R 154 -47 R 155 -50 R 154 -47 R
155 -47 R 155 -43 R 154 -37 R 155 -36 R 154 -32 R 155 -30 R 155 -25 R
154 -19 R 155 -15 R 154 -12 R D L4 2956 5099 M 154 156 R 155 -48 R 155 -52 R
154 -64 R 155 -64 R 154 -54 R 155 -44 R 155 -39 R 154 -38 R 155 -36 R
154 -37 R 155 -38 R 155 -38 R 154 -36 R 155 -32 R 154 -29 R D L5 2956 4796 M
154 128 R 155 -6 R 155 2 R 154 -13 R 155 -31 R 154 -44 R 155 -51 R 155 -50 R
154 -47 R 155 -43 R 154 -39 R 155 -36 R 155 -32 R 154 -27 R 155 -24 R
154 -24 R D L0 2956 4188 M 154 288 R D L0 3110 4476 M 155 2 R D L0
3265 4478 M 155 -48 R D L0 3420 4430 M 154 -71 R D L0 3574 4359 M 155 -82 R
D L0 3729 4277 M 154 -81 R D L0 3883 4196 M 155 -73 R D L0 4038 4123 M
155 -64 R D L0 4193 4059 M 154 -57 R D L0 4347 4002 M 155 -50 R D L0
4502 3952 M 154 -46 R D L0 4656 3906 M 155 -40 R D L0 4811 3866 M 155 -38 R
D L0 4966 3828 M 154 -34 R D L0 5120 3794 M 155 -33 R D L0 5275 3761 M
154 -30 R D L0 2956 3714 M 154 263 R D L0 3110 3977 M 155 36 R D L0
3265 4013 M 155 -21 R D L0 3420 3992 M 154 -38 R D L0 3574 3954 M 155 -45 R
D L0 3729 3909 M 154 -49 R D L0 3883 3860 M 155 -48 R D L0 4038 3812 M
155 -42 R D L0 4193 3770 M 154 -37 R D L0 4347 3733 M 155 -32 R D L0
4502 3701 M 154 -30 R D L0 4656 3671 M 155 -26 R D L0 4811 3645 M 155 -25 R
D L0 4966 3620 M 154 -24 R D L0 5120 3596 M 155 -21 R D L0 5275 3575 M
154 -19 R D L0 2956 3161 M 154 435 R D L0 3110 3596 M 155 -25 R D L0
3265 3571 M 155 -80 R D L0 3420 3491 M 154 -91 R D L0 3574 3400 M 155 -89 R
D L0 3729 3311 M 154 -79 R D L0 3883 3232 M 155 -69 R D L0 4038 3163 M
155 -61 R D L0 4193 3102 M 154 -53 R D L0 4347 3049 M 155 -48 R D L0
4502 3001 M 154 -44 R D L0 4656 2957 M 155 -41 R D L0 4811 2916 M 155 -39 R
D L0 4966 2877 M 154 -35 R D L0 5120 2842 M 155 -34 R D L0 5275 2808 M
154 -32 R D L0 2956 2548 M 154 286 R D L0 3110 2834 M 155 72 R D L0
3265 2906 M 155 -14 R D L0 3420 2892 M 154 -57 R D L0 3574 2835 M 155 -64 R
D L0 3729 2771 M 154 -54 R D L0 3883 2717 M 155 -48 R D L0 4038 2669 M
155 -42 R D L0 4193 2627 M 154 -35 R D L0 4347 2592 M 155 -30 R D L0
4502 2562 M 154 -27 R D L0 4656 2535 M 155 -24 R D L0 4811 2511 M 155 -22 R
D L0 4966 2489 M 154 -21 R D L0 5120 2468 M 155 -18 R D L0 5275 2450 M
154 -17 R D 0.529 0.000 0.078 setrgbcolor 2956 6673 M 111 -111 R -111 -111 R
-111 111 R 111 111 R D 3780 6324 M 111 -111 R -111 -111 R -111 111 R
111 111 R D 4605 5713 M 111 -111 R -111 -111 R -111 111 R 111 111 R D
5429 5314 M 111 -111 R -111 -111 R -111 111 R 111 111 R D 6254 4717 M
111 -111 R -111 -111 R -111 111 R 111 111 R D 7078 4570 M 111 -111 R
-111 -111 R -111 111 R 111 111 R D 7903 3842 M 111 -111 R -111 -111 R
-111 111 R 111 111 R D 8727 3667 M 111 -111 R -111 -111 R -111 111 R
111 111 R D 9552 2887 M 111 -111 R -111 -111 R -111 111 R 111 111 R D
10376 2544 M 111 -111 R -111 -111 R -111 111 R 111 111 R D L0 2956 6562 M
824 -349 R D L0 3780 6213 M 825 -611 R D L0 4605 5602 M 824 -399 R D L0
5429 5203 M 825 -597 R D L0 6254 4606 M 824 -147 R D L0 7078 4459 M
825 -728 R D L0 7903 3731 M 824 -175 R D L0 8727 3556 M 825 -780 R D L0
9552 2776 M 824 -343 R D 25 setlinewidth 0.608 0.000 0.118 setrgbcolor
2131 7048 M 9069 -5068 R D
%%PageTrailer
end
%%PageResources: font Helvetica
%%+ font Times-Italic
%%+ font Times-Roman
%%Trailer
%%Pages: 1
%%DocumentNeededResources: font Helvetica
%%+ font Times-Italic
%%+ font Times-Roman
%%EOF
