%!PS-Adobe-3.0 EPSF-3.0
%%BoundingBox: 0 0 340 453
%%Title: Graphics produced by IDL
%%For: vrs@freya01, /freya/u/vrs/Coding/gpu_testbed/idl
%%Creator: IDL Version 8.5.1 (linux x86_64 m64)
%%CreationDate: Sun Jul  3 21:44:20 2022
%%DocumentData: Clean7bit
%%Requirements: color
%%LanguageLevel: 1
%%PageOrder: Ascend
%%Pages: (atend)
%%DocumentNeededResources: (atend)
%%EndComments
%%BeginProlog
%+ prolog.ps -- Prolog for IDL generated PostScript files
%+ Copyright (c) 1988-2015 Exelis Visual Information Solutions, Inc. All Rights Reserved.
%v 5
/$IDL_DICT 40 dict def $IDL_DICT begin /bdef { bind def } bind def /C
{currentpoint newpath moveto} bdef /CP {currentpoint} bdef /D {currentpoint
stroke moveto} bdef /F {closepath fill} bdef /K { setgray } bdef /M {moveto}
bdef /N {rmoveto} bdef /P {lineto} bdef /R {rlineto} bdef /S {gsave show
grestore} bdef /X {currentpoint pop} bdef /Z {gsave currentpoint lineto 20
setlinewidth 1 setlinecap stroke grestore} bdef /L0 {[] 0 setdash} bdef /L1
{[40 100] 0 setdash} bdef /L2 {[200 200] 0 setdash} bdef /L3 {[200 100 50
100] 0 setdash} bdef /L4 {[300 100 50 100 50 100 50 100] 0 setdash} bdef /L5
{[400 200] 0 setdash} bdef /STDFONT { findfont exch scalefont setfont } bdef
/ISOFONT { findfont dup length dict begin { 1 index /FID ne {def} {pop pop}
ifelse } forall /Encoding ISOLatin1Encoding def currentdict end /idltmpfont
exch definefont exch scalefont setfont } bdef /ISOBULLET { gsave /Helvetica
findfont exch scalefont setfont (\267) show currentpoint grestore moveto}
bdef /MITERLIMIT { 2.5 setmiterlimit } bdef end
%%EndProlog
%%Page: 0 1
%%PageRequirements: color
%%PageResources: (atend)
%%PageOrientation: Portrait
%%PageBoundingBox: 0 0 340 453
%%BeginPageSetup
$IDL_DICT begin 0.0283465 dup scale MITERLIMIT
%%IncludeResource: font Helvetica
423.333 /Helvetica STDFONT
%%EndPageSetup
25 setlinewidth L0 0.000 0.000 0.000 setrgbcolor 2131 1690 M 9070 0 R D
4502 1690 M 0 404 R D gsave 4502 1056 translate 0 0 M 1.2 dup scale
-235.373 0 N
(10) show grestore 9037 1690 M 0 404 R D gsave 9037 1056 translate 0 0 M
1.2 dup scale -353.06 0 N
(100) show grestore 2131 1690 M 0 202 R D 2698 1690 M 0 202 R D 3137 1690 M
0 202 R D 3496 1690 M 0 202 R D 3800 1690 M 0 202 R D 4063 1690 M 0 202 R D
4295 1690 M 0 202 R D 5868 1690 M 0 202 R D 6666 1690 M 0 202 R D
7233 1690 M 0 202 R D 7672 1690 M 0 202 R D 8031 1690 M 0 202 R D
8335 1690 M 0 202 R D 8598 1690 M 0 202 R D 8830 1690 M 0 202 R D
10402 1690 M 0 202 R D 11201 1690 M 0 202 R D gsave 6666 507 translate 0 0 M
1.2 dup scale -381.732 0 N
%%IncludeResource: font Times-Italic
423.333 /Times-Italic STDFONT
(N) show X -97.4878 M
%%IncludeResource: font Times-Roman
262.467 /Times-Roman STDFONT
(cells) show
%%IncludeResource: font Helvetica
262.467 /Helvetica STDFONT grestore
%%IncludeResource: font Helvetica
423.333 /Helvetica STDFONT 2131 15155 M 9070 0 R D 4502 15155 M 0 -404 R D
9037 15155 M 0 -404 R D 2131 15155 M 0 -202 R D 2698 15155 M 0 -202 R D
3137 15155 M 0 -202 R D 3496 15155 M 0 -202 R D 3800 15155 M 0 -202 R D
4063 15155 M 0 -202 R D 4295 15155 M 0 -202 R D 5868 15155 M 0 -202 R D
6666 15155 M 0 -202 R D 7233 15155 M 0 -202 R D 7672 15155 M 0 -202 R D
8031 15155 M 0 -202 R D 8335 15155 M 0 -202 R D 8598 15155 M 0 -202 R D
8830 15155 M 0 -202 R D 10402 15155 M 0 -202 R D 11201 15155 M 0 -202 R D
2131 1690 M 0 13465 R D 2131 1690 M 272 0 R D
gsave 1998 1690 translate 0 0 M 1.2 dup scale -850.011 0 N
(10) show X 192.937 M
%%IncludeResource: font Helvetica
262.467 /Helvetica STDFONT
(-10) show grestore
%%IncludeResource: font Helvetica
423.333 /Helvetica STDFONT 2131 4682 M 272 0 R D
gsave 1998 4513 translate 0 0 M 1.2 dup scale -704.08 0 N
(10) show X 192.937 M
%%IncludeResource: font Helvetica
262.467 /Helvetica STDFONT
(-8) show grestore
%%IncludeResource: font Helvetica
423.333 /Helvetica STDFONT 2131 7674 M 272 0 R D
gsave 1998 7505 translate 0 0 M 1.2 dup scale -704.08 0 N
(10) show X 192.937 M
%%IncludeResource: font Helvetica
262.467 /Helvetica STDFONT
(-6) show grestore
%%IncludeResource: font Helvetica
423.333 /Helvetica STDFONT 2131 10667 M 272 0 R D
gsave 1998 10498 translate 0 0 M 1.2 dup scale -704.08 0 N
(10) show X 192.937 M
%%IncludeResource: font Helvetica
262.467 /Helvetica STDFONT
(-4) show grestore
%%IncludeResource: font Helvetica
423.333 /Helvetica STDFONT 2131 13659 M 272 0 R D
gsave 1998 13490 translate 0 0 M 1.2 dup scale -704.08 0 N
(10) show X 192.937 M
%%IncludeResource: font Helvetica
262.467 /Helvetica STDFONT
(-2) show grestore
%%IncludeResource: font Helvetica
423.333 /Helvetica STDFONT 2131 3186 M 136 0 R D 2131 6178 M 136 0 R D
2131 9171 M 136 0 R D 2131 12163 M 136 0 R D 2131 15155 M 136 0 R D
gsave 578 8422 translate 0 0 M 90 rotate 1.2 dup scale -235.162 0 N
%%IncludeResource: font Times-Roman
423.333 /Times-Roman STDFONT
(L1) show
%%IncludeResource: font Helvetica
423.333 /Helvetica STDFONT grestore 11201 1690 M 0 13465 R D 11201 1690 M
-272 0 R D 11201 4682 M -272 0 R D 11201 7674 M -272 0 R D 11201 10667 M
-272 0 R D 11201 13659 M -272 0 R D 11201 3186 M -136 0 R D 11201 6178 M
-136 0 R D 11201 9171 M -136 0 R D 11201 12163 M -136 0 R D 11201 15155 M
-136 0 R D 30 setlinewidth 0.451 0.000 0.039 setrgbcolor 4063 15096 M
111 -111 R -111 -111 R -111 111 R 111 111 R D 5428 14625 M 111 -111 R
-111 -111 R -111 111 R 111 111 R D 6793 14159 M 111 -111 R -111 -111 R
-111 111 R 111 111 R D 8158 13704 M 111 -111 R -111 -111 R -111 111 R
111 111 R D 9523 13253 M 111 -111 R -111 -111 R -111 111 R 111 111 R D
4063 14985 M 1365 -471 R 1365 -466 R 1365 -455 R 1365 -451 R D
25 setlinewidth 3537 15155 M 7663 -2586 R D 0.000 0.000 0.000 setrgbcolor
gsave 8366 12725 translate 0 0 M
%%IncludeResource: font Times-Italic
423.333 /Times-Italic STDFONT
(p) show
%%IncludeResource: font Times-Roman
423.333 /Times-Roman STDFONT
( = 1) show
%%IncludeResource: font Helvetica
423.333 /Helvetica STDFONT grestore 30 setlinewidth
0.529 0.000 0.078 setrgbcolor 4063 14465 M 111 -111 R -111 -111 R -111 111 R
111 111 R D 5428 13665 M 111 -111 R -111 -111 R -111 111 R 111 111 R D
6793 12765 M 111 -111 R -111 -111 R -111 111 R 111 111 R D 8158 11865 M
111 -111 R -111 -111 R -111 111 R 111 111 R D 9523 10964 M 111 -111 R
-111 -111 R -111 111 R 111 111 R D L1 4063 14354 M 1365 -800 R 1365 -900 R
1365 -900 R 1365 -901 R D 25 setlinewidth L0 2883 15155 M 8317 -5363 R D
0.000 0.000 0.000 setrgbcolor gsave 8366 10436 translate 0 0 M
%%IncludeResource: font Times-Italic
423.333 /Times-Italic STDFONT
(p) show
%%IncludeResource: font Times-Roman
423.333 /Times-Roman STDFONT
( = 2) show
%%IncludeResource: font Helvetica
423.333 /Helvetica STDFONT grestore 30 setlinewidth
0.608 0.000 0.118 setrgbcolor 4063 13360 M 111 -111 R -111 -111 R -111 111 R
111 111 R D 5428 11891 M 111 -111 R -111 -111 R -111 111 R 111 111 R D
6793 10529 M 111 -111 R -111 -111 R -111 111 R 111 111 R D 8158 9228 M
111 -111 R -111 -111 R -111 111 R 111 111 R D 9523 8025 M 111 -111 R
-111 -111 R -111 111 R 111 111 R D L2 4063 13249 M 1365 -1469 R 1365 -1362 R
1365 -1301 R 1365 -1203 R D 25 setlinewidth L0 2131 15049 M 9069 -8858 R D
0.000 0.000 0.000 setrgbcolor gsave 8366 7497 translate 0 0 M
%%IncludeResource: font Times-Italic
423.333 /Times-Italic STDFONT
(p) show
%%IncludeResource: font Times-Roman
423.333 /Times-Roman STDFONT
( = 3) show
%%IncludeResource: font Helvetica
423.333 /Helvetica STDFONT grestore 30 setlinewidth
0.686 0.000 0.157 setrgbcolor 4063 12638 M 111 -111 R -111 -111 R -111 111 R
111 111 R D 5428 11211 M 111 -111 R -111 -111 R -111 111 R 111 111 R D
6793 9404 M 111 -111 R -111 -111 R -111 111 R 111 111 R D 8158 7602 M
111 -111 R -111 -111 R -111 111 R 111 111 R D 9523 5800 M 111 -111 R
-111 -111 R -111 111 R 111 111 R D L3 4063 12527 M 1365 -1427 R 1365 -1807 R
1365 -1802 R 1365 -1802 R D 25 setlinewidth L0 2131 15124 M 9069 -11484 R D
0.000 0.000 0.000 setrgbcolor gsave 8366 5272 translate 0 0 M
%%IncludeResource: font Times-Italic
423.333 /Times-Italic STDFONT
(p) show
%%IncludeResource: font Times-Roman
423.333 /Times-Roman STDFONT
( = 4) show
%%IncludeResource: font Helvetica
423.333 /Helvetica STDFONT grestore 30 setlinewidth
0.765 0.000 0.196 setrgbcolor 4063 11561 M 111 -111 R -111 -111 R -111 111 R
111 111 R D 5428 8780 M 111 -111 R -111 -111 R -111 111 R 111 111 R D
6793 6684 M 111 -111 R -111 -111 R -111 111 R 111 111 R D 8158 4895 M
111 -111 R -111 -111 R -111 111 R 111 111 R D 9523 3103 M 111 -111 R
-111 -111 R -111 111 R 111 111 R D L4 4063 11450 M 1365 -2781 R 1365 -2096 R
1365 -1789 R 1365 -1792 R D 25 setlinewidth L0 2131 13998 M 8078 -12309 R D
0.000 0.000 0.000 setrgbcolor gsave 8366 2575 translate 0 0 M
%%IncludeResource: font Times-Italic
423.333 /Times-Italic STDFONT
(p) show
%%IncludeResource: font Times-Roman
423.333 /Times-Roman STDFONT
( = 5) show
%%IncludeResource: font Helvetica
423.333 /Helvetica STDFONT grestore
%%PageTrailer
end
%%PageResources: font Helvetica
%%+ font Times-Italic
%%+ font Times-Roman
%%Trailer
%%Pages: 1
%%DocumentNeededResources: font Helvetica
%%+ font Times-Italic
%%+ font Times-Roman
%%EOF
