%!PS-Adobe-3.0 EPSF-3.0
%%BoundingBox: 0 0 340 340
%%Title: Graphics produced by IDL
%%For: vrs@freya01, /freya/u/vrs/Coding/gpu_testbed/idl
%%Creator: IDL Version 8.5.1 (linux x86_64 m64)
%%CreationDate: Sun Jul 10 17:35:34 2022
%%DocumentData: Clean7bit
%%Requirements: color
%%LanguageLevel: 1
%%PageOrder: Ascend
%%Pages: (atend)
%%DocumentNeededResources: (atend)
%%EndComments
%%BeginProlog
%+ prolog.ps -- Prolog for IDL generated PostScript files
%+ Copyright (c) 1988-2015 Exelis Visual Information Solutions, Inc. All Rights Reserved.
%v 5
/$IDL_DICT 40 dict def $IDL_DICT begin /bdef { bind def } bind def /C
{currentpoint newpath moveto} bdef /CP {currentpoint} bdef /D {currentpoint
stroke moveto} bdef /F {closepath fill} bdef /K { setgray } bdef /M {moveto}
bdef /N {rmoveto} bdef /P {lineto} bdef /R {rlineto} bdef /S {gsave show
grestore} bdef /X {currentpoint pop} bdef /Z {gsave currentpoint lineto 20
setlinewidth 1 setlinecap stroke grestore} bdef /L0 {[] 0 setdash} bdef /L1
{[40 100] 0 setdash} bdef /L2 {[200 200] 0 setdash} bdef /L3 {[200 100 50
100] 0 setdash} bdef /L4 {[300 100 50 100 50 100 50 100] 0 setdash} bdef /L5
{[400 200] 0 setdash} bdef /STDFONT { findfont exch scalefont setfont } bdef
/ISOFONT { findfont dup length dict begin { 1 index /FID ne {def} {pop pop}
ifelse } forall /Encoding ISOLatin1Encoding def currentdict end /idltmpfont
exch definefont exch scalefont setfont } bdef /ISOBULLET { gsave /Helvetica
findfont exch scalefont setfont (\267) show currentpoint grestore moveto}
bdef /MITERLIMIT { 2.5 setmiterlimit } bdef end
%%EndProlog
%%Page: 0 1
%%PageRequirements: color
%%PageResources: (atend)
%%PageOrientation: Portrait
%%PageBoundingBox: 0 0 340 340
%%BeginPageSetup
$IDL_DICT begin 0.0283465 dup scale MITERLIMIT
%%IncludeResource: font Helvetica
423.333 /Helvetica STDFONT
%%EndPageSetup
25 setlinewidth L0 0.000 0.000 0.000 setrgbcolor 1332 1408 M 9336 0 R D
1332 1408 M 0 297 R D gsave 1332 880 translate 0 0 M -411.903 0 N
(0.40) show grestore 2888 1408 M 0 297 R D gsave 2888 880 translate 0 0 M
-411.903 0 N
(0.45) show grestore 4444 1408 M 0 297 R D gsave 4444 880 translate 0 0 M
-411.903 0 N
(0.50) show grestore 6000 1408 M 0 297 R D gsave 6000 880 translate 0 0 M
-411.903 0 N
(0.55) show grestore 7556 1408 M 0 297 R D gsave 7556 880 translate 0 0 M
-411.903 0 N
(0.60) show grestore 9112 1408 M 0 297 R D gsave 9112 880 translate 0 0 M
-411.903 0 N
(0.65) show grestore 10668 1408 M 0 297 R D gsave 10668 880 translate 0 0 M
-411.903 0 N
(0.70) show grestore 1643 1408 M 0 148 R D 1954 1408 M 0 148 R D 2266 1408 M
0 148 R D 2577 1408 M 0 148 R D 3199 1408 M 0 148 R D 3510 1408 M 0 148 R D
3822 1408 M 0 148 R D 4133 1408 M 0 148 R D 4755 1408 M 0 148 R D
5066 1408 M 0 148 R D 5378 1408 M 0 148 R D 5689 1408 M 0 148 R D
6311 1408 M 0 148 R D 6622 1408 M 0 148 R D 6934 1408 M 0 148 R D
7245 1408 M 0 148 R D 7867 1408 M 0 148 R D 8178 1408 M 0 148 R D
8490 1408 M 0 148 R D 8801 1408 M 0 148 R D 9423 1408 M 0 148 R D
9734 1408 M 0 148 R D 10046 1408 M 0 148 R D 10357 1408 M 0 148 R D
gsave 6000 422 translate 0 0 M -93.98 0 N
%%IncludeResource: font Times-Italic
423.333 /Times-Italic STDFONT
(x) show
%%IncludeResource: font Helvetica
423.333 /Helvetica STDFONT grestore 1332 11296 M 9336 0 R D 1332 11296 M
0 -297 R D 2888 11296 M 0 -297 R D 4444 11296 M 0 -297 R D 6000 11296 M
0 -297 R D 7556 11296 M 0 -297 R D 9112 11296 M 0 -297 R D 10668 11296 M
0 -297 R D 1643 11296 M 0 -148 R D 1954 11296 M 0 -148 R D 2266 11296 M
0 -148 R D 2577 11296 M 0 -148 R D 3199 11296 M 0 -148 R D 3510 11296 M
0 -148 R D 3822 11296 M 0 -148 R D 4133 11296 M 0 -148 R D 4755 11296 M
0 -148 R D 5066 11296 M 0 -148 R D 5378 11296 M 0 -148 R D 5689 11296 M
0 -148 R D 6311 11296 M 0 -148 R D 6622 11296 M 0 -148 R D 6934 11296 M
0 -148 R D 7245 11296 M 0 -148 R D 7867 11296 M 0 -148 R D 8178 11296 M
0 -148 R D 8490 11296 M 0 -148 R D 8801 11296 M 0 -148 R D 9423 11296 M
0 -148 R D 9734 11296 M 0 -148 R D 10046 11296 M 0 -148 R D 10357 11296 M
0 -148 R D 1332 1408 M 0 9888 R D 1332 1408 M 280 0 R D
gsave 1221 1408 translate 0 0 M -235.373 0 N
(0) show grestore 1332 3880 M 280 0 R D gsave 1221 3739 translate 0 0 M
-235.373 0 N
(1) show grestore 1332 6352 M 280 0 R D gsave 1221 6211 translate 0 0 M
-235.373 0 N
(2) show grestore 1332 8824 M 280 0 R D gsave 1221 8683 translate 0 0 M
-235.373 0 N
(3) show grestore 1332 11296 M 280 0 R D gsave 1221 11050 translate 0 0 M
-235.373 0 N
(4) show grestore 1332 1655 M 140 0 R D 1332 1902 M 140 0 R D 1332 2150 M
140 0 R D 1332 2397 M 140 0 R D 1332 2644 M 140 0 R D 1332 2891 M 140 0 R D
1332 3138 M 140 0 R D 1332 3386 M 140 0 R D 1332 3633 M 140 0 R D
1332 4127 M 140 0 R D 1332 4374 M 140 0 R D 1332 4622 M 140 0 R D
1332 4869 M 140 0 R D 1332 5116 M 140 0 R D 1332 5363 M 140 0 R D
1332 5610 M 140 0 R D 1332 5858 M 140 0 R D 1332 6105 M 140 0 R D
1332 6599 M 140 0 R D 1332 6846 M 140 0 R D 1332 7094 M 140 0 R D
1332 7341 M 140 0 R D 1332 7588 M 140 0 R D 1332 7835 M 140 0 R D
1332 8082 M 140 0 R D 1332 8330 M 140 0 R D 1332 8577 M 140 0 R D
1332 9071 M 140 0 R D 1332 9318 M 140 0 R D 1332 9566 M 140 0 R D
1332 9813 M 140 0 R D 1332 10060 M 140 0 R D 1332 10307 M 140 0 R D
1332 10554 M 140 0 R D 1332 10802 M 140 0 R D 1332 11049 M 140 0 R D
gsave 653 6352 translate 0 0 M 90 rotate -780.627 0 N
%%IncludeResource: font Times-Roman
423.333 /Times-Roman STDFONT
(density ) show
%%IncludeResource: font Symbol
423.333 /Symbol STDFONT
(r) show
%%IncludeResource: font Helvetica
423.333 /Helvetica STDFONT grestore L1 2221 1408 M 0 9888 R D 3703 1408 M
0 9888 R D 5185 1408 M 0 9888 R D 6667 1408 M 0 9888 R D 8149 1408 M
0 9888 R D 9631 1408 M 0 9888 R D L0 0.784 0.784 0.784 setrgbcolor
1332 9514 M 9 19 R 17 38 R 17 37 R 18 35 R 17 33 R 17 30 R 17 27 R 18 22 R
17 17 R 17 12 R 18 7 R 17 1 R 17 -4 R 17 -10 R 18 -15 R 17 -20 R 17 -24 R
18 -29 R 17 -32 R 17 -35 R 17 -36 R 18 -38 R 17 -37 R 17 -37 R 18 -35 R
17 -32 R 17 -29 R 18 -25 R 17 -20 R 17 -14 R 17 -8 R 18 -2 R 17 4 R 17 10 R
18 16 R 17 22 R 17 27 R 17 31 R 18 33 R 17 36 R 17 36 R 18 36 R 17 33 R
17 30 R 17 25 R 18 20 R 17 13 R 17 7 R 18 2 R 17 -3 R 17 -6 R 17 57 R
18 -56 R 17 -40 R 17 -29 R 18 -21 R 17 -16 R 17 -12 R 17 -9 R 18 -7 R
17 -6 R 17 -4 R 18 -3 R 17 -1 R 17 0 R 17 2 R 18 4 R 17 7 R 17 9 R 18 11 R
17 14 R 17 16 R 18 19 R 17 20 R 17 22 R 17 23 R 18 25 R 17 25 R 17 25 R
18 25 R 17 25 R 17 23 R 17 22 R 18 21 R 17 18 R 17 16 R 18 13 R 17 11 R
17 8 R 17 5 R 18 2 R 17 -1 R 17 -3 R 18 -6 R 17 -8 R 17 -9 R 17 -12 R
18 -13 R 17 -14 R 17 -15 R 18 -15 R 17 -15 R 17 -15 R 17 -14 R 18 -14 R
17 -12 R 17 -11 R 18 -10 R 17 -9 R 17 -6 R 17 -6 R 18 -4 R 17 -2 R 17 -2 R
18 -1 R 17 -1 R 17 0 R 18 -1 R 17 -1 R 17 -3 R 17 -3 R 18 -6 R 17 -7 R
17 -10 R 18 -13 R 17 -15 R 17 -18 R 17 -20 R 18 -23 R 17 -24 R 17 -27 R
18 -27 R 17 -27 R 17 -27 R 17 -24 R 18 -21 R 17 -16 R 17 371 R 18 -441 R
17 -209 R 17 -41 R 17 75 R 18 145 R 17 182 R 17 189 R 18 177 R 17 149 R
17 111 R 17 66 R 18 19 R 17 -28 R 17 -71 R 18 -112 R 17 -146 R 17 -173 R
17 -195 R 18 -208 R 17 -215 R 17 -214 R 18 -209 R 17 -196 R 17 -180 R
18 -160 R 17 -135 R 17 -110 R 17 -84 R 18 -56 R 17 -30 R 17 -5 R 18 18 R
17 38 R 17 54 R 17 68 R 18 76 R 17 80 R 17 81 R 18 77 R 17 68 R 17 56 R
17 40 R 18 21 R 17 -1 R 17 -25 R 18 -51 R 17 -76 R 17 -103 R 17 -128 R
18 -153 R 17 -175 R 17 -194 R 18 -212 R 17 -224 R 17 -232 R 17 -237 R
18 -236 R 17 -230 R 17 -220 R 18 -205 R 17 -185 R 17 -162 R 17 -135 R
18 -106 R 17 -75 R 17 -42 R 18 -11 R 17 20 R 17 48 R 18 72 R 17 92 R
17 106 R 17 112 R 18 110 R 17 102 R 17 84 R 18 57 R 17 24 R 17 -17 R
17 -61 R 18 -106 R 17 -150 R 17 -185 R 18 -207 R 17 -208 R 17 201 R
17 -252 R 18 -78 R 17 36 R 17 105 R 18 139 R 17 146 R 17 134 R 17 112 R
18 82 R 17 48 R 17 15 R 18 -17 R 17 -45 R 17 -69 R 17 -88 R 18 -102 R
17 -112 R 17 -116 R 18 -115 R 17 -113 R 17 -106 R 17 -98 R 18 -87 R 17 -77 R
17 -64 R 18 -52 R 17 -41 R 17 -31 R 18 -21 R 17 -13 R 17 -6 R 17 -1 R 18 3 R
17 6 R 17 6 R 18 7 R 17 6 R 17 5 R 17 2 R 18 0 R 17 -3 R 17 -5 R 18 -7 R
17 -9 R 17 -10 R 17 -11 R 18 -11 R 17 -10 R 17 -9 R 18 -8 R 17 -5 R 17 -3 R
17 0 R 18 3 R 17 6 R 17 7 R 18 10 R 17 11 R 17 12 R 17 12 R 18 10 R 17 9 R
17 7 R 18 3 R 17 0 R 17 -3 R 17 -8 R 18 -11 R 17 -15 R 17 -16 R 18 -17 R
17 -15 R 17 -13 R 18 -9 R 17 -1 R 17 8 R 17 17 R 18 27 R 17 38 R 17 44 R
18 46 R 17 41 R 17 24 R 17 -12 R 18 -69 R 17 -892 R 17 320 R 18 202 R
17 114 R 17 52 R 17 10 R 18 -17 R 17 -31 R 17 -38 R 18 -38 R 17 -33 R
17 -28 R 17 -21 R 18 -12 R 17 -6 R 17 1 R 18 5 R 17 10 R 17 12 R 17 13 R
18 14 R 17 13 R 17 11 R 18 9 R 17 7 R 17 4 R 17 1 R 18 -1 R 17 -3 R 17 -5 R
18 -7 R 17 -8 R 17 -8 R 18 -8 R 17 -7 R 17 -7 R 17 -6 R 18 -5 R 17 -2 R
17 -2 R 18 1 R 17 2 R 17 3 R 17 5 R 18 5 R 17 6 R 17 7 R 18 6 R 17 6 R
17 5 R 17 4 R 18 4 R 17 1 R 17 1 R 18 -1 R 17 -3 R 17 -4 R 17 -4 R 18 -6 R
17 -6 R 17 -6 R 18 -7 R 17 -5 R 17 -4 R 17 -3 R 18 -2 R 17 1 R 17 2 R 18 4 R
17 6 R 17 7 R 17 7 R 18 8 R 17 7 R 17 6 R 18 3 R 17 1 R 17 -4 R 18 -7 R
17 -10 R 17 -13 R 17 -14 R 18 -11 R 17 -3 R 17 11 R 18 55 R 17 -11 R 17 -8 R
17 -6 R 18 -4 R 17 -2 R 17 -2 R 18 -1 R 17 0 R 17 0 R 17 1 R 18 0 R 17 1 R
17 0 R 18 1 R 17 1 R 17 0 R 17 0 R 18 0 R 17 0 R 17 0 R 18 0 R 17 0 R 17 0 R
17 0 R 18 -1 R 17 0 R 17 0 R 18 0 R 17 -1 R 17 0 R 17 0 R 18 0 R 17 0 R
17 0 R 18 0 R 17 1 R 17 0 R 18 0 R 17 0 R 17 0 R 17 0 R 18 0 R 17 1 R 17 0 R
18 0 R 17 0 R 17 0 R 17 0 R 18 0 R 17 -1 R 17 0 R 18 0 R 17 0 R 17 0 R
17 0 R 18 0 R 17 0 R 17 -1 R 18 0 R 17 0 R 17 0 R 17 1 R 18 0 R 17 0 R
17 0 R 18 0 R 17 0 R 17 1 R 17 0 R 18 0 R 17 0 R 17 0 R 18 0 R 17 0 R
17 -1 R 17 0 R 18 0 R 17 -1 R 17 0 R 18 -1 R 17 0 R 17 1 R 18 1 R 17 2 R
17 3 R 17 -2 R 18 -2 R 17 -2 R 17 0 R 18 0 R 17 0 R 17 0 R 17 0 R 18 1 R
17 0 R 17 0 R 18 0 R 17 1 R 17 0 R 17 0 R 18 0 R 17 0 R 17 -1 R 18 0 R
17 0 R 17 0 R 17 0 R 18 0 R 17 0 R 17 0 R 18 0 R 17 0 R 17 0 R 17 0 R 18 0 R
17 0 R 17 0 R 18 0 R 17 0 R 17 0 R 17 0 R 18 0 R 17 0 R 17 0 R 18 0 R 17 0 R
17 0 R 18 0 R 17 0 R 17 0 R 17 0 R 18 0 R 17 0 R 17 0 R 18 0 R 17 0 R 17 0 R
17 0 R 18 0 R 17 0 R 17 0 R 18 0 R 17 0 R 17 0 R 17 0 R 9 0 R D
40 setlinewidth 0.882 0.000 0.039 setrgbcolor 1332 9735 M 9 0 R 17 0 R
17 0 R 18 -1 R 17 0 R 17 -1 R 17 0 R 18 -1 R 17 -1 R 17 -1 R 18 0 R 17 -1 R
17 0 R 17 -1 R 18 0 R 17 0 R 17 0 R 18 0 R 17 0 R 17 0 R 17 1 R 18 1 R
17 0 R 17 1 R 18 1 R 17 1 R 17 1 R 18 1 R 17 0 R 17 1 R 17 1 R 18 0 R 17 1 R
17 0 R 18 0 R 17 0 R 17 0 R 17 0 R 18 0 R 17 -1 R 17 0 R 18 1 R 17 0 R
17 0 R 17 1 R 18 1 R 17 2 R 17 1 R 18 2 R 17 2 R 17 1 R 17 -1 R 18 3 R
17 0 R 17 -1 R 18 -2 R 17 -3 R 17 -3 R 17 -3 R 18 -3 R 17 -2 R 17 -2 R
18 -2 R 17 -1 R 17 0 R 17 0 R 18 0 R 17 0 R 17 0 R 18 1 R 17 1 R 17 0 R
18 1 R 17 0 R 17 0 R 17 0 R 18 1 R 17 -1 R 17 0 R 18 0 R 17 0 R 17 -1 R
17 0 R 18 -1 R 17 0 R 17 -1 R 18 0 R 17 -1 R 17 0 R 17 0 R 18 0 R 17 0 R
17 0 R 18 1 R 17 0 R 17 1 R 17 1 R 18 0 R 17 1 R 17 1 R 18 1 R 17 1 R 17 1 R
17 1 R 18 0 R 17 1 R 17 1 R 18 1 R 17 0 R 17 1 R 17 0 R 18 1 R 17 0 R 17 1 R
18 0 R 17 0 R 17 1 R 18 0 R 17 1 R 17 1 R 17 0 R 18 1 R 17 1 R 17 1 R 18 1 R
17 1 R 17 1 R 17 0 R 18 0 R 17 0 R 17 0 R 18 -1 R 17 -2 R 17 -3 R 17 -5 R
18 -5 R 17 -7 R 17 -5 R 18 15 R 17 3 R 17 -4 R 17 -7 R 18 -9 R 17 -8 R
17 -6 R 18 -3 R 17 -2 R 17 1 R 17 3 R 18 4 R 17 5 R 17 5 R 18 4 R 17 2 R
17 1 R 17 -3 R 18 -5 R 17 -10 R 17 -13 R 18 -19 R 17 -23 R 17 -28 R 18 -33 R
17 -39 R 17 -44 R 17 -49 R 18 -55 R 17 -60 R 17 -66 R 18 -70 R 17 -76 R
17 -81 R 17 -86 R 18 -91 R 17 -97 R 17 -101 R 18 -106 R 17 -111 R 17 -117 R
17 -121 R 18 -126 R 17 -131 R 17 -136 R 18 -140 R 17 -145 R 17 -149 R
17 -154 R 18 -158 R 17 -161 R 17 -164 R 18 -166 R 17 -169 R 17 -171 R
17 -171 R 18 -171 R 17 -170 R 17 -169 R 18 -166 R 17 -162 R 17 -158 R
17 -152 R 18 -145 R 17 -138 R 17 -129 R 18 -119 R 17 -109 R 17 -98 R
18 -86 R 17 -73 R 17 -62 R 17 -49 R 18 -36 R 17 -25 R 17 -15 R 18 -4 R
17 3 R 17 9 R 17 13 R 18 14 R 17 11 R 17 5 R 18 -5 R 17 -20 R 17 73 R
17 -52 R 18 -30 R 17 -16 R 17 -4 R 18 2 R 17 6 R 17 8 R 17 8 R 18 8 R 17 6 R
17 5 R 18 3 R 17 2 R 17 0 R 17 -1 R 18 -2 R 17 -2 R 17 -4 R 18 -3 R 17 -3 R
17 -3 R 17 -2 R 18 -2 R 17 -1 R 17 -1 R 18 0 R 17 0 R 17 1 R 18 2 R 17 1 R
17 2 R 17 2 R 18 2 R 17 2 R 17 1 R 18 2 R 17 1 R 17 0 R 17 0 R 18 0 R 17 0 R
17 -1 R 18 -1 R 17 -2 R 17 -1 R 17 -2 R 18 -1 R 17 -2 R 17 -1 R 18 -1 R
17 -1 R 17 0 R 17 0 R 18 0 R 17 0 R 17 1 R 18 1 R 17 2 R 17 1 R 17 2 R
18 1 R 17 2 R 17 1 R 18 1 R 17 0 R 17 0 R 17 0 R 18 -1 R 17 -1 R 17 -1 R
18 -2 R 17 -2 R 17 -2 R 18 -2 R 17 -1 R 17 -1 R 17 0 R 18 1 R 17 2 R 17 2 R
18 3 R 17 3 R 17 3 R 17 1 R 18 -3 R 17 -7 R 17 1 R 18 1 R 17 0 R 17 0 R
17 0 R 18 0 R 17 0 R 17 0 R 18 0 R 17 0 R 17 0 R 17 0 R 18 0 R 17 0 R 17 0 R
18 0 R 17 0 R 17 0 R 17 0 R 18 0 R 17 0 R 17 0 R 18 0 R 17 0 R 17 0 R 17 0 R
18 0 R 17 0 R 17 0 R 18 0 R 17 0 R 17 0 R 18 0 R 17 0 R 17 0 R 17 0 R 18 0 R
17 0 R 17 0 R 18 0 R 17 0 R 17 0 R 17 0 R 18 0 R 17 0 R 17 0 R 18 0 R 17 0 R
17 0 R 17 0 R 18 0 R 17 0 R 17 0 R 18 0 R 17 0 R 17 0 R 17 0 R 18 0 R 17 0 R
17 0 R 18 0 R 17 0 R 17 0 R 17 0 R 18 0 R 17 0 R 17 0 R 18 0 R 17 0 R 17 0 R
17 0 R 18 0 R 17 0 R 17 0 R 18 0 R 17 0 R 17 0 R 18 0 R 17 0 R 17 0 R 17 0 R
18 0 R 17 0 R 17 0 R 18 0 R 17 0 R 17 0 R 17 0 R 18 0 R 17 0 R 17 0 R 18 0 R
17 0 R 17 0 R 17 0 R 18 0 R 17 0 R 17 0 R 18 0 R 17 0 R 17 0 R 17 0 R 18 0 R
17 0 R 17 0 R 18 0 R 17 0 R 17 0 R 17 0 R 18 0 R 17 0 R 17 0 R 18 0 R 17 0 R
17 0 R 17 0 R 18 0 R 17 0 R 17 0 R 18 0 R 17 0 R 17 0 R 18 0 R 17 0 R 17 0 R
17 0 R 18 0 R 17 0 R 17 0 R 18 0 R 17 0 R 17 0 R 17 0 R 18 0 R 17 0 R 17 0 R
18 0 R 17 0 R 17 0 R 17 0 R 18 0 R 17 0 R 17 0 R 18 0 R 17 0 R 17 0 R 17 0 R
18 0 R 17 0 R 17 0 R 18 0 R 17 0 R 17 0 R 17 0 R 18 0 R 17 0 R 17 0 R 18 0 R
17 0 R 17 0 R 17 0 R 18 0 R 17 0 R 17 0 R 18 0 R 17 0 R 17 0 R 18 0 R 17 0 R
17 0 R 17 0 R 18 0 R 17 0 R 17 0 R 18 0 R 17 0 R 17 0 R 17 0 R 18 0 R 17 0 R
17 0 R 18 0 R 17 0 R 17 0 R 17 0 R 18 0 R 17 0 R 17 0 R 18 0 R 17 0 R 17 0 R
17 0 R 18 0 R 17 0 R 17 0 R 18 0 R 17 0 R 17 0 R 17 0 R 18 0 R 17 0 R 17 0 R
18 0 R 17 0 R 17 0 R 17 0 R 18 0 R 17 0 R 17 0 R 18 0 R 17 0 R 17 0 R 18 0 R
17 0 R 17 0 R 17 0 R 18 0 R 17 0 R 17 0 R 18 0 R 17 0 R 17 0 R 17 0 R 18 0 R
17 0 R 17 0 R 18 0 R 17 0 R 17 0 R 17 0 R 9 0 R D
0.608 0.000 0.078 setrgbcolor 4512 8461 M -2 22 R -7 21 R -11 20 R -15 17 R
-17 14 R -21 10 R -21 5 R -23 2 R -22 -4 R -21 -8 R -19 -12 R -16 -15 R
-13 -18 R -9 -21 R -5 -22 R 0 -23 R 5 -22 R 9 -20 R 13 -19 R 16 -15 R
19 -12 R 21 -8 R 22 -3 R 23 1 R 21 6 R 21 9 R 17 14 R 15 17 R 11 20 R 7 21 R
2 23 R F
4892 5086 M -2 22 R -7 22 R -11 20 R -14 17 R -18 13 R -20 10 R -22 6 R
-22 1 R -23 -3 R -21 -8 R -19 -12 R -16 -16 R -13 -18 R -9 -21 R -4 -22 R
0 -22 R 4 -22 R 9 -21 R 13 -18 R 16 -16 R 19 -12 R 21 -7 R 23 -4 R 22 1 R
22 6 R 20 10 R 18 14 R 14 17 R 11 19 R 7 22 R 2 22 R F
25 setlinewidth 0.000 0.000 0.000 setrgbcolor 10668 1408 M 0 9888 R D
10668 1408 M -280 0 R D gsave 10779 1408 translate 0 0 M
(0.0) show grestore 10668 3386 M -280 0 R D gsave 10779 3245 translate 0 0 M
(0.2) show grestore 10668 5363 M -280 0 R D gsave 10779 5222 translate 0 0 M
(0.4) show grestore 10668 7341 M -280 0 R D gsave 10779 7200 translate 0 0 M
(0.6) show grestore 10668 9318 M -280 0 R D gsave 10779 9178 translate 0 0 M
(0.8) show grestore 10668 11296 M -280 0 R D
gsave 10779 11050 translate 0 0 M
(1.0) show grestore 10668 1902 M -140 0 R D 10668 2397 M -140 0 R D
10668 2891 M -140 0 R D 10668 3880 M -140 0 R D 10668 4374 M -140 0 R D
10668 4869 M -140 0 R D 10668 5858 M -140 0 R D 10668 6352 M -140 0 R D
10668 6846 M -140 0 R D 10668 7835 M -140 0 R D 10668 8330 M -140 0 R D
10668 8824 M -140 0 R D 10668 9813 M -140 0 R D 10668 10307 M -140 0 R D
10668 10802 M -140 0 R D gsave 11744 6352 translate 0 0 M 90 rotate
-992.082 0 N
%%IncludeResource: font Times-Roman
423.333 /Times-Roman STDFONT
(viscosity  ) show
%%IncludeResource: font Symbol
423.333 /Symbol STDFONT
(a) show
%%IncludeResource: font Helvetica
423.333 /Helvetica STDFONT grestore 0.098 0.078 0.902 setrgbcolor
1332 1408 M 9 0 R 17 0 R 17 0 R 18 0 R 17 0 R 17 1 R 17 0 R 18 0 R 17 1 R
17 0 R 18 1 R 17 0 R 17 1 R 17 1 R 18 1 R 17 0 R 17 1 R 18 1 R 17 1 R 17 0 R
17 1 R 18 0 R 17 0 R 17 0 R 18 0 R 17 0 R 17 0 R 18 -1 R 17 -1 R 17 0 R
17 -1 R 18 -1 R 17 -1 R 17 -1 R 18 -1 R 17 0 R 17 0 R 17 0 R 18 1 R 17 1 R
17 2 R 18 2 R 17 3 R 17 3 R 17 3 R 18 3 R 17 3 R 17 1 R 18 0 R 17 -3 R
17 -7 R 17 1 R 18 -4 R 17 -4 R 17 -3 R 18 -2 R 17 -2 R 17 -1 R D 2413 1408 M
17 0 R 17 1 R 17 0 R 18 0 R 17 1 R 17 0 R 18 0 R 17 0 R 17 0 R 18 -1 R
17 0 R 17 0 R 17 -1 R 18 0 R D 2810 1408 M 18 0 R 17 1 R 17 1 R 17 0 R
18 1 R 17 1 R 17 1 R 18 1 R 17 1 R 17 1 R 17 0 R 18 1 R 17 1 R 17 0 R 18 0 R
17 1 R 17 0 R 17 0 R 18 0 R 17 0 R 17 0 R 18 -1 R 17 0 R 17 0 R 17 0 R
18 1 R 17 0 R 17 0 R 18 1 R 17 0 R 17 1 R 18 1 R 17 1 R 17 1 R 17 0 R 18 1 R
17 0 R 17 1 R 18 0 R 17 0 R 17 -1 R 17 0 R 18 -1 R 17 -1 R 17 0 R 18 0 R
17 2 R 17 3 R 17 6 R 18 9 R 17 14 R 17 1408 R 18 -151 R 17 -59 R 17 -3 R
17 29 R 18 43 R 17 47 R 17 43 R 18 36 R 17 29 R 17 22 R 17 18 R 18 16 R
17 17 R 17 21 R 18 28 R 17 36 R 17 45 R 17 56 R 18 68 R 17 79 R 17 90 R
18 100 R 17 109 R 17 118 R 18 124 R 17 131 R 17 135 R 17 139 R 18 142 R
17 144 R 17 147 R 18 150 R 17 152 R 17 155 R 17 159 R 18 163 R 17 168 R
17 174 R 18 180 R 17 188 R 17 195 R 17 203 R 18 210 R 17 218 R 17 223 R
18 228 R 17 230 R 17 230 R 17 227 R 18 222 R 17 211 R 17 197 R 18 179 R
17 156 R 17 130 R 17 98 R 18 64 R 17 25 R 17 -16 R 18 -59 R 17 -102 R
17 -146 R 17 -188 R 18 -227 R 17 -261 R 17 -289 R 18 -310 R 17 -321 R
17 -323 R 18 -311 R 17 -290 R 17 -255 R 17 -208 R 18 -151 R 17 -87 R
17 -18 R 18 51 R 17 111 R 17 156 R 17 173 R 18 148 R 17 65 R 17 -98 R
18 -365 R 17 -764 R 17 -606 R 17 -15 R 18 -10 R 17 -6 R 17 -4 R 18 -3 R
17 -2 R 17 -3 R 17 -3 R 18 -3 R 17 -4 R 17 -4 R 18 -5 R 17 -5 R 17 -5 R
17 -5 R 18 -4 R 17 -5 R 17 -3 R 18 -4 R 17 -3 R 17 -2 R 17 -1 R 18 -1 R
17 -1 R 17 0 R 18 1 R 17 1 R 17 1 R 18 1 R 17 1 R 17 1 R 17 1 R 18 2 R
17 0 R 17 1 R 18 1 R 17 0 R 17 0 R 17 -1 R 18 0 R 17 -1 R 17 -1 R 18 0 R
17 -1 R 17 -1 R 17 -1 R 18 -1 R 17 0 R 17 -1 R 18 0 R 17 0 R 17 1 R 17 0 R
18 1 R 17 1 R 17 1 R 18 1 R 17 1 R 17 1 R 17 2 R 18 1 R 17 0 R 17 1 R 18 0 R
17 0 R 17 0 R 17 -1 R 18 0 R 17 -1 R 17 -2 R 18 -1 R 17 -1 R 17 0 R 18 0 R
17 0 R 17 2 R 17 2 R 18 4 R 17 4 R 17 6 R 18 6 R 17 7 R 17 6 R 17 5 R 18 3 R
17 -3245 R 17 -2 R 18 -1 R 17 -1 R 17 -1 R 17 0 R 18 -1 R 17 0 R 17 0 R
18 0 R 17 0 R 17 0 R 17 0 R 18 0 R 17 0 R 17 -1 R 18 0 R 17 0 R 17 0 R
17 0 R 18 0 R 17 0 R 17 0 R 18 0 R 17 0 R 17 0 R 17 0 R 18 0 R 17 0 R 17 0 R
18 0 R 17 0 R 17 0 R 18 0 R 17 0 R 17 0 R 17 0 R 18 0 R 17 0 R 17 0 R 18 0 R
17 0 R 17 0 R 17 0 R 18 0 R 17 0 R 17 0 R 18 0 R 17 0 R 17 0 R 17 0 R 18 0 R
17 0 R 17 0 R 18 0 R 17 0 R 17 0 R 17 0 R 18 0 R 17 1 R 17 0 R 18 0 R 17 0 R
17 0 R 17 -1 R 18 0 R 17 0 R 17 0 R 18 0 R 17 0 R 17 0 R 17 0 R 18 0 R
17 0 R 17 0 R 18 0 R 17 1 R 17 0 R 18 0 R 17 0 R 17 0 R 17 0 R 18 0 R 17 0 R
17 0 R 18 0 R 17 0 R 17 0 R 17 -1 R 18 0 R 17 0 R 17 0 R 18 0 R 17 0 R
17 0 R 17 0 R 18 0 R 17 0 R 17 0 R 18 0 R 17 0 R 17 0 R 17 0 R 18 0 R 17 0 R
17 0 R 18 0 R 17 0 R 17 0 R 17 0 R 18 0 R 17 0 R 17 0 R 18 0 R 17 0 R 17 0 R
17 0 R 18 0 R 17 0 R 17 0 R 18 0 R 17 0 R 17 0 R 18 0 R 17 0 R 17 0 R 17 0 R
18 0 R 17 0 R 17 0 R 18 0 R 17 0 R 17 0 R 17 0 R 18 0 R 17 0 R 17 0 R 18 0 R
17 0 R 17 0 R 17 0 R 18 0 R 17 0 R 17 0 R 18 0 R 17 0 R 17 0 R 17 0 R 18 0 R
17 0 R 17 0 R 18 0 R 17 0 R 17 0 R 17 0 R 18 0 R 17 0 R 17 0 R 18 0 R 17 0 R
17 0 R 17 0 R 18 0 R 17 0 R 17 0 R 18 0 R 17 0 R 17 0 R 18 0 R 17 0 R 17 0 R
17 0 R 18 0 R 17 0 R 17 0 R 18 0 R 17 0 R 17 0 R 17 0 R 18 0 R 17 0 R 17 0 R
18 0 R 17 0 R 17 0 R 17 0 R 18 0 R 17 0 R 17 0 R 18 0 R 17 0 R 17 0 R 17 0 R
18 0 R 17 0 R 17 0 R 18 0 R 17 0 R 17 0 R 17 0 R 18 0 R 17 0 R 17 0 R 18 0 R
17 0 R 17 0 R 17 0 R 18 0 R 17 0 R 17 0 R 18 0 R 17 0 R 17 0 R 18 0 R 17 0 R
17 0 R 17 0 R 18 0 R 17 0 R 17 0 R 18 0 R 17 0 R 17 0 R 17 0 R 18 0 R 17 0 R
17 0 R 18 0 R 17 0 R 17 0 R 17 0 R 9 0 R D
%%PageTrailer
end
%%PageResources: font Helvetica
%%+ font Times-Italic
%%+ font Symbol
%%+ font Times-Roman
%%Trailer
%%Pages: 1
%%DocumentNeededResources: font Helvetica
%%+ font Times-Italic
%%+ font Symbol
%%+ font Times-Roman
%%EOF
