%!PS-Adobe-3.0 EPSF-3.0
%%BoundingBox: 0 0 340 340
%%Title: Graphics produced by IDL
%%For: vrs@freya01, /freya/u/vrs/Coding/gpu_testbed/idl
%%Creator: IDL Version 8.5.1 (linux x86_64 m64)
%%CreationDate: Sun Jul 10 16:59:15 2022
%%DocumentData: Clean7bit
%%Requirements: color
%%LanguageLevel: 1
%%PageOrder: Ascend
%%Pages: (atend)
%%DocumentNeededResources: (atend)
%%EndComments
%%BeginProlog
%+ prolog.ps -- Prolog for IDL generated PostScript files
%+ Copyright (c) 1988-2015 Exelis Visual Information Solutions, Inc. All Rights Reserved.
%v 5
/$IDL_DICT 40 dict def $IDL_DICT begin /bdef { bind def } bind def /C
{currentpoint newpath moveto} bdef /CP {currentpoint} bdef /D {currentpoint
stroke moveto} bdef /F {closepath fill} bdef /K { setgray } bdef /M {moveto}
bdef /N {rmoveto} bdef /P {lineto} bdef /R {rlineto} bdef /S {gsave show
grestore} bdef /X {currentpoint pop} bdef /Z {gsave currentpoint lineto 20
setlinewidth 1 setlinecap stroke grestore} bdef /L0 {[] 0 setdash} bdef /L1
{[40 100] 0 setdash} bdef /L2 {[200 200] 0 setdash} bdef /L3 {[200 100 50
100] 0 setdash} bdef /L4 {[300 100 50 100 50 100 50 100] 0 setdash} bdef /L5
{[400 200] 0 setdash} bdef /STDFONT { findfont exch scalefont setfont } bdef
/ISOFONT { findfont dup length dict begin { 1 index /FID ne {def} {pop pop}
ifelse } forall /Encoding ISOLatin1Encoding def currentdict end /idltmpfont
exch definefont exch scalefont setfont } bdef /ISOBULLET { gsave /Helvetica
findfont exch scalefont setfont (\267) show currentpoint grestore moveto}
bdef /MITERLIMIT { 2.5 setmiterlimit } bdef end
%%EndProlog
%%Page: 0 1
%%PageRequirements: color
%%PageResources: (atend)
%%PageOrientation: Portrait
%%PageBoundingBox: 0 0 340 340
%%BeginPageSetup
$IDL_DICT begin 0.0283465 dup scale MITERLIMIT
%%IncludeResource: font Helvetica
423.333 /Helvetica STDFONT
%%EndPageSetup
25 setlinewidth L0 0.000 0.000 0.000 setrgbcolor 1776 1408 M 9558 0 R D
2165 1408 M 0 297 R D gsave 2165 880 translate 0 0 M -117.687 0 N
(1) show grestore 10661 1408 M 0 297 R D gsave 10661 880 translate 0 0 M
-235.373 0 N
(10) show grestore 1776 1408 M 0 148 R D 4723 1408 M 0 148 R D 6219 1408 M
0 148 R D 7280 1408 M 0 148 R D 8104 1408 M 0 148 R D 8776 1408 M 0 148 R D
9345 1408 M 0 148 R D 9838 1408 M 0 148 R D 10273 1408 M 0 148 R D
gsave 6555 422 translate 0 0 M -605.367 0 N
%%IncludeResource: font Times-Roman
423.333 /Times-Roman STDFONT
(order ) show
%%IncludeResource: font Times-Italic
423.333 /Times-Italic STDFONT
(p) show
%%IncludeResource: font Helvetica
423.333 /Helvetica STDFONT grestore 1776 11296 M 9558 0 R D 2165 11296 M
0 -297 R D 10661 11296 M 0 -297 R D 1776 11296 M 0 -148 R D 4723 11296 M
0 -148 R D 6219 11296 M 0 -148 R D 7280 11296 M 0 -148 R D 8104 11296 M
0 -148 R D 8776 11296 M 0 -148 R D 9345 11296 M 0 -148 R D 9838 11296 M
0 -148 R D 10273 11296 M 0 -148 R D 1776 1408 M 0 9888 R D 1776 1408 M
287 0 R D gsave 1665 1408 translate 0 0 M -588.433 0 N
(0.1) show grestore 1776 6767 M 287 0 R D gsave 1665 6626 translate 0 0 M
-588.433 0 N
(1.0) show grestore 1776 3021 M 143 0 R D 1776 3965 M 143 0 R D 1776 4635 M
143 0 R D 1776 5154 M 143 0 R D 1776 5578 M 143 0 R D 1776 5937 M 143 0 R D
1776 6248 M 143 0 R D 1776 6522 M 143 0 R D 1776 8380 M 143 0 R D
1776 9324 M 143 0 R D 1776 9994 M 143 0 R D 1776 10513 M 143 0 R D
1776 10937 M 143 0 R D 1776 11296 M 143 0 R D gsave 744 6352 translate 0 0 M
90 rotate -1434.46 0 N
%%IncludeResource: font Times-Roman
423.333 /Times-Roman STDFONT
(shock width [ ) show
%%IncludeResource: font Times-Italic
423.333 /Times-Italic STDFONT
(h) show
%%IncludeResource: font Times-Roman
423.333 /Times-Roman STDFONT
( ]) show
%%IncludeResource: font Helvetica
423.333 /Helvetica STDFONT grestore 11334 1408 M 0 9888 R D 11334 1408 M
-287 0 R D 11334 6767 M -287 0 R D 11334 3021 M -143 0 R D 11334 3965 M
-143 0 R D 11334 4635 M -143 0 R D 11334 5154 M -143 0 R D 11334 5578 M
-143 0 R D 11334 5937 M -143 0 R D 11334 6248 M -143 0 R D 11334 6522 M
-143 0 R D 11334 8380 M -143 0 R D 11334 9324 M -143 0 R D 11334 9994 M
-143 0 R D 11334 10513 M -143 0 R D 11334 10937 M -143 0 R D 11334 11296 M
-143 0 R D L1 1776 6767 M 9558 0 R D 30 setlinewidth L2 1776 9145 M
9558 -6028 R D 40 setlinewidth L0 1.000 0.000 0.039 setrgbcolor 2165 10311 M
2558 -2860 R 1496 -1026 R 1061 -959 R 824 -415 R 672 -436 R 569 -291 R
493 -333 R 435 -286 R 388 -103 R D 0.529 0.000 0.078 setrgbcolor
2276 10311 M -2 23 R -7 21 R -11 20 R -15 17 R -17 13 R -21 10 R -21 6 R
-23 1 R -22 -3 R -21 -8 R -19 -12 R -16 -15 R -13 -19 R -9 -20 R -5 -22 R
0 -23 R 5 -22 R 9 -21 R 13 -18 R 16 -15 R 19 -12 R 21 -8 R 22 -4 R 23 2 R
21 5 R 21 10 R 17 14 R 15 17 R 11 20 R 7 21 R 2 22 R F
4834 7451 M -3 23 R -6 21 R -11 20 R -15 17 R -18 13 R -20 10 R -22 6 R
-22 1 R -22 -3 R -21 -8 R -19 -12 R -17 -16 R -13 -18 R -8 -21 R -5 -22 R
0 -22 R 5 -22 R 8 -21 R 13 -18 R 17 -16 R 19 -11 R 21 -8 R 22 -4 R 22 1 R
22 6 R 20 10 R 18 14 R 15 17 R 11 19 R 6 22 R 3 22 R F
6330 6425 M -3 22 R -6 22 R -11 20 R -15 17 R -18 13 R -20 10 R -22 6 R
-22 1 R -22 -3 R -21 -8 R -19 -12 R -17 -16 R -12 -18 R -9 -21 R -5 -22 R
0 -22 R 5 -22 R 9 -21 R 12 -18 R 17 -16 R 19 -12 R 21 -7 R 22 -4 R 22 1 R
22 6 R 20 10 R 18 14 R 15 17 R 11 19 R 6 22 R 3 22 R F
7391 5466 M -2 22 R -7 21 R -11 20 R -14 17 R -18 14 R -20 10 R -22 5 R
-22 1 R -23 -3 R -21 -8 R -19 -12 R -16 -15 R -13 -18 R -9 -21 R -4 -22 R
0 -23 R 4 -22 R 9 -20 R 13 -19 R 16 -15 R 19 -12 R 21 -8 R 23 -3 R 22 1 R
22 6 R 20 9 R 18 14 R 14 17 R 11 20 R 7 21 R 2 23 R F
8215 5051 M -3 22 R -6 22 R -11 19 R -15 17 R -18 14 R -20 10 R -22 6 R
-22 1 R -22 -4 R -21 -8 R -19 -11 R -17 -16 R -12 -18 R -9 -21 R -5 -22 R
0 -22 R 5 -22 R 9 -21 R 12 -19 R 17 -15 R 19 -12 R 21 -8 R 22 -3 R 22 1 R
22 6 R 20 10 R 18 13 R 15 17 R 11 20 R 6 21 R 3 23 R F
8887 4615 M -2 22 R -7 22 R -11 19 R -14 18 R -18 13 R -20 10 R -22 6 R
-22 1 R -22 -3 R -22 -8 R -19 -12 R -16 -16 R -13 -18 R -9 -21 R -4 -22 R
0 -22 R 4 -22 R 9 -21 R 13 -18 R 16 -16 R 19 -12 R 22 -7 R 22 -4 R 22 1 R
22 6 R 20 10 R 18 14 R 14 17 R 11 19 R 7 22 R 2 22 R F
9456 4324 M -2 22 R -7 22 R -11 19 R -14 17 R -18 14 R -20 10 R -22 5 R
-22 2 R -23 -4 R -21 -8 R -19 -11 R -16 -16 R -13 -18 R -9 -21 R -4 -22 R
0 -22 R 4 -22 R 9 -21 R 13 -19 R 16 -15 R 19 -12 R 21 -8 R 23 -3 R 22 1 R
22 6 R 20 10 R 18 13 R 14 17 R 11 20 R 7 21 R 2 23 R F
9949 3991 M -2 22 R -7 21 R -11 20 R -15 17 R -17 14 R -21 10 R -21 5 R
-23 2 R -22 -4 R -21 -8 R -19 -12 R -16 -15 R -13 -18 R -9 -21 R -5 -22 R
0 -23 R 5 -22 R 9 -20 R 13 -19 R 16 -15 R 19 -12 R 21 -8 R 22 -3 R 23 1 R
21 6 R 21 10 R 17 13 R 15 17 R 11 20 R 7 21 R 2 23 R F
10384 3705 M -3 23 R -6 21 R -11 20 R -15 17 R -18 14 R -20 9 R -22 6 R
-22 1 R -22 -3 R -21 -8 R -19 -12 R -17 -15 R -13 -19 R -8 -20 R -5 -22 R
0 -23 R 5 -22 R 8 -21 R 13 -18 R 17 -15 R 19 -12 R 21 -8 R 22 -3 R 22 1 R
22 5 R 20 10 R 18 14 R 15 17 R 11 20 R 6 21 R 3 22 R F
10772 3602 M -2 22 R -7 22 R -11 19 R -14 17 R -18 14 R -20 10 R -22 6 R
-22 1 R -23 -4 R -21 -7 R -19 -12 R -16 -16 R -13 -18 R -9 -21 R -4 -22 R
0 -22 R 4 -22 R 9 -21 R 13 -18 R 16 -16 R 19 -12 R 21 -8 R 23 -3 R 22 1 R
22 6 R 20 10 R 18 13 R 14 17 R 11 20 R 7 22 R 2 22 R F
%%PageTrailer
end
%%PageResources: font Helvetica
%%+ font Times-Italic
%%+ font Times-Roman
%%Trailer
%%Pages: 1
%%DocumentNeededResources: font Helvetica
%%+ font Times-Italic
%%+ font Times-Roman
%%EOF
