%!PS-Adobe-3.0 EPSF-3.0
%%BoundingBox: 0 0 453 623
%%Title: Graphics produced by IDL
%%For: vrs@freya01, /freya/u/vrs/Coding/gpu_testbed/idl
%%Creator: IDL Version 8.5.1 (linux x86_64 m64)
%%CreationDate: Sun Jul 17 14:03:59 2022
%%DocumentData: Clean7bit
%%Requirements: color
%%LanguageLevel: 1
%%PageOrder: Ascend
%%Pages: (atend)
%%DocumentNeededResources: (atend)
%%EndComments
%%BeginProlog
%+ prolog.ps -- Prolog for IDL generated PostScript files
%+ Copyright (c) 1988-2015 Exelis Visual Information Solutions, Inc. All Rights Reserved.
%v 5
/$IDL_DICT 40 dict def $IDL_DICT begin /bdef { bind def } bind def /C
{currentpoint newpath moveto} bdef /CP {currentpoint} bdef /D {currentpoint
stroke moveto} bdef /F {closepath fill} bdef /K { setgray } bdef /M {moveto}
bdef /N {rmoveto} bdef /P {lineto} bdef /R {rlineto} bdef /S {gsave show
grestore} bdef /X {currentpoint pop} bdef /Z {gsave currentpoint lineto 20
setlinewidth 1 setlinecap stroke grestore} bdef /L0 {[] 0 setdash} bdef /L1
{[40 100] 0 setdash} bdef /L2 {[200 200] 0 setdash} bdef /L3 {[200 100 50
100] 0 setdash} bdef /L4 {[300 100 50 100 50 100 50 100] 0 setdash} bdef /L5
{[400 200] 0 setdash} bdef /STDFONT { findfont exch scalefont setfont } bdef
/ISOFONT { findfont dup length dict begin { 1 index /FID ne {def} {pop pop}
ifelse } forall /Encoding ISOLatin1Encoding def currentdict end /idltmpfont
exch definefont exch scalefont setfont } bdef /ISOBULLET { gsave /Helvetica
findfont exch scalefont setfont (\267) show currentpoint grestore moveto}
bdef /MITERLIMIT { 2.5 setmiterlimit } bdef end
%%EndProlog
%%Page: 0 1
%%PageRequirements: color
%%PageResources: (atend)
%%PageOrientation: Portrait
%%PageBoundingBox: 0 0 453 623
%%BeginPageSetup
$IDL_DICT begin 0.0283465 dup scale MITERLIMIT
%%IncludeResource: font Helvetica
423.333 /Helvetica STDFONT
%%EndPageSetup
30 setlinewidth L0 0.000 0.000 0.000 setrgbcolor 2131 1690 M 13070 0 R D
2131 1690 M 0 584 R D gsave 2131 1056 translate 0 0 M 1.2 dup scale
-411.903 0 N
(0.01) show grestore 8534 1690 M 0 584 R D gsave 8534 1056 translate 0 0 M
1.2 dup scale -411.903 0 N
(0.10) show grestore 14936 1690 M 0 584 R D gsave 14936 1056 translate 0 0 M
1.2 dup scale -411.903 0 N
(1.00) show grestore 4059 1690 M 0 292 R D 5186 1690 M 0 292 R D 5986 1690 M
0 292 R D 6606 1690 M 0 292 R D 7113 1690 M 0 292 R D 7542 1690 M 0 292 R D
7913 1690 M 0 292 R D 8241 1690 M 0 292 R D 10461 1690 M 0 292 R D
11588 1690 M 0 292 R D 12388 1690 M 0 292 R D 13009 1690 M 0 292 R D
13516 1690 M 0 292 R D 13944 1690 M 0 292 R D 14315 1690 M 0 292 R D
14643 1690 M 0 292 R D gsave 8666 507 translate 0 0 M 1.2 dup scale
-58.8433 0 N
%%IncludeResource: font Times-Italic
423.333 /Times-Italic STDFONT
(t) show
%%IncludeResource: font Helvetica
423.333 /Helvetica STDFONT grestore 2131 21155 M 13070 0 R D 2131 21155 M
0 -584 R D 8534 21155 M 0 -584 R D 14936 21155 M 0 -584 R D 4059 21155 M
0 -292 R D 5186 21155 M 0 -292 R D 5986 21155 M 0 -292 R D 6606 21155 M
0 -292 R D 7113 21155 M 0 -292 R D 7542 21155 M 0 -292 R D 7913 21155 M
0 -292 R D 8241 21155 M 0 -292 R D 10461 21155 M 0 -292 R D 11588 21155 M
0 -292 R D 12388 21155 M 0 -292 R D 13009 21155 M 0 -292 R D 13516 21155 M
0 -292 R D 13944 21155 M 0 -292 R D 14315 21155 M 0 -292 R D 14643 21155 M
0 -292 R D 2131 1690 M 0 19465 R D 2131 1690 M 392 0 R D
gsave 1998 1690 translate 0 0 M 1.2 dup scale -823.807 0 N
(0.01) show grestore 2131 9171 M 392 0 R D gsave 1998 9002 translate 0 0 M
1.2 dup scale -823.807 0 N
(0.10) show grestore 2131 16651 M 392 0 R D gsave 1998 16482 translate 0 0 M
1.2 dup scale -823.807 0 N
(1.00) show grestore 2131 3942 M 196 0 R D 2131 5259 M 196 0 R D 2131 6194 M
196 0 R D 2131 6919 M 196 0 R D 2131 7511 M 196 0 R D 2131 8012 M 196 0 R D
2131 8446 M 196 0 R D 2131 8828 M 196 0 R D 2131 11423 M 196 0 R D
2131 12740 M 196 0 R D 2131 13674 M 196 0 R D 2131 14399 M 196 0 R D
2131 14992 M 196 0 R D 2131 15493 M 196 0 R D 2131 15926 M 196 0 R D
2131 16309 M 196 0 R D 2131 18903 M 196 0 R D 2131 20221 M 196 0 R D
2131 21155 M 196 0 R D gsave 610 11423 translate 0 0 M 90 rotate
1.2 dup scale -235.162 0 N
%%IncludeResource: font Times-Roman
423.333 /Times-Roman STDFONT
(L1) show
%%IncludeResource: font Helvetica
423.333 /Helvetica STDFONT grestore 15201 1690 M 0 19465 R D 15201 1690 M
-392 0 R D 15201 9171 M -392 0 R D 15201 16651 M -392 0 R D 15201 3942 M
-196 0 R D 15201 5259 M -196 0 R D 15201 6194 M -196 0 R D 15201 6919 M
-196 0 R D 15201 7511 M -196 0 R D 15201 8012 M -196 0 R D 15201 8446 M
-196 0 R D 15201 8828 M -196 0 R D 15201 11423 M -196 0 R D 15201 12740 M
-196 0 R D 15201 13674 M -196 0 R D 15201 14399 M -196 0 R D 15201 14992 M
-196 0 R D 15201 15493 M -196 0 R D 15201 15926 M -196 0 R D 15201 16309 M
-196 0 R D 15201 18903 M -196 0 R D 15201 20221 M -196 0 R D 15201 21155 M
-196 0 R D 0.471 0.471 0.863 setrgbcolor 4723 15897 M 0 9 R -3 8 R -5 8 R
-5 7 R -8 5 R -8 4 R -8 3 R -9 0 R -9 -1 R -9 -3 R -7 -5 R -7 -6 R -5 -8 R
-3 -8 R -2 -9 R 0 -9 R 2 -9 R 3 -8 R 5 -7 R 7 -6 R 7 -5 R 9 -3 R 9 -2 R
9 1 R 8 2 R 8 4 R 8 6 R 5 6 R 5 8 R 3 9 R 0 9 R F
6651 16931 M -1 9 R -3 8 R -4 8 R -6 7 R -7 5 R -8 4 R -9 3 R -9 0 R -9 -1 R
-8 -3 R -8 -5 R -6 -6 R -6 -8 R -3 -8 R -2 -9 R 0 -9 R 2 -9 R 3 -8 R 6 -7 R
6 -6 R 8 -5 R 8 -3 R 9 -2 R 9 1 R 9 2 R 8 4 R 7 5 R 6 7 R 4 8 R 3 9 R 1 9 R
F
7778 17407 M -1 9 R -3 8 R -4 8 R -6 7 R -7 5 R -8 4 R -9 2 R -9 1 R -8 -1 R
-9 -4 R -7 -4 R -7 -6 R -5 -8 R -4 -8 R -1 -9 R 0 -9 R 1 -9 R 4 -8 R 5 -7 R
7 -7 R 7 -4 R 9 -3 R 8 -2 R 9 1 R 9 2 R 8 4 R 7 5 R 6 7 R 4 8 R 3 9 R 1 9 R
F
8578 17654 M -1 9 R -3 9 R -4 7 R -6 7 R -7 6 R -8 4 R -9 2 R -9 0 R -9 -1 R
-8 -3 R -8 -5 R -6 -6 R -5 -7 R -4 -9 R -2 -8 R 0 -9 R 2 -9 R 4 -9 R 5 -7 R
6 -6 R 8 -5 R 8 -3 R 9 -1 R 9 0 R 9 2 R 8 4 R 7 6 R 6 7 R 4 8 R 3 8 R 1 9 R
F
9198 17790 M 0 9 R -3 8 R -5 8 R -5 7 R -7 5 R -9 4 R -8 2 R -9 1 R -9 -1 R
-9 -4 R -7 -4 R -7 -6 R -5 -8 R -3 -8 R -2 -9 R 0 -9 R 2 -9 R 3 -8 R 5 -7 R
7 -7 R 7 -4 R 9 -3 R 9 -2 R 9 1 R 8 2 R 9 4 R 7 5 R 5 7 R 5 8 R 3 9 R 0 9 R
F
9705 17866 M -1 9 R -2 8 R -5 8 R -5 7 R -8 6 R -8 3 R -8 3 R -9 0 R -9 -1 R
-9 -3 R -7 -5 R -7 -6 R -5 -8 R -3 -8 R -2 -9 R 0 -9 R 2 -8 R 3 -9 R 5 -7 R
7 -6 R 7 -5 R 9 -3 R 9 -2 R 9 1 R 8 2 R 8 4 R 8 6 R 5 6 R 5 8 R 2 9 R 1 9 R
F
10134 17909 M -1 9 R -3 9 R -4 8 R -6 7 R -7 5 R -8 4 R -9 2 R -9 1 R
-9 -2 R -8 -3 R -8 -5 R -6 -6 R -5 -7 R -4 -8 R -2 -9 R 0 -9 R 2 -9 R 4 -8 R
5 -8 R 6 -6 R 8 -5 R 8 -3 R 9 -1 R 9 0 R 9 3 R 8 4 R 7 5 R 6 7 R 4 8 R 3 8 R
1 9 R F
10505 17934 M -1 9 R -2 9 R -5 8 R -6 7 R -7 5 R -8 4 R -8 2 R -9 1 R
-9 -2 R -9 -3 R -7 -5 R -7 -6 R -5 -7 R -4 -8 R -1 -9 R 0 -9 R 1 -9 R 4 -8 R
5 -8 R 7 -6 R 7 -5 R 9 -3 R 9 -1 R 9 0 R 8 3 R 8 4 R 7 5 R 6 7 R 5 8 R 2 8 R
1 9 R F
10833 17949 M -1 9 R -3 8 R -4 8 R -6 7 R -7 5 R -8 4 R -9 3 R -9 0 R
-9 -1 R -8 -3 R -8 -5 R -6 -6 R -5 -8 R -4 -8 R -2 -9 R 0 -9 R 2 -9 R 4 -8 R
5 -7 R 6 -6 R 8 -5 R 8 -3 R 9 -2 R 9 1 R 9 2 R 8 4 R 7 6 R 6 6 R 4 8 R 3 9 R
1 9 R F
11126 17957 M -1 9 R -3 9 R -4 8 R -6 6 R -7 6 R -8 4 R -9 2 R -9 0 R
-9 -1 R -8 -3 R -8 -5 R -6 -6 R -6 -7 R -3 -9 R -2 -8 R 0 -9 R 2 -9 R 3 -8 R
6 -8 R 6 -6 R 8 -5 R 8 -3 R 9 -1 R 9 0 R 9 3 R 8 3 R 7 6 R 6 7 R 4 8 R 3 8 R
1 9 R F
11391 17962 M -1 9 R -3 9 R -4 7 R -6 7 R -7 6 R -8 4 R -9 2 R -9 0 R
-9 -1 R -8 -3 R -8 -5 R -6 -6 R -6 -7 R -3 -9 R -2 -9 R 0 -8 R 2 -9 R 3 -9 R
6 -7 R 6 -6 R 8 -5 R 8 -3 R 9 -1 R 9 0 R 9 2 R 8 4 R 7 6 R 6 7 R 4 7 R 3 9 R
1 9 R F
11633 17965 M -1 9 R -3 8 R -4 8 R -6 7 R -7 5 R -8 4 R -9 3 R -9 0 R
-9 -1 R -8 -3 R -8 -5 R -6 -6 R -6 -8 R -3 -8 R -2 -9 R 0 -9 R 2 -8 R 3 -9 R
6 -7 R 6 -6 R 8 -5 R 8 -3 R 9 -2 R 9 1 R 9 2 R 8 4 R 7 6 R 6 6 R 4 8 R 3 9 R
1 9 R F
11855 17966 M -1 9 R -2 9 R -5 8 R -6 7 R -7 5 R -8 4 R -8 2 R -9 1 R
-9 -2 R -9 -3 R -7 -4 R -7 -7 R -5 -7 R -4 -8 R -1 -9 R 0 -9 R 1 -9 R 4 -8 R
5 -7 R 7 -7 R 7 -4 R 9 -4 R 9 -1 R 9 1 R 8 2 R 8 4 R 7 5 R 6 7 R 5 8 R 2 9 R
1 8 R F
12061 17967 M -1 9 R -2 9 R -5 8 R -6 7 R -7 5 R -8 4 R -8 2 R -9 1 R
-9 -2 R -9 -3 R -7 -5 R -7 -6 R -5 -7 R -4 -8 R -1 -9 R 0 -9 R 1 -9 R 4 -8 R
5 -8 R 7 -6 R 7 -4 R 9 -4 R 9 -1 R 9 0 R 8 3 R 8 4 R 7 5 R 6 7 R 5 8 R 2 8 R
1 9 R F
12253 17968 M -1 9 R -3 8 R -4 8 R -6 7 R -7 6 R -8 4 R -9 2 R -9 0 R
-8 -1 R -9 -3 R -7 -5 R -7 -6 R -5 -8 R -4 -8 R -1 -9 R 0 -9 R 1 -8 R 4 -9 R
5 -7 R 7 -6 R 7 -5 R 9 -3 R 8 -1 R 9 0 R 9 2 R 8 4 R 7 6 R 6 7 R 4 7 R 3 9 R
1 9 R F
12433 17968 M -1 9 R -3 9 R -4 8 R -6 6 R -7 6 R -8 4 R -9 2 R -9 1 R
-9 -2 R -8 -3 R -8 -5 R -7 -6 R -5 -7 R -3 -8 R -2 -9 R 0 -9 R 2 -9 R 3 -8 R
5 -8 R 7 -6 R 8 -5 R 8 -3 R 9 -1 R 9 0 R 9 3 R 8 4 R 7 5 R 6 7 R 4 8 R 3 8 R
1 9 R F
12601 17968 M -1 9 R -2 9 R -5 8 R -6 7 R -7 5 R -8 4 R -9 2 R -9 1 R
-8 -2 R -9 -3 R -7 -4 R -7 -7 R -5 -7 R -4 -8 R -1 -9 R 0 -9 R 1 -9 R 4 -8 R
5 -7 R 7 -7 R 7 -4 R 9 -4 R 8 -1 R 9 1 R 9 2 R 8 4 R 7 5 R 6 7 R 5 8 R 2 9 R
1 8 R F
12760 17969 M -1 8 R -3 9 R -4 8 R -6 7 R -7 5 R -8 4 R -9 2 R -9 1 R
-8 -1 R -9 -4 R -8 -4 R -6 -7 R -5 -7 R -4 -8 R -2 -9 R 0 -9 R 2 -9 R 4 -8 R
5 -7 R 6 -7 R 8 -4 R 9 -3 R 8 -2 R 9 1 R 9 2 R 8 4 R 7 5 R 6 7 R 4 8 R 3 9 R
1 9 R F
12910 17969 M -1 9 R -2 8 R -5 8 R -5 7 R -8 5 R -8 4 R -8 3 R -9 0 R
-9 -1 R -9 -4 R -7 -4 R -7 -6 R -5 -8 R -3 -8 R -2 -9 R 0 -9 R 2 -9 R 3 -8 R
5 -7 R 7 -6 R 7 -5 R 9 -3 R 9 -2 R 9 1 R 8 2 R 8 4 R 8 5 R 5 7 R 5 8 R 2 9 R
1 9 R F
13053 17969 M -1 9 R -3 8 R -4 8 R -6 7 R -7 5 R -8 4 R -9 3 R -9 0 R
-9 -1 R -8 -3 R -8 -5 R -6 -6 R -5 -8 R -4 -8 R -2 -9 R 0 -9 R 2 -9 R 4 -8 R
5 -7 R 6 -6 R 8 -5 R 8 -3 R 9 -2 R 9 1 R 9 2 R 8 4 R 7 5 R 6 7 R 4 8 R 3 9 R
1 9 R F
13189 17969 M -1 9 R -3 8 R -4 8 R -6 7 R -7 5 R -8 4 R -9 3 R -9 0 R
-9 -1 R -8 -3 R -8 -5 R -6 -6 R -6 -8 R -3 -8 R -2 -9 R 0 -9 R 2 -9 R 3 -8 R
6 -7 R 6 -6 R 8 -5 R 8 -3 R 9 -2 R 9 1 R 9 2 R 8 4 R 7 6 R 6 6 R 4 8 R 3 9 R
1 9 R F
13318 17969 M -1 9 R -3 8 R -4 8 R -6 7 R -7 5 R -8 4 R -9 3 R -9 0 R
-9 -1 R -8 -3 R -8 -5 R -6 -6 R -5 -8 R -4 -8 R -2 -9 R 0 -9 R 2 -9 R 4 -8 R
5 -7 R 6 -6 R 8 -5 R 8 -3 R 9 -2 R 9 1 R 9 2 R 8 4 R 7 6 R 6 6 R 4 8 R 3 9 R
1 9 R F
13442 17969 M -1 9 R -3 8 R -4 8 R -6 7 R -7 5 R -8 4 R -9 3 R -9 0 R
-9 -1 R -8 -3 R -8 -5 R -6 -6 R -6 -8 R -3 -8 R -2 -9 R 0 -9 R 2 -9 R 3 -8 R
6 -7 R 6 -6 R 8 -5 R 8 -3 R 9 -2 R 9 1 R 9 2 R 8 4 R 7 6 R 6 6 R 4 8 R 3 9 R
1 9 R F
13560 17969 M -1 9 R -3 8 R -4 8 R -6 7 R -7 5 R -8 4 R -9 3 R -9 0 R
-9 -1 R -8 -3 R -8 -5 R -6 -6 R -5 -8 R -4 -8 R -2 -9 R 0 -9 R 2 -9 R 4 -8 R
5 -7 R 6 -6 R 8 -5 R 8 -3 R 9 -2 R 9 1 R 9 2 R 8 4 R 7 6 R 6 6 R 4 8 R 3 9 R
1 9 R F
13673 17969 M 0 9 R -3 8 R -5 8 R -5 7 R -7 5 R -9 4 R -8 3 R -9 0 R -9 -1 R
-9 -3 R -7 -5 R -7 -6 R -5 -8 R -3 -8 R -2 -9 R 0 -9 R 2 -9 R 3 -8 R 5 -7 R
7 -6 R 7 -5 R 9 -3 R 9 -2 R 9 1 R 8 2 R 9 4 R 7 6 R 5 6 R 5 8 R 3 9 R 0 9 R
F
13782 17969 M 0 9 R -3 8 R -4 8 R -6 7 R -7 5 R -8 4 R -9 3 R -9 0 R -9 -1 R
-8 -3 R -8 -5 R -7 -6 R -5 -8 R -3 -8 R -2 -9 R 0 -9 R 2 -9 R 3 -8 R 5 -7 R
7 -6 R 8 -5 R 8 -3 R 9 -2 R 9 1 R 9 2 R 8 4 R 7 6 R 6 6 R 4 8 R 3 9 R 0 9 R
F
13887 17969 M 0 9 R -3 8 R -5 8 R -5 7 R -7 5 R -9 4 R -8 3 R -9 0 R -9 -1 R
-9 -3 R -7 -5 R -7 -6 R -5 -8 R -3 -8 R -2 -9 R 0 -9 R 2 -9 R 3 -8 R 5 -7 R
7 -6 R 7 -5 R 9 -3 R 9 -2 R 9 1 R 8 2 R 9 4 R 7 6 R 5 6 R 5 8 R 3 9 R 0 9 R
F
13989 17969 M -1 9 R -3 8 R -4 8 R -6 7 R -7 5 R -8 4 R -9 3 R -9 0 R
-9 -1 R -8 -3 R -8 -5 R -7 -6 R -5 -8 R -3 -8 R -2 -9 R 0 -9 R 2 -9 R 3 -8 R
5 -7 R 7 -6 R 8 -5 R 8 -3 R 9 -2 R 9 1 R 9 2 R 8 4 R 7 6 R 6 6 R 4 8 R 3 9 R
1 9 R F
14086 17969 M -1 9 R -2 8 R -5 8 R -6 7 R -7 5 R -8 4 R -9 3 R -9 0 R
-8 -1 R -9 -3 R -7 -5 R -7 -6 R -5 -8 R -4 -8 R -1 -9 R 0 -9 R 1 -9 R 4 -8 R
5 -7 R 7 -6 R 7 -5 R 9 -3 R 8 -2 R 9 1 R 9 2 R 8 4 R 7 6 R 6 6 R 5 8 R 2 9 R
1 9 R F
14180 17969 M -1 9 R -2 8 R -5 8 R -5 7 R -8 5 R -8 4 R -8 3 R -9 0 R
-9 -1 R -9 -3 R -7 -5 R -7 -6 R -5 -8 R -3 -8 R -2 -9 R 0 -9 R 2 -9 R 3 -8 R
5 -7 R 7 -6 R 7 -5 R 9 -3 R 9 -2 R 9 1 R 8 2 R 8 4 R 8 6 R 5 6 R 5 8 R 2 9 R
1 9 R F
14272 17969 M -1 9 R -3 8 R -4 8 R -6 7 R -7 5 R -8 4 R -9 3 R -9 0 R
-9 -1 R -8 -3 R -8 -5 R -7 -6 R -5 -8 R -3 -8 R -2 -9 R 0 -9 R 2 -9 R 3 -8 R
5 -7 R 7 -6 R 8 -5 R 8 -3 R 9 -2 R 9 1 R 9 2 R 8 4 R 7 6 R 6 6 R 4 8 R 3 9 R
1 9 R F
14360 17969 M -1 9 R -3 8 R -4 8 R -6 7 R -7 5 R -8 4 R -9 3 R -9 0 R
-9 -1 R -8 -3 R -8 -5 R -6 -6 R -5 -8 R -4 -8 R -2 -9 R 0 -9 R 2 -9 R 4 -8 R
5 -7 R 6 -6 R 8 -5 R 8 -3 R 9 -2 R 9 1 R 9 2 R 8 4 R 7 6 R 6 6 R 4 8 R 3 9 R
1 9 R F
14445 17969 M -1 9 R -2 8 R -5 8 R -5 7 R -8 5 R -8 4 R -8 3 R -9 0 R
-9 -1 R -9 -3 R -7 -5 R -7 -6 R -5 -8 R -3 -8 R -2 -9 R 0 -9 R 2 -9 R 3 -8 R
5 -7 R 7 -6 R 7 -5 R 9 -3 R 9 -2 R 9 1 R 8 2 R 8 4 R 8 6 R 5 6 R 5 8 R 2 9 R
1 9 R F
14528 17969 M -1 9 R -2 8 R -5 8 R -5 7 R -8 5 R -8 4 R -8 3 R -9 0 R
-9 -1 R -9 -3 R -7 -5 R -7 -6 R -5 -8 R -3 -8 R -2 -9 R 0 -9 R 2 -9 R 3 -8 R
5 -7 R 7 -6 R 7 -5 R 9 -3 R 9 -2 R 9 1 R 8 2 R 8 4 R 8 6 R 5 6 R 5 8 R 2 9 R
1 9 R F
14609 17969 M -1 9 R -3 8 R -4 8 R -6 7 R -7 5 R -8 4 R -9 3 R -9 0 R
-9 -1 R -8 -3 R -8 -5 R -6 -6 R -5 -8 R -4 -8 R -2 -9 R 0 -9 R 2 -9 R 4 -8 R
5 -7 R 6 -6 R 8 -5 R 8 -3 R 9 -2 R 9 1 R 9 2 R 8 4 R 7 6 R 6 6 R 4 8 R 3 9 R
1 9 R F
14687 17969 M -1 9 R -2 8 R -5 8 R -5 7 R -8 5 R -8 4 R -8 3 R -9 0 R
-9 -1 R -9 -3 R -7 -5 R -7 -6 R -5 -8 R -3 -8 R -2 -9 R 0 -9 R 2 -9 R 3 -8 R
5 -7 R 7 -6 R 7 -5 R 9 -3 R 9 -2 R 9 1 R 8 2 R 8 4 R 8 6 R 5 6 R 5 8 R 2 9 R
1 9 R F
14764 17969 M -1 9 R -3 8 R -4 8 R -6 7 R -7 5 R -8 4 R -9 3 R -9 0 R
-9 -1 R -8 -3 R -8 -5 R -7 -6 R -5 -8 R -3 -8 R -2 -9 R 0 -9 R 2 -9 R 3 -8 R
5 -7 R 7 -6 R 8 -5 R 8 -3 R 9 -2 R 9 1 R 9 2 R 8 4 R 7 6 R 6 6 R 4 8 R 3 9 R
1 9 R F
14838 17969 M -1 9 R -3 8 R -4 8 R -6 7 R -7 5 R -8 4 R -9 3 R -9 0 R
-9 -1 R -8 -3 R -8 -5 R -6 -6 R -6 -8 R -3 -8 R -2 -9 R 0 -9 R 2 -9 R 3 -8 R
6 -7 R 6 -6 R 8 -5 R 8 -3 R 9 -2 R 9 1 R 9 2 R 8 4 R 7 6 R 6 6 R 4 8 R 3 9 R
1 9 R F
14910 17969 M -1 9 R -3 8 R -4 8 R -6 7 R -7 5 R -8 4 R -9 3 R -9 0 R
-9 -1 R -8 -3 R -8 -5 R -6 -6 R -5 -8 R -4 -8 R -2 -9 R 0 -9 R 2 -9 R 4 -8 R
5 -7 R 6 -6 R 8 -5 R 8 -3 R 9 -2 R 9 1 R 9 2 R 8 4 R 7 6 R 6 6 R 4 8 R 3 9 R
1 9 R F
14980 17969 M -1 9 R -2 8 R -5 8 R -6 7 R -7 5 R -8 4 R -8 3 R -9 0 R
-9 -1 R -9 -3 R -7 -5 R -7 -6 R -5 -8 R -3 -8 R -2 -9 R 0 -9 R 2 -9 R 3 -8 R
5 -7 R 7 -6 R 7 -5 R 9 -3 R 9 -2 R 9 1 R 8 2 R 8 4 R 7 6 R 6 6 R 5 8 R 2 9 R
1 9 R F
25 setlinewidth 0.804 0.000 0.000 setrgbcolor 2131 14645 M 12805 6388 R D
0.471 0.471 0.863 setrgbcolor gsave 4059 15297 translate 0 0 M
%%IncludeResource: font Times-Italic
423.333 /Times-Italic STDFONT
(p) show
%%IncludeResource: font Times-Roman
423.333 /Times-Roman STDFONT
( = 1) show
%%IncludeResource: font Helvetica
423.333 /Helvetica STDFONT grestore 4723 10547 M 0 9 R -3 8 R -5 8 R -5 7 R
-8 6 R -8 4 R -8 2 R -9 0 R -9 -1 R -9 -3 R -7 -5 R -7 -6 R -5 -8 R -3 -8 R
-2 -9 R 0 -9 R 2 -8 R 3 -9 R 5 -7 R 7 -6 R 7 -5 R 9 -3 R 9 -1 R 9 0 R 8 2 R
8 4 R 8 6 R 5 7 R 5 7 R 3 9 R 0 9 R F
6651 11291 M -1 9 R -3 9 R -4 8 R -6 7 R -7 5 R -8 4 R -9 2 R -9 1 R -9 -2 R
-8 -3 R -8 -5 R -6 -6 R -6 -7 R -3 -8 R -2 -9 R 0 -9 R 2 -9 R 3 -8 R 6 -8 R
6 -6 R 8 -5 R 8 -3 R 9 -1 R 9 0 R 9 3 R 8 4 R 7 5 R 6 7 R 4 8 R 3 8 R 1 9 R
F
7778 11752 M -1 9 R -3 8 R -4 8 R -6 7 R -7 6 R -8 3 R -9 3 R -9 0 R -8 -1 R
-9 -3 R -7 -5 R -7 -6 R -5 -8 R -4 -8 R -1 -9 R 0 -9 R 1 -8 R 4 -9 R 5 -7 R
7 -6 R 7 -5 R 9 -3 R 8 -1 R 9 0 R 9 2 R 8 4 R 7 6 R 6 6 R 4 8 R 3 9 R 1 9 R
F
8578 12075 M -1 9 R -3 9 R -4 8 R -6 7 R -7 5 R -8 4 R -9 2 R -9 1 R -9 -2 R
-8 -3 R -8 -5 R -6 -6 R -5 -7 R -4 -8 R -2 -9 R 0 -9 R 2 -9 R 4 -8 R 5 -8 R
6 -6 R 8 -5 R 8 -3 R 9 -1 R 9 0 R 9 3 R 8 4 R 7 5 R 6 7 R 4 8 R 3 8 R 1 9 R
F
9198 12323 M 0 8 R -3 9 R -5 8 R -5 7 R -7 5 R -9 4 R -8 2 R -9 1 R -9 -2 R
-9 -3 R -7 -4 R -7 -7 R -5 -7 R -3 -8 R -2 -9 R 0 -9 R 2 -9 R 3 -8 R 5 -7 R
7 -7 R 7 -4 R 9 -3 R 9 -2 R 9 1 R 8 2 R 9 4 R 7 5 R 5 7 R 5 8 R 3 9 R 0 9 R
F
9705 12523 M -1 9 R -2 9 R -5 7 R -5 7 R -8 6 R -8 4 R -8 2 R -9 0 R -9 -1 R
-9 -3 R -7 -5 R -7 -6 R -5 -7 R -3 -9 R -2 -8 R 0 -9 R 2 -9 R 3 -8 R 5 -8 R
7 -6 R 7 -5 R 9 -3 R 9 -1 R 9 0 R 8 2 R 8 4 R 8 6 R 5 7 R 5 8 R 2 8 R 1 9 R
F
10134 12689 M -1 9 R -3 9 R -4 8 R -6 6 R -7 6 R -8 4 R -9 2 R -9 1 R
-9 -2 R -8 -3 R -8 -5 R -6 -6 R -5 -7 R -4 -8 R -2 -9 R 0 -9 R 2 -9 R 4 -8 R
5 -8 R 6 -6 R 8 -5 R 8 -3 R 9 -1 R 9 0 R 9 3 R 8 4 R 7 5 R 6 7 R 4 8 R 3 8 R
1 9 R F
10505 12832 M -1 9 R -2 8 R -5 8 R -6 7 R -7 6 R -8 4 R -8 2 R -9 0 R
-9 -1 R -9 -3 R -7 -5 R -7 -6 R -5 -8 R -4 -8 R -1 -9 R 0 -9 R 1 -8 R 4 -9 R
5 -7 R 7 -6 R 7 -5 R 9 -3 R 9 -1 R 9 0 R 8 2 R 8 4 R 7 6 R 6 7 R 5 7 R 2 9 R
1 9 R F
10833 12959 M -1 9 R -3 9 R -4 8 R -6 7 R -7 5 R -8 4 R -9 2 R -9 1 R
-9 -2 R -8 -3 R -8 -5 R -6 -6 R -5 -7 R -4 -8 R -2 -9 R 0 -9 R 2 -9 R 4 -8 R
5 -8 R 6 -6 R 8 -5 R 8 -3 R 9 -1 R 9 0 R 9 3 R 8 4 R 7 5 R 6 7 R 4 8 R 3 8 R
1 9 R F
11126 13074 M -1 9 R -3 8 R -4 8 R -6 7 R -7 5 R -8 4 R -9 2 R -9 1 R
-9 -1 R -8 -4 R -8 -4 R -6 -7 R -6 -7 R -3 -8 R -2 -9 R 0 -9 R 2 -9 R 3 -8 R
6 -7 R 6 -7 R 8 -4 R 8 -3 R 9 -2 R 9 1 R 9 2 R 8 4 R 7 5 R 6 7 R 4 8 R 3 9 R
1 9 R F
11391 13177 M -1 9 R -3 8 R -4 8 R -6 7 R -7 5 R -8 4 R -9 3 R -9 0 R
-9 -1 R -8 -3 R -8 -5 R -6 -6 R -6 -8 R -3 -8 R -2 -9 R 0 -9 R 2 -9 R 3 -8 R
6 -7 R 6 -6 R 8 -5 R 8 -3 R 9 -2 R 9 1 R 9 2 R 8 4 R 7 5 R 6 7 R 4 8 R 3 9 R
1 9 R F
11633 13273 M -1 9 R -3 8 R -4 8 R -6 7 R -7 5 R -8 4 R -9 3 R -9 0 R
-9 -1 R -8 -4 R -8 -4 R -6 -6 R -6 -8 R -3 -8 R -2 -9 R 0 -9 R 2 -9 R 3 -8 R
6 -7 R 6 -6 R 8 -5 R 8 -3 R 9 -2 R 9 1 R 9 2 R 8 4 R 7 5 R 6 7 R 4 8 R 3 9 R
1 9 R F
11855 13362 M -1 9 R -2 9 R -5 8 R -6 6 R -7 6 R -8 4 R -8 2 R -9 1 R
-9 -2 R -9 -3 R -7 -5 R -7 -6 R -5 -7 R -4 -9 R -1 -8 R 0 -9 R 1 -9 R 4 -8 R
5 -8 R 7 -6 R 7 -5 R 9 -3 R 9 -1 R 9 0 R 8 3 R 8 3 R 7 6 R 6 7 R 5 8 R 2 8 R
1 9 R F
12061 13445 M -1 9 R -2 8 R -5 8 R -6 7 R -7 5 R -8 4 R -8 3 R -9 0 R
-9 -1 R -9 -4 R -7 -4 R -7 -6 R -5 -8 R -4 -8 R -1 -9 R 0 -9 R 1 -9 R 4 -8 R
5 -7 R 7 -6 R 7 -5 R 9 -3 R 9 -2 R 9 1 R 8 2 R 8 4 R 7 5 R 6 7 R 5 8 R 2 9 R
1 9 R F
12253 13522 M -1 9 R -3 8 R -4 8 R -6 7 R -7 5 R -8 4 R -9 3 R -9 0 R
-8 -1 R -9 -3 R -7 -5 R -7 -6 R -5 -8 R -4 -8 R -1 -9 R 0 -9 R 1 -9 R 4 -8 R
5 -7 R 7 -6 R 7 -5 R 9 -3 R 8 -2 R 9 1 R 9 2 R 8 4 R 7 5 R 6 7 R 4 8 R 3 9 R
1 9 R F
12433 13593 M -1 9 R -3 9 R -4 8 R -6 7 R -7 5 R -8 4 R -9 2 R -9 1 R
-9 -2 R -8 -3 R -8 -4 R -7 -7 R -5 -7 R -3 -8 R -2 -9 R 0 -9 R 2 -9 R 3 -8 R
5 -7 R 7 -7 R 8 -4 R 8 -4 R 9 -1 R 9 1 R 9 2 R 8 4 R 7 5 R 6 7 R 4 8 R 3 9 R
1 8 R F
12601 13661 M -1 9 R -2 8 R -5 8 R -6 7 R -7 5 R -8 4 R -9 3 R -9 0 R
-8 -1 R -9 -4 R -7 -4 R -7 -6 R -5 -8 R -4 -8 R -1 -9 R 0 -9 R 1 -9 R 4 -8 R
5 -7 R 7 -6 R 7 -5 R 9 -3 R 8 -2 R 9 1 R 9 2 R 8 4 R 7 5 R 6 7 R 5 8 R 2 9 R
1 9 R F
12760 13723 M -1 9 R -3 9 R -4 8 R -6 7 R -7 5 R -8 4 R -9 2 R -9 1 R
-8 -2 R -9 -3 R -8 -4 R -6 -7 R -5 -7 R -4 -8 R -2 -9 R 0 -9 R 2 -9 R 4 -8 R
5 -7 R 6 -7 R 8 -4 R 9 -4 R 8 -1 R 9 1 R 9 2 R 8 4 R 7 5 R 6 7 R 4 8 R 3 9 R
1 8 R F
12910 13782 M -1 9 R -2 9 R -5 8 R -5 7 R -8 5 R -8 4 R -8 2 R -9 1 R
-9 -2 R -9 -3 R -7 -4 R -7 -7 R -5 -7 R -3 -8 R -2 -9 R 0 -9 R 2 -9 R 3 -8 R
5 -7 R 7 -7 R 7 -4 R 9 -4 R 9 -1 R 9 1 R 8 2 R 8 4 R 8 5 R 5 7 R 5 8 R 2 9 R
1 8 R F
13053 13838 M -1 9 R -3 9 R -4 7 R -6 7 R -7 6 R -8 4 R -9 2 R -9 0 R
-9 -1 R -8 -3 R -8 -5 R -6 -6 R -5 -7 R -4 -9 R -2 -8 R 0 -9 R 2 -9 R 4 -9 R
5 -7 R 6 -6 R 8 -5 R 8 -3 R 9 -1 R 9 0 R 9 2 R 8 4 R 7 6 R 6 7 R 4 8 R 3 8 R
1 9 R F
13189 13890 M -1 9 R -3 9 R -4 8 R -6 6 R -7 6 R -8 4 R -9 2 R -9 1 R
-9 -2 R -8 -3 R -8 -5 R -6 -6 R -6 -7 R -3 -8 R -2 -9 R 0 -9 R 2 -9 R 3 -8 R
6 -8 R 6 -6 R 8 -5 R 8 -3 R 9 -1 R 9 0 R 9 3 R 8 4 R 7 5 R 6 7 R 4 8 R 3 8 R
1 9 R F
13318 13940 M -1 9 R -3 8 R -4 8 R -6 7 R -7 6 R -8 4 R -9 2 R -9 0 R
-9 -1 R -8 -3 R -8 -5 R -6 -6 R -5 -8 R -4 -8 R -2 -9 R 0 -9 R 2 -8 R 4 -9 R
5 -7 R 6 -6 R 8 -5 R 8 -3 R 9 -1 R 9 0 R 9 2 R 8 4 R 7 6 R 6 7 R 4 7 R 3 9 R
1 9 R F
13442 13987 M -1 9 R -3 8 R -4 8 R -6 7 R -7 6 R -8 4 R -9 2 R -9 0 R
-9 -1 R -8 -3 R -8 -5 R -6 -6 R -6 -8 R -3 -8 R -2 -9 R 0 -9 R 2 -8 R 3 -9 R
6 -7 R 6 -6 R 8 -5 R 8 -3 R 9 -1 R 9 0 R 9 2 R 8 4 R 7 6 R 6 7 R 4 7 R 3 9 R
1 9 R F
13560 14032 M -1 9 R -3 8 R -4 8 R -6 7 R -7 5 R -8 4 R -9 2 R -9 1 R
-9 -1 R -8 -4 R -8 -4 R -6 -7 R -5 -7 R -4 -8 R -2 -9 R 0 -9 R 2 -9 R 4 -8 R
5 -7 R 6 -7 R 8 -4 R 8 -3 R 9 -2 R 9 1 R 9 2 R 8 4 R 7 5 R 6 7 R 4 8 R 3 9 R
1 9 R F
13673 14074 M 0 9 R -3 9 R -5 7 R -5 7 R -7 6 R -9 4 R -8 2 R -9 0 R -9 -1 R
-9 -3 R -7 -5 R -7 -6 R -5 -7 R -3 -9 R -2 -8 R 0 -9 R 2 -9 R 3 -8 R 5 -8 R
7 -6 R 7 -5 R 9 -3 R 9 -1 R 9 0 R 8 2 R 9 4 R 7 6 R 5 7 R 5 8 R 3 8 R 0 9 R
F
13782 14115 M 0 9 R -3 9 R -4 7 R -6 7 R -7 6 R -8 4 R -9 2 R -9 0 R -9 -1 R
-8 -3 R -8 -5 R -7 -6 R -5 -7 R -3 -9 R -2 -8 R 0 -9 R 2 -9 R 3 -8 R 5 -8 R
7 -6 R 8 -5 R 8 -3 R 9 -1 R 9 0 R 9 2 R 8 4 R 7 6 R 6 7 R 4 8 R 3 8 R 0 9 R
F
13887 14154 M 0 9 R -3 9 R -5 8 R -5 7 R -7 5 R -9 4 R -8 2 R -9 1 R -9 -2 R
-9 -3 R -7 -4 R -7 -7 R -5 -7 R -3 -8 R -2 -9 R 0 -9 R 2 -9 R 3 -8 R 5 -7 R
7 -7 R 7 -4 R 9 -4 R 9 -1 R 9 1 R 8 2 R 9 4 R 7 5 R 5 7 R 5 8 R 3 9 R 0 8 R
F
13989 14193 M -1 9 R -3 8 R -4 8 R -6 7 R -7 6 R -8 4 R -9 2 R -9 0 R
-9 -1 R -8 -3 R -8 -5 R -7 -6 R -5 -8 R -3 -8 R -2 -9 R 0 -9 R 2 -8 R 3 -9 R
5 -7 R 7 -6 R 8 -5 R 8 -3 R 9 -1 R 9 0 R 9 2 R 8 4 R 7 6 R 6 7 R 4 7 R 3 9 R
1 9 R F
14086 14231 M -1 9 R -2 8 R -5 8 R -6 7 R -7 5 R -8 4 R -9 3 R -9 0 R
-8 -1 R -9 -3 R -7 -5 R -7 -6 R -5 -8 R -4 -8 R -1 -9 R 0 -9 R 1 -9 R 4 -8 R
5 -7 R 7 -6 R 7 -5 R 9 -3 R 8 -2 R 9 1 R 9 2 R 8 4 R 7 6 R 6 6 R 5 8 R 2 9 R
1 9 R F
14180 14267 M -1 9 R -2 8 R -5 8 R -5 7 R -8 6 R -8 4 R -8 2 R -9 0 R
-9 -1 R -9 -3 R -7 -5 R -7 -6 R -5 -8 R -3 -8 R -2 -9 R 0 -9 R 2 -8 R 3 -9 R
5 -7 R 7 -6 R 7 -5 R 9 -3 R 9 -1 R 9 0 R 8 2 R 8 4 R 8 6 R 5 7 R 5 7 R 2 9 R
1 9 R F
14272 14301 M -1 9 R -3 9 R -4 8 R -6 7 R -7 5 R -8 4 R -9 2 R -9 1 R
-9 -2 R -8 -3 R -8 -4 R -7 -7 R -5 -7 R -3 -8 R -2 -9 R 0 -9 R 2 -9 R 3 -8 R
5 -7 R 7 -7 R 8 -4 R 8 -4 R 9 -1 R 9 1 R 9 2 R 8 4 R 7 5 R 6 7 R 4 8 R 3 9 R
1 8 R F
14360 14335 M -1 9 R -3 8 R -4 8 R -6 7 R -7 6 R -8 3 R -9 3 R -9 0 R
-9 -1 R -8 -3 R -8 -5 R -6 -6 R -5 -8 R -4 -8 R -2 -9 R 0 -9 R 2 -8 R 4 -9 R
5 -7 R 6 -6 R 8 -5 R 8 -3 R 9 -2 R 9 1 R 9 2 R 8 4 R 7 6 R 6 6 R 4 8 R 3 9 R
1 9 R F
14445 14367 M -1 9 R -2 8 R -5 8 R -5 7 R -8 5 R -8 4 R -8 3 R -9 0 R
-9 -1 R -9 -3 R -7 -5 R -7 -6 R -5 -8 R -3 -8 R -2 -9 R 0 -9 R 2 -8 R 3 -9 R
5 -7 R 7 -6 R 7 -5 R 9 -3 R 9 -2 R 9 1 R 8 2 R 8 4 R 8 6 R 5 6 R 5 8 R 2 9 R
1 9 R F
14528 14398 M -1 9 R -2 8 R -5 8 R -5 7 R -8 5 R -8 4 R -8 3 R -9 0 R
-9 -1 R -9 -3 R -7 -5 R -7 -6 R -5 -8 R -3 -8 R -2 -9 R 0 -9 R 2 -9 R 3 -8 R
5 -7 R 7 -6 R 7 -5 R 9 -3 R 9 -2 R 9 1 R 8 2 R 8 4 R 8 6 R 5 6 R 5 8 R 2 9 R
1 9 R F
14609 14427 M -1 9 R -3 9 R -4 8 R -6 7 R -7 5 R -8 4 R -9 2 R -9 1 R
-9 -2 R -8 -3 R -8 -4 R -6 -7 R -5 -7 R -4 -8 R -2 -9 R 0 -9 R 2 -9 R 4 -8 R
5 -7 R 6 -7 R 8 -4 R 8 -3 R 9 -2 R 9 1 R 9 2 R 8 4 R 7 5 R 6 7 R 4 8 R 3 9 R
1 8 R F
14687 14456 M -1 9 R -2 9 R -5 7 R -5 7 R -8 6 R -8 4 R -8 2 R -9 0 R
-9 -1 R -9 -3 R -7 -5 R -7 -6 R -5 -7 R -3 -9 R -2 -8 R 0 -9 R 2 -9 R 3 -8 R
5 -8 R 7 -6 R 7 -5 R 9 -3 R 9 -1 R 9 0 R 8 2 R 8 4 R 8 6 R 5 7 R 5 8 R 2 8 R
1 9 R F
14764 14484 M -1 9 R -3 8 R -4 8 R -6 7 R -7 5 R -8 4 R -9 3 R -9 0 R
-9 -1 R -8 -3 R -8 -5 R -7 -6 R -5 -8 R -3 -8 R -2 -9 R 0 -9 R 2 -8 R 3 -9 R
5 -7 R 7 -6 R 8 -5 R 8 -3 R 9 -2 R 9 1 R 9 2 R 8 4 R 7 6 R 6 6 R 4 8 R 3 9 R
1 9 R F
14838 14511 M -1 9 R -3 8 R -4 8 R -6 7 R -7 5 R -8 4 R -9 3 R -9 0 R
-9 -1 R -8 -3 R -8 -5 R -6 -6 R -6 -8 R -3 -8 R -2 -9 R 0 -9 R 2 -8 R 3 -9 R
6 -7 R 6 -6 R 8 -5 R 8 -3 R 9 -2 R 9 1 R 9 2 R 8 4 R 7 6 R 6 6 R 4 8 R 3 9 R
1 9 R F
14910 14537 M -1 9 R -3 8 R -4 8 R -6 7 R -7 6 R -8 3 R -9 3 R -9 0 R
-9 -1 R -8 -3 R -8 -5 R -6 -6 R -5 -8 R -4 -8 R -2 -9 R 0 -9 R 2 -8 R 4 -9 R
5 -7 R 6 -6 R 8 -5 R 8 -3 R 9 -1 R 9 0 R 9 2 R 8 4 R 7 6 R 6 6 R 4 8 R 3 9 R
1 9 R F
14980 14562 M -1 9 R -2 9 R -5 7 R -6 7 R -7 6 R -8 4 R -8 2 R -9 0 R
-9 -1 R -9 -3 R -7 -5 R -7 -6 R -5 -7 R -3 -9 R -2 -8 R 0 -9 R 2 -9 R 3 -8 R
5 -8 R 7 -6 R 7 -5 R 9 -3 R 9 -1 R 9 0 R 8 2 R 8 4 R 7 6 R 6 7 R 5 8 R 2 8 R
1 9 R F
0.804 0.000 0.000 setrgbcolor 2131 9562 M 12805 5020 R D
0.471 0.471 0.863 setrgbcolor gsave 4059 10009 translate 0 0 M
%%IncludeResource: font Times-Italic
423.333 /Times-Italic STDFONT
(p) show
%%IncludeResource: font Times-Roman
423.333 /Times-Roman STDFONT
( = 2) show
%%IncludeResource: font Helvetica
423.333 /Helvetica STDFONT grestore 4723 8509 M 0 9 R -3 9 R -5 8 R -5 7 R
-8 5 R -8 4 R -8 2 R -9 1 R -9 -2 R -9 -3 R -7 -4 R -7 -7 R -5 -7 R -3 -8 R
-2 -9 R 0 -9 R 2 -9 R 3 -8 R 5 -8 R 7 -6 R 7 -4 R 9 -4 R 9 -1 R 9 1 R 8 2 R
8 4 R 8 5 R 5 7 R 5 8 R 3 8 R 0 9 R F
6651 9169 M -1 9 R -3 9 R -4 8 R -6 6 R -7 6 R -8 4 R -9 2 R -9 1 R -9 -2 R
-8 -3 R -8 -5 R -6 -6 R -6 -7 R -3 -8 R -2 -9 R 0 -9 R 2 -9 R 3 -8 R 6 -8 R
6 -6 R 8 -5 R 8 -3 R 9 -1 R 9 0 R 9 3 R 8 4 R 7 5 R 6 7 R 4 8 R 3 8 R 1 9 R
F
7778 9510 M -1 9 R -3 9 R -4 8 R -6 7 R -7 5 R -8 4 R -9 2 R -9 1 R -8 -2 R
-9 -3 R -7 -4 R -7 -7 R -5 -7 R -4 -8 R -1 -9 R 0 -9 R 1 -9 R 4 -8 R 5 -8 R
7 -6 R 7 -4 R 9 -4 R 8 -1 R 9 1 R 9 2 R 8 4 R 7 5 R 6 7 R 4 8 R 3 8 R 1 9 R
F
8578 9725 M -1 9 R -3 9 R -4 7 R -6 7 R -7 6 R -8 4 R -9 2 R -9 0 R -9 -1 R
-8 -3 R -8 -5 R -6 -6 R -5 -7 R -4 -9 R -2 -8 R 0 -9 R 2 -9 R 4 -8 R 5 -8 R
6 -6 R 8 -5 R 8 -3 R 9 -1 R 9 0 R 9 2 R 8 4 R 7 6 R 6 7 R 4 8 R 3 8 R 1 9 R
F
9198 9877 M 0 9 R -3 9 R -5 8 R -5 7 R -7 5 R -9 4 R -8 2 R -9 1 R -9 -2 R
-9 -3 R -7 -5 R -7 -6 R -5 -7 R -3 -8 R -2 -9 R 0 -9 R 2 -9 R 3 -8 R 5 -8 R
7 -6 R 7 -4 R 9 -4 R 9 -1 R 9 0 R 8 3 R 9 4 R 7 5 R 5 7 R 5 8 R 3 8 R 0 9 R
F
9705 9991 M -1 9 R -2 8 R -5 8 R -5 7 R -8 5 R -8 4 R -8 3 R -9 0 R -9 -1 R
-9 -3 R -7 -5 R -7 -6 R -5 -8 R -3 -8 R -2 -9 R 0 -9 R 2 -8 R 3 -9 R 5 -7 R
7 -6 R 7 -5 R 9 -3 R 9 -2 R 9 1 R 8 2 R 8 4 R 8 6 R 5 6 R 5 8 R 2 9 R 1 9 R
F
10134 10080 M -1 9 R -3 9 R -4 8 R -6 6 R -7 6 R -8 4 R -9 2 R -9 1 R
-9 -2 R -8 -3 R -8 -5 R -6 -6 R -5 -7 R -4 -8 R -2 -9 R 0 -9 R 2 -9 R 4 -8 R
5 -8 R 6 -6 R 8 -5 R 8 -3 R 9 -1 R 9 0 R 9 3 R 8 4 R 7 5 R 6 7 R 4 8 R 3 8 R
1 9 R F
10505 10153 M -1 8 R -2 9 R -5 8 R -6 7 R -7 5 R -8 4 R -8 2 R -9 1 R
-9 -1 R -9 -4 R -7 -4 R -7 -7 R -5 -7 R -4 -8 R -1 -9 R 0 -9 R 1 -9 R 4 -8 R
5 -7 R 7 -7 R 7 -4 R 9 -3 R 9 -2 R 9 1 R 8 2 R 8 4 R 7 5 R 6 7 R 5 8 R 2 9 R
1 9 R F
10833 10213 M -1 8 R -3 9 R -4 8 R -6 7 R -7 5 R -8 4 R -9 2 R -9 1 R
-9 -1 R -8 -4 R -8 -4 R -6 -7 R -5 -7 R -4 -8 R -2 -9 R 0 -9 R 2 -9 R 4 -8 R
5 -7 R 6 -7 R 8 -4 R 8 -3 R 9 -2 R 9 1 R 9 2 R 8 4 R 7 5 R 6 7 R 4 8 R 3 9 R
1 9 R F
11126 10264 M -1 9 R -3 8 R -4 8 R -6 7 R -7 5 R -8 4 R -9 3 R -9 0 R
-9 -1 R -8 -3 R -8 -5 R -6 -6 R -6 -8 R -3 -8 R -2 -9 R 0 -9 R 2 -9 R 3 -8 R
6 -7 R 6 -6 R 8 -5 R 8 -3 R 9 -2 R 9 1 R 9 2 R 8 4 R 7 6 R 6 6 R 4 8 R 3 9 R
1 9 R F
11391 10308 M -1 9 R -3 9 R -4 7 R -6 7 R -7 6 R -8 4 R -9 2 R -9 0 R
-9 -1 R -8 -3 R -8 -5 R -6 -6 R -6 -7 R -3 -9 R -2 -8 R 0 -9 R 2 -9 R 3 -8 R
6 -8 R 6 -6 R 8 -5 R 8 -3 R 9 -1 R 9 0 R 9 2 R 8 4 R 7 6 R 6 7 R 4 8 R 3 8 R
1 9 R F
11633 10347 M -1 9 R -3 9 R -4 8 R -6 6 R -7 6 R -8 4 R -9 2 R -9 1 R
-9 -2 R -8 -3 R -8 -5 R -6 -6 R -6 -7 R -3 -8 R -2 -9 R 0 -9 R 2 -9 R 3 -8 R
6 -8 R 6 -6 R 8 -5 R 8 -3 R 9 -1 R 9 0 R 9 3 R 8 4 R 7 5 R 6 7 R 4 8 R 3 8 R
1 9 R F
11855 10382 M -1 9 R -2 9 R -5 8 R -6 6 R -7 6 R -8 4 R -8 2 R -9 1 R
-9 -2 R -9 -3 R -7 -5 R -7 -6 R -5 -7 R -4 -9 R -1 -8 R 0 -9 R 1 -9 R 4 -8 R
5 -8 R 7 -6 R 7 -5 R 9 -3 R 9 -1 R 9 0 R 8 3 R 8 4 R 7 5 R 6 7 R 5 8 R 2 8 R
1 9 R F
12061 10415 M -1 9 R -2 8 R -5 8 R -6 7 R -7 5 R -8 4 R -8 3 R -9 0 R
-9 -1 R -9 -4 R -7 -4 R -7 -6 R -5 -8 R -4 -8 R -1 -9 R 0 -9 R 1 -9 R 4 -8 R
5 -7 R 7 -6 R 7 -5 R 9 -3 R 9 -2 R 9 1 R 8 2 R 8 4 R 7 5 R 6 7 R 5 8 R 2 9 R
1 9 R F
12253 10445 M -1 9 R -3 8 R -4 8 R -6 7 R -7 6 R -8 4 R -9 2 R -9 0 R
-8 -1 R -9 -3 R -7 -5 R -7 -6 R -5 -7 R -4 -9 R -1 -9 R 0 -9 R 1 -8 R 4 -9 R
5 -7 R 7 -6 R 7 -5 R 9 -3 R 8 -1 R 9 0 R 9 2 R 8 4 R 7 6 R 6 7 R 4 7 R 3 9 R
1 9 R F
12433 10473 M -1 9 R -3 9 R -4 8 R -6 6 R -7 6 R -8 4 R -9 2 R -9 1 R
-9 -2 R -8 -3 R -8 -5 R -7 -6 R -5 -7 R -3 -9 R -2 -8 R 0 -9 R 2 -9 R 3 -8 R
5 -8 R 7 -6 R 8 -5 R 8 -3 R 9 -1 R 9 0 R 9 3 R 8 3 R 7 6 R 6 7 R 4 8 R 3 8 R
1 9 R F
12601 10500 M -1 8 R -2 9 R -5 8 R -6 7 R -7 5 R -8 4 R -9 2 R -9 1 R
-8 -1 R -9 -4 R -7 -4 R -7 -7 R -5 -7 R -4 -8 R -1 -9 R 0 -9 R 1 -9 R 4 -8 R
5 -7 R 7 -7 R 7 -4 R 9 -3 R 8 -2 R 9 1 R 9 2 R 8 4 R 7 5 R 6 7 R 5 8 R 2 9 R
1 9 R F
12760 10524 M -1 9 R -3 9 R -4 8 R -6 6 R -7 6 R -8 4 R -9 2 R -9 1 R
-8 -2 R -9 -3 R -8 -5 R -6 -6 R -5 -7 R -4 -8 R -2 -9 R 0 -9 R 2 -9 R 4 -8 R
5 -8 R 6 -6 R 8 -5 R 9 -3 R 8 -1 R 9 0 R 9 3 R 8 4 R 7 5 R 6 7 R 4 8 R 3 8 R
1 9 R F
12910 10548 M -1 9 R -2 8 R -5 8 R -5 7 R -8 5 R -8 4 R -8 3 R -9 0 R
-9 -1 R -9 -4 R -7 -4 R -7 -6 R -5 -8 R -3 -8 R -2 -9 R 0 -9 R 2 -9 R 3 -8 R
5 -7 R 7 -6 R 7 -5 R 9 -3 R 9 -2 R 9 1 R 8 2 R 8 4 R 8 5 R 5 7 R 5 8 R 2 9 R
1 9 R F
13053 10570 M -1 9 R -3 8 R -4 8 R -6 7 R -7 5 R -8 4 R -9 3 R -9 0 R
-9 -1 R -8 -3 R -8 -5 R -6 -6 R -5 -8 R -4 -8 R -2 -9 R 0 -9 R 2 -8 R 4 -9 R
5 -7 R 6 -6 R 8 -5 R 8 -3 R 9 -2 R 9 1 R 9 2 R 8 4 R 7 6 R 6 6 R 4 8 R 3 9 R
1 9 R F
13189 10591 M -1 9 R -3 9 R -4 8 R -6 6 R -7 6 R -8 4 R -9 2 R -9 0 R
-9 -1 R -8 -3 R -8 -5 R -6 -6 R -6 -7 R -3 -9 R -2 -8 R 0 -9 R 2 -9 R 3 -8 R
6 -8 R 6 -6 R 8 -5 R 8 -3 R 9 -1 R 9 0 R 9 3 R 8 3 R 7 6 R 6 7 R 4 8 R 3 8 R
1 9 R F
13318 10612 M -1 9 R -3 8 R -4 8 R -6 7 R -7 5 R -8 4 R -9 3 R -9 0 R
-9 -1 R -8 -3 R -8 -5 R -6 -6 R -5 -8 R -4 -8 R -2 -9 R 0 -9 R 2 -9 R 4 -8 R
5 -7 R 6 -6 R 8 -5 R 8 -3 R 9 -2 R 9 1 R 9 2 R 8 4 R 7 5 R 6 7 R 4 8 R 3 9 R
1 9 R F
13442 10631 M -1 9 R -3 9 R -4 8 R -6 6 R -7 6 R -8 4 R -9 2 R -9 0 R
-9 -1 R -8 -3 R -8 -5 R -6 -6 R -6 -7 R -3 -9 R -2 -8 R 0 -9 R 2 -9 R 3 -8 R
6 -8 R 6 -6 R 8 -5 R 8 -3 R 9 -1 R 9 0 R 9 3 R 8 3 R 7 6 R 6 7 R 4 8 R 3 8 R
1 9 R F
13560 10650 M -1 9 R -3 8 R -4 8 R -6 7 R -7 5 R -8 4 R -9 3 R -9 0 R
-9 -1 R -8 -3 R -8 -5 R -6 -6 R -5 -8 R -4 -8 R -2 -9 R 0 -9 R 2 -9 R 4 -8 R
5 -7 R 6 -6 R 8 -5 R 8 -3 R 9 -2 R 9 1 R 9 2 R 8 4 R 7 6 R 6 6 R 4 8 R 3 9 R
1 9 R F
13673 10667 M 0 9 R -3 9 R -5 8 R -5 7 R -7 5 R -9 4 R -8 2 R -9 1 R -9 -2 R
-9 -3 R -7 -4 R -7 -7 R -5 -7 R -3 -8 R -2 -9 R 0 -9 R 2 -9 R 3 -8 R 5 -7 R
7 -7 R 7 -4 R 9 -4 R 9 -1 R 9 1 R 8 2 R 9 4 R 7 5 R 5 7 R 5 8 R 3 9 R 0 8 R
F
13782 10684 M 0 9 R -3 9 R -4 8 R -6 7 R -7 5 R -8 4 R -9 2 R -9 1 R -9 -2 R
-8 -3 R -8 -5 R -7 -6 R -5 -7 R -3 -8 R -2 -9 R 0 -9 R 2 -9 R 3 -8 R 5 -8 R
7 -6 R 8 -5 R 8 -3 R 9 -1 R 9 0 R 9 3 R 8 4 R 7 5 R 6 7 R 4 8 R 3 8 R 0 9 R
F
13887 10701 M 0 9 R -3 8 R -5 8 R -5 7 R -7 5 R -9 4 R -8 2 R -9 1 R -9 -1 R
-9 -4 R -7 -4 R -7 -6 R -5 -8 R -3 -8 R -2 -9 R 0 -9 R 2 -9 R 3 -8 R 5 -7 R
7 -7 R 7 -4 R 9 -3 R 9 -2 R 9 1 R 8 2 R 9 4 R 7 5 R 5 7 R 5 8 R 3 9 R 0 9 R
F
13989 10716 M -1 9 R -3 9 R -4 8 R -6 6 R -7 6 R -8 4 R -9 2 R -9 1 R
-9 -2 R -8 -3 R -8 -5 R -7 -6 R -5 -7 R -3 -9 R -2 -8 R 0 -9 R 2 -9 R 3 -8 R
5 -8 R 7 -6 R 8 -5 R 8 -3 R 9 -1 R 9 0 R 9 3 R 8 3 R 7 6 R 6 7 R 4 8 R 3 8 R
1 9 R F
14086 10731 M -1 9 R -2 9 R -5 8 R -6 6 R -7 6 R -8 4 R -9 2 R -9 1 R
-8 -2 R -9 -3 R -7 -5 R -7 -6 R -5 -7 R -4 -8 R -1 -9 R 0 -9 R 1 -9 R 4 -8 R
5 -8 R 7 -6 R 7 -5 R 9 -3 R 8 -1 R 9 0 R 9 3 R 8 4 R 7 5 R 6 7 R 5 8 R 2 8 R
1 9 R F
14180 10746 M -1 9 R -2 8 R -5 8 R -5 7 R -8 5 R -8 4 R -8 3 R -9 0 R
-9 -1 R -9 -3 R -7 -5 R -7 -6 R -5 -8 R -3 -8 R -2 -9 R 0 -9 R 2 -9 R 3 -8 R
5 -7 R 7 -6 R 7 -5 R 9 -3 R 9 -2 R 9 1 R 8 2 R 8 4 R 8 6 R 5 6 R 5 8 R 2 9 R
1 9 R F
14272 10760 M -1 8 R -3 9 R -4 8 R -6 7 R -7 5 R -8 4 R -9 2 R -9 1 R
-9 -1 R -8 -4 R -8 -4 R -7 -7 R -5 -7 R -3 -8 R -2 -9 R 0 -9 R 2 -9 R 3 -8 R
5 -7 R 7 -7 R 8 -4 R 8 -3 R 9 -2 R 9 1 R 9 2 R 8 4 R 7 5 R 6 7 R 4 8 R 3 9 R
1 9 R F
14360 10773 M -1 9 R -3 8 R -4 8 R -6 7 R -7 5 R -8 4 R -9 3 R -9 0 R
-9 -1 R -8 -3 R -8 -5 R -6 -6 R -5 -8 R -4 -8 R -2 -9 R 0 -9 R 2 -9 R 4 -8 R
5 -7 R 6 -6 R 8 -5 R 8 -3 R 9 -2 R 9 1 R 9 2 R 8 4 R 7 6 R 6 6 R 4 8 R 3 9 R
1 9 R F
14445 10785 M -1 9 R -2 9 R -5 8 R -5 7 R -8 5 R -8 4 R -8 2 R -9 1 R
-9 -2 R -9 -3 R -7 -4 R -7 -7 R -5 -7 R -3 -8 R -2 -9 R 0 -9 R 2 -9 R 3 -8 R
5 -7 R 7 -7 R 7 -4 R 9 -3 R 9 -2 R 9 1 R 8 2 R 8 4 R 8 5 R 5 7 R 5 8 R 2 9 R
1 8 R F
14528 10798 M -1 9 R -2 8 R -5 8 R -5 7 R -8 6 R -8 3 R -8 3 R -9 0 R
-9 -1 R -9 -3 R -7 -5 R -7 -6 R -5 -8 R -3 -8 R -2 -9 R 0 -9 R 2 -8 R 3 -9 R
5 -7 R 7 -6 R 7 -5 R 9 -3 R 9 -2 R 9 1 R 8 2 R 8 4 R 8 6 R 5 6 R 5 8 R 2 9 R
1 9 R F
14609 10810 M -1 9 R -3 8 R -4 8 R -6 7 R -7 5 R -8 4 R -9 3 R -9 0 R
-9 -1 R -8 -3 R -8 -5 R -6 -6 R -5 -8 R -4 -8 R -2 -9 R 0 -9 R 2 -9 R 4 -8 R
5 -7 R 6 -6 R 8 -5 R 8 -3 R 9 -2 R 9 1 R 9 2 R 8 4 R 7 6 R 6 6 R 4 8 R 3 9 R
1 9 R F
14687 10821 M -1 9 R -2 9 R -5 8 R -5 6 R -8 6 R -8 4 R -8 2 R -9 0 R
-9 -1 R -9 -3 R -7 -5 R -7 -6 R -5 -7 R -3 -9 R -2 -8 R 0 -9 R 2 -9 R 3 -8 R
5 -8 R 7 -6 R 7 -5 R 9 -3 R 9 -1 R 9 0 R 8 3 R 8 3 R 8 6 R 5 7 R 5 8 R 2 8 R
1 9 R F
14764 10833 M -1 8 R -3 9 R -4 8 R -6 7 R -7 5 R -8 4 R -9 2 R -9 1 R
-9 -1 R -8 -4 R -8 -4 R -7 -7 R -5 -7 R -3 -8 R -2 -9 R 0 -9 R 2 -9 R 3 -8 R
5 -7 R 7 -7 R 8 -4 R 8 -3 R 9 -2 R 9 1 R 9 2 R 8 4 R 7 5 R 6 7 R 4 8 R 3 9 R
1 9 R F
14838 10844 M -1 8 R -3 9 R -4 8 R -6 7 R -7 5 R -8 4 R -9 2 R -9 1 R
-9 -1 R -8 -4 R -8 -4 R -6 -7 R -6 -7 R -3 -8 R -2 -9 R 0 -9 R 2 -9 R 3 -8 R
6 -7 R 6 -7 R 8 -4 R 8 -3 R 9 -2 R 9 1 R 9 2 R 8 4 R 7 5 R 6 7 R 4 8 R 3 9 R
1 9 R F
14910 10854 M -1 9 R -3 9 R -4 7 R -6 7 R -7 6 R -8 4 R -9 2 R -9 0 R
-9 -1 R -8 -3 R -8 -5 R -6 -6 R -5 -7 R -4 -9 R -2 -8 R 0 -9 R 2 -9 R 4 -8 R
5 -8 R 6 -6 R 8 -5 R 8 -3 R 9 -1 R 9 0 R 9 2 R 8 4 R 7 6 R 6 7 R 4 8 R 3 8 R
1 9 R F
14980 10864 M -1 9 R -2 9 R -5 8 R -6 6 R -7 6 R -8 4 R -8 2 R -9 1 R
-9 -2 R -9 -3 R -7 -5 R -7 -6 R -5 -7 R -3 -9 R -2 -8 R 0 -9 R 2 -9 R 3 -8 R
5 -8 R 7 -6 R 7 -5 R 9 -3 R 9 -1 R 9 0 R 8 3 R 8 4 R 7 5 R 6 7 R 5 8 R 2 8 R
1 9 R F
0.804 0.000 0.000 setrgbcolor 2131 8369 M 12805 2573 R D
0.471 0.471 0.863 setrgbcolor gsave 4059 8448 translate 0 0 M
%%IncludeResource: font Times-Italic
423.333 /Times-Italic STDFONT
(p) show
%%IncludeResource: font Times-Roman
423.333 /Times-Roman STDFONT
( = 3) show
%%IncludeResource: font Helvetica
423.333 /Helvetica STDFONT grestore 4723 7135 M 0 9 R -3 8 R -5 8 R -5 7 R
-8 6 R -8 4 R -8 2 R -9 0 R -9 -1 R -9 -3 R -7 -5 R -7 -6 R -5 -8 R -3 -8 R
-2 -9 R 0 -9 R 2 -8 R 3 -9 R 5 -7 R 7 -6 R 7 -5 R 9 -3 R 9 -1 R 9 0 R 8 2 R
8 4 R 8 6 R 5 7 R 5 7 R 3 9 R 0 9 R F
6651 7382 M -1 9 R -3 9 R -4 7 R -6 7 R -7 6 R -8 4 R -9 2 R -9 0 R -9 -1 R
-8 -3 R -8 -5 R -6 -6 R -6 -7 R -3 -9 R -2 -8 R 0 -9 R 2 -9 R 3 -8 R 6 -8 R
6 -6 R 8 -5 R 8 -3 R 9 -1 R 9 0 R 9 2 R 8 4 R 7 6 R 6 7 R 4 8 R 3 8 R 1 9 R
F
7778 7465 M -1 9 R -3 8 R -4 8 R -6 7 R -7 6 R -8 4 R -9 2 R -9 0 R -8 -1 R
-9 -3 R -7 -5 R -7 -6 R -5 -7 R -4 -9 R -1 -9 R 0 -9 R 1 -8 R 4 -9 R 5 -7 R
7 -6 R 7 -5 R 9 -3 R 8 -1 R 9 0 R 9 2 R 8 4 R 7 6 R 6 7 R 4 7 R 3 9 R 1 9 R
F
8578 7505 M -1 9 R -3 9 R -4 8 R -6 6 R -7 6 R -8 4 R -9 2 R -9 1 R -9 -2 R
-8 -3 R -8 -5 R -6 -6 R -5 -7 R -4 -8 R -2 -9 R 0 -9 R 2 -9 R 4 -8 R 5 -8 R
6 -6 R 8 -5 R 8 -3 R 9 -1 R 9 0 R 9 3 R 8 4 R 7 5 R 6 7 R 4 8 R 3 8 R 1 9 R
F
9198 7534 M 0 9 R -3 8 R -5 8 R -5 7 R -7 5 R -9 4 R -8 3 R -9 0 R -9 -1 R
-9 -3 R -7 -5 R -7 -6 R -5 -8 R -3 -8 R -2 -9 R 0 -9 R 2 -9 R 3 -8 R 5 -7 R
7 -6 R 7 -5 R 9 -3 R 9 -2 R 9 1 R 8 2 R 9 4 R 7 5 R 5 7 R 5 8 R 3 9 R 0 9 R
F
9705 7556 M -1 9 R -2 8 R -5 8 R -5 7 R -8 5 R -8 4 R -8 3 R -9 0 R -9 -1 R
-9 -3 R -7 -5 R -7 -6 R -5 -8 R -3 -8 R -2 -9 R 0 -9 R 2 -9 R 3 -8 R 5 -7 R
7 -6 R 7 -5 R 9 -3 R 9 -2 R 9 1 R 8 2 R 8 4 R 8 6 R 5 6 R 5 8 R 2 9 R 1 9 R
F
10134 7575 M -1 9 R -3 9 R -4 8 R -6 6 R -7 6 R -8 4 R -9 2 R -9 1 R -9 -2 R
-8 -3 R -8 -5 R -6 -6 R -5 -7 R -4 -8 R -2 -9 R 0 -9 R 2 -9 R 4 -8 R 5 -8 R
6 -6 R 8 -5 R 8 -3 R 9 -1 R 9 0 R 9 3 R 8 4 R 7 5 R 6 7 R 4 8 R 3 8 R 1 9 R
F
10505 7594 M -1 9 R -2 8 R -5 8 R -6 7 R -7 5 R -8 4 R -8 3 R -9 0 R -9 -1 R
-9 -3 R -7 -5 R -7 -6 R -5 -8 R -4 -8 R -1 -9 R 0 -9 R 1 -9 R 4 -8 R 5 -7 R
7 -6 R 7 -5 R 9 -3 R 9 -2 R 9 1 R 8 2 R 8 4 R 7 6 R 6 6 R 5 8 R 2 9 R 1 9 R
F
10833 7610 M -1 9 R -3 8 R -4 8 R -6 7 R -7 5 R -8 4 R -9 3 R -9 0 R -9 -1 R
-8 -3 R -8 -5 R -6 -6 R -5 -8 R -4 -8 R -2 -9 R 0 -9 R 2 -9 R 4 -8 R 5 -7 R
6 -6 R 8 -5 R 8 -3 R 9 -2 R 9 1 R 9 2 R 8 4 R 7 6 R 6 6 R 4 8 R 3 9 R 1 9 R
F
11126 7624 M -1 9 R -3 9 R -4 8 R -6 6 R -7 6 R -8 4 R -9 2 R -9 0 R -9 -1 R
-8 -3 R -8 -5 R -6 -6 R -6 -7 R -3 -9 R -2 -8 R 0 -9 R 2 -9 R 3 -8 R 6 -8 R
6 -6 R 8 -5 R 8 -3 R 9 -1 R 9 0 R 9 3 R 8 3 R 7 6 R 6 7 R 4 8 R 3 8 R 1 9 R
F
11391 7638 M -1 9 R -3 8 R -4 8 R -6 7 R -7 5 R -8 4 R -9 2 R -9 1 R -9 -1 R
-8 -4 R -8 -4 R -6 -6 R -6 -8 R -3 -8 R -2 -9 R 0 -9 R 2 -9 R 3 -8 R 6 -7 R
6 -7 R 8 -4 R 8 -3 R 9 -2 R 9 1 R 9 2 R 8 4 R 7 5 R 6 7 R 4 8 R 3 9 R 1 9 R
F
11633 7651 M -1 9 R -3 9 R -4 8 R -6 7 R -7 5 R -8 4 R -9 2 R -9 1 R -9 -2 R
-8 -3 R -8 -4 R -6 -7 R -6 -7 R -3 -8 R -2 -9 R 0 -9 R 2 -9 R 3 -8 R 6 -8 R
6 -6 R 8 -4 R 8 -4 R 9 -1 R 9 1 R 9 2 R 8 4 R 7 5 R 6 7 R 4 8 R 3 8 R 1 9 R
F
11855 7665 M -1 8 R -2 9 R -5 8 R -6 7 R -7 5 R -8 4 R -8 2 R -9 1 R -9 -2 R
-9 -3 R -7 -4 R -7 -7 R -5 -7 R -4 -8 R -1 -9 R 0 -9 R 1 -9 R 4 -8 R 5 -7 R
7 -7 R 7 -4 R 9 -3 R 9 -2 R 9 1 R 8 2 R 8 4 R 7 5 R 6 7 R 5 8 R 2 9 R 1 9 R
F
12061 7677 M -1 9 R -2 9 R -5 7 R -6 7 R -7 6 R -8 4 R -8 2 R -9 0 R -9 -1 R
-9 -3 R -7 -5 R -7 -6 R -5 -7 R -4 -9 R -1 -8 R 0 -9 R 1 -9 R 4 -9 R 5 -7 R
7 -6 R 7 -5 R 9 -3 R 9 -1 R 9 0 R 8 2 R 8 4 R 7 6 R 6 7 R 5 8 R 2 8 R 1 9 R
F
12253 7689 M -1 9 R -3 8 R -4 8 R -6 7 R -7 5 R -8 4 R -9 3 R -9 0 R -8 -1 R
-9 -3 R -7 -5 R -7 -6 R -5 -8 R -4 -8 R -1 -9 R 0 -9 R 1 -9 R 4 -8 R 5 -7 R
7 -6 R 7 -5 R 9 -3 R 8 -2 R 9 1 R 9 2 R 8 4 R 7 6 R 6 6 R 4 8 R 3 9 R 1 9 R
F
12433 7700 M -1 9 R -3 8 R -4 8 R -6 7 R -7 5 R -8 4 R -9 2 R -9 1 R -9 -1 R
-8 -4 R -8 -4 R -7 -6 R -5 -8 R -3 -8 R -2 -9 R 0 -9 R 2 -9 R 3 -8 R 5 -7 R
7 -7 R 8 -4 R 8 -3 R 9 -2 R 9 1 R 9 2 R 8 4 R 7 5 R 6 7 R 4 8 R 3 9 R 1 9 R
F
12601 7710 M -1 9 R -2 9 R -5 8 R -6 7 R -7 5 R -8 4 R -9 2 R -9 1 R -8 -2 R
-9 -3 R -7 -5 R -7 -6 R -5 -7 R -4 -8 R -1 -9 R 0 -9 R 1 -9 R 4 -8 R 5 -8 R
7 -6 R 7 -4 R 9 -4 R 8 -1 R 9 0 R 9 3 R 8 4 R 7 5 R 6 7 R 5 8 R 2 8 R 1 9 R
F
12760 7721 M -1 8 R -3 9 R -4 8 R -6 7 R -7 5 R -8 4 R -9 2 R -9 1 R -8 -2 R
-9 -3 R -8 -4 R -6 -7 R -5 -7 R -4 -8 R -2 -9 R 0 -9 R 2 -9 R 4 -8 R 5 -7 R
6 -7 R 8 -4 R 9 -3 R 8 -2 R 9 1 R 9 2 R 8 4 R 7 5 R 6 7 R 4 8 R 3 9 R 1 9 R
F
12910 7731 M -1 9 R -2 8 R -5 8 R -5 7 R -8 5 R -8 4 R -8 3 R -9 0 R -9 -1 R
-9 -3 R -7 -5 R -7 -6 R -5 -8 R -3 -8 R -2 -9 R 0 -9 R 2 -9 R 3 -8 R 5 -7 R
7 -6 R 7 -5 R 9 -3 R 9 -2 R 9 1 R 8 2 R 8 4 R 8 6 R 5 6 R 5 8 R 2 9 R 1 9 R
F
13053 7741 M -1 8 R -3 9 R -4 8 R -6 7 R -7 5 R -8 4 R -9 2 R -9 1 R -9 -1 R
-8 -4 R -8 -4 R -6 -7 R -5 -7 R -4 -8 R -2 -9 R 0 -9 R 2 -9 R 4 -8 R 5 -7 R
6 -7 R 8 -4 R 8 -3 R 9 -2 R 9 1 R 9 2 R 8 4 R 7 5 R 6 7 R 4 8 R 3 9 R 1 9 R
F
13189 7750 M -1 9 R -3 9 R -4 8 R -6 7 R -7 5 R -8 4 R -9 2 R -9 1 R -9 -2 R
-8 -3 R -8 -4 R -6 -7 R -6 -7 R -3 -8 R -2 -9 R 0 -9 R 2 -9 R 3 -8 R 6 -8 R
6 -6 R 8 -4 R 8 -4 R 9 -1 R 9 1 R 9 2 R 8 4 R 7 5 R 6 7 R 4 8 R 3 8 R 1 9 R
F
13318 7760 M -1 9 R -3 8 R -4 8 R -6 7 R -7 6 R -8 4 R -9 2 R -9 0 R -9 -1 R
-8 -3 R -8 -5 R -6 -6 R -5 -8 R -4 -8 R -2 -9 R 0 -9 R 2 -8 R 4 -9 R 5 -7 R
6 -6 R 8 -5 R 8 -3 R 9 -1 R 9 0 R 9 2 R 8 4 R 7 6 R 6 7 R 4 7 R 3 9 R 1 9 R
F
13442 7769 M -1 9 R -3 9 R -4 8 R -6 7 R -7 5 R -8 4 R -9 2 R -9 1 R -9 -2 R
-8 -3 R -8 -4 R -6 -7 R -6 -7 R -3 -8 R -2 -9 R 0 -9 R 2 -9 R 3 -8 R 6 -7 R
6 -7 R 8 -4 R 8 -4 R 9 -1 R 9 1 R 9 2 R 8 4 R 7 5 R 6 7 R 4 8 R 3 8 R 1 9 R
F
13560 7778 M -1 9 R -3 9 R -4 8 R -6 7 R -7 5 R -8 4 R -9 2 R -9 1 R -9 -2 R
-8 -3 R -8 -4 R -6 -7 R -5 -7 R -4 -8 R -2 -9 R 0 -9 R 2 -9 R 4 -8 R 5 -7 R
6 -7 R 8 -4 R 8 -4 R 9 -1 R 9 1 R 9 2 R 8 4 R 7 5 R 6 7 R 4 8 R 3 9 R 1 8 R
F
13673 7787 M 0 9 R -3 9 R -5 8 R -5 7 R -7 5 R -9 4 R -8 2 R -9 1 R -9 -2 R
-9 -3 R -7 -4 R -7 -7 R -5 -7 R -3 -8 R -2 -9 R 0 -9 R 2 -9 R 3 -8 R 5 -8 R
7 -6 R 7 -4 R 9 -4 R 9 -1 R 9 1 R 8 2 R 9 4 R 7 5 R 5 7 R 5 8 R 3 8 R 0 9 R
F
13782 7796 M 0 9 R -3 9 R -4 8 R -6 6 R -7 6 R -8 4 R -9 2 R -9 1 R -9 -2 R
-8 -3 R -8 -5 R -7 -6 R -5 -7 R -3 -8 R -2 -9 R 0 -9 R 2 -9 R 3 -8 R 5 -8 R
7 -6 R 8 -5 R 8 -3 R 9 -1 R 9 0 R 9 3 R 8 4 R 7 5 R 6 7 R 4 8 R 3 8 R 0 9 R
F
13887 7805 M 0 9 R -3 8 R -5 8 R -5 7 R -7 6 R -9 3 R -8 3 R -9 0 R -9 -1 R
-9 -3 R -7 -5 R -7 -6 R -5 -8 R -3 -8 R -2 -9 R 0 -9 R 2 -8 R 3 -9 R 5 -7 R
7 -6 R 7 -5 R 9 -3 R 9 -1 R 9 0 R 8 2 R 9 4 R 7 6 R 5 6 R 5 8 R 3 9 R 0 9 R
F
13989 7814 M -1 9 R -3 8 R -4 8 R -6 7 R -7 5 R -8 4 R -9 3 R -9 0 R -9 -1 R
-8 -3 R -8 -5 R -7 -6 R -5 -8 R -3 -8 R -2 -9 R 0 -9 R 2 -9 R 3 -8 R 5 -7 R
7 -6 R 8 -5 R 8 -3 R 9 -2 R 9 1 R 9 2 R 8 4 R 7 6 R 6 6 R 4 8 R 3 9 R 1 9 R
F
14086 7822 M -1 9 R -2 9 R -5 8 R -6 7 R -7 5 R -8 4 R -9 2 R -9 1 R -8 -2 R
-9 -3 R -7 -4 R -7 -7 R -5 -7 R -4 -8 R -1 -9 R 0 -9 R 1 -9 R 4 -8 R 5 -8 R
7 -6 R 7 -4 R 9 -4 R 8 -1 R 9 1 R 9 2 R 8 4 R 7 5 R 6 7 R 5 8 R 2 8 R 1 9 R
F
14180 7831 M -1 9 R -2 8 R -5 8 R -5 7 R -8 6 R -8 4 R -8 2 R -9 0 R -9 -1 R
-9 -3 R -7 -5 R -7 -6 R -5 -8 R -3 -8 R -2 -9 R 0 -9 R 2 -8 R 3 -9 R 5 -7 R
7 -6 R 7 -5 R 9 -3 R 9 -1 R 9 0 R 8 2 R 8 4 R 8 6 R 5 7 R 5 7 R 2 9 R 1 9 R
F
14272 7839 M -1 9 R -3 9 R -4 8 R -6 6 R -7 6 R -8 4 R -9 2 R -9 0 R -9 -1 R
-8 -3 R -8 -5 R -7 -6 R -5 -7 R -3 -9 R -2 -8 R 0 -9 R 2 -9 R 3 -8 R 5 -8 R
7 -6 R 8 -5 R 8 -3 R 9 -1 R 9 0 R 9 3 R 8 3 R 7 6 R 6 7 R 4 8 R 3 8 R 1 9 R
F
14360 7847 M -1 9 R -3 9 R -4 7 R -6 7 R -7 6 R -8 4 R -9 2 R -9 0 R -9 -1 R
-8 -3 R -8 -5 R -6 -6 R -5 -7 R -4 -9 R -2 -8 R 0 -9 R 2 -9 R 4 -8 R 5 -8 R
6 -6 R 8 -5 R 8 -3 R 9 -1 R 9 0 R 9 2 R 8 4 R 7 6 R 6 7 R 4 8 R 3 8 R 1 9 R
F
14445 7855 M -1 9 R -2 8 R -5 8 R -5 7 R -8 6 R -8 3 R -8 3 R -9 0 R -9 -1 R
-9 -3 R -7 -5 R -7 -6 R -5 -8 R -3 -8 R -2 -9 R 0 -9 R 2 -8 R 3 -9 R 5 -7 R
7 -6 R 7 -5 R 9 -3 R 9 -1 R 9 0 R 8 2 R 8 4 R 8 6 R 5 6 R 5 8 R 2 9 R 1 9 R
F
14528 7862 M -1 9 R -2 9 R -5 8 R -5 7 R -8 5 R -8 4 R -8 2 R -9 1 R -9 -2 R
-9 -3 R -7 -4 R -7 -7 R -5 -7 R -3 -8 R -2 -9 R 0 -9 R 2 -9 R 3 -8 R 5 -7 R
7 -7 R 7 -4 R 9 -4 R 9 -1 R 9 1 R 8 2 R 8 4 R 8 5 R 5 7 R 5 8 R 2 9 R 1 8 R
F
14609 7870 M -1 9 R -3 8 R -4 8 R -6 7 R -7 6 R -8 4 R -9 2 R -9 0 R -9 -1 R
-8 -3 R -8 -5 R -6 -6 R -5 -8 R -4 -8 R -2 -9 R 0 -9 R 2 -8 R 4 -9 R 5 -7 R
6 -6 R 8 -5 R 8 -3 R 9 -1 R 9 0 R 9 2 R 8 4 R 7 6 R 6 7 R 4 7 R 3 9 R 1 9 R
F
14687 7878 M -1 8 R -2 9 R -5 8 R -5 7 R -8 5 R -8 4 R -8 2 R -9 1 R -9 -2 R
-9 -3 R -7 -4 R -7 -7 R -5 -7 R -3 -8 R -2 -9 R 0 -9 R 2 -9 R 3 -8 R 5 -7 R
7 -7 R 7 -4 R 9 -3 R 9 -2 R 9 1 R 8 2 R 8 4 R 8 5 R 5 7 R 5 8 R 2 9 R 1 9 R
F
14764 7885 M -1 9 R -3 8 R -4 8 R -6 7 R -7 6 R -8 4 R -9 2 R -9 0 R -9 -1 R
-8 -3 R -8 -5 R -7 -6 R -5 -8 R -3 -8 R -2 -9 R 0 -9 R 2 -8 R 3 -9 R 5 -7 R
7 -6 R 8 -5 R 8 -3 R 9 -1 R 9 0 R 9 2 R 8 4 R 7 6 R 6 7 R 4 7 R 3 9 R 1 9 R
F
14838 7893 M -1 9 R -3 8 R -4 8 R -6 7 R -7 5 R -8 4 R -9 3 R -9 0 R -9 -1 R
-8 -4 R -8 -4 R -6 -6 R -6 -8 R -3 -8 R -2 -9 R 0 -9 R 2 -9 R 3 -8 R 6 -7 R
6 -6 R 8 -5 R 8 -3 R 9 -2 R 9 1 R 9 2 R 8 4 R 7 5 R 6 7 R 4 8 R 3 9 R 1 9 R
F
14910 7900 M -1 9 R -3 9 R -4 7 R -6 7 R -7 6 R -8 4 R -9 2 R -9 0 R -9 -1 R
-8 -3 R -8 -5 R -6 -6 R -5 -7 R -4 -9 R -2 -8 R 0 -9 R 2 -9 R 4 -8 R 5 -8 R
6 -6 R 8 -5 R 8 -3 R 9 -1 R 9 0 R 9 2 R 8 4 R 7 6 R 6 7 R 4 8 R 3 8 R 1 9 R
F
14980 7907 M -1 9 R -2 9 R -5 8 R -6 6 R -7 6 R -8 4 R -8 2 R -9 1 R -9 -2 R
-9 -3 R -7 -5 R -7 -6 R -5 -7 R -3 -8 R -2 -9 R 0 -9 R 2 -9 R 3 -8 R 5 -8 R
7 -6 R 7 -5 R 9 -3 R 9 -1 R 9 0 R 8 3 R 8 4 R 7 5 R 6 7 R 5 8 R 2 8 R 1 9 R
F
0.804 0.000 0.000 setrgbcolor 2131 7045 M 12805 838 R D
0.471 0.471 0.863 setrgbcolor gsave 4059 6862 translate 0 0 M
%%IncludeResource: font Times-Italic
423.333 /Times-Italic STDFONT
(p) show
%%IncludeResource: font Times-Roman
423.333 /Times-Roman STDFONT
( = 4) show
%%IncludeResource: font Helvetica
423.333 /Helvetica STDFONT grestore 4723 5845 M 0 9 R -3 9 R -5 8 R -5 7 R
-8 5 R -8 4 R -8 2 R -9 1 R -9 -2 R -9 -3 R -7 -5 R -7 -6 R -5 -7 R -3 -8 R
-2 -9 R 0 -9 R 2 -9 R 3 -8 R 5 -8 R 7 -6 R 7 -5 R 9 -3 R 9 -1 R 9 0 R 8 3 R
8 4 R 8 5 R 5 7 R 5 8 R 3 8 R 0 9 R F
6651 5978 M -1 9 R -3 8 R -4 8 R -6 7 R -7 5 R -8 4 R -9 3 R -9 0 R -9 -1 R
-8 -3 R -8 -5 R -6 -6 R -6 -8 R -3 -8 R -2 -9 R 0 -9 R 2 -9 R 3 -8 R 6 -7 R
6 -6 R 8 -5 R 8 -3 R 9 -2 R 9 1 R 9 2 R 8 4 R 7 5 R 6 7 R 4 8 R 3 9 R 1 9 R
F
7778 6039 M -1 9 R -3 9 R -4 8 R -6 7 R -7 5 R -8 4 R -9 2 R -9 1 R -8 -2 R
-9 -3 R -7 -5 R -7 -6 R -5 -7 R -4 -8 R -1 -9 R 0 -9 R 1 -9 R 4 -8 R 5 -8 R
7 -6 R 7 -5 R 9 -3 R 8 -1 R 9 0 R 9 3 R 8 4 R 7 5 R 6 7 R 4 8 R 3 8 R 1 9 R
F
8578 6078 M -1 9 R -3 9 R -4 8 R -6 7 R -7 5 R -8 4 R -9 2 R -9 1 R -9 -2 R
-8 -3 R -8 -4 R -6 -7 R -5 -7 R -4 -8 R -2 -9 R 0 -9 R 2 -9 R 4 -8 R 5 -7 R
6 -7 R 8 -4 R 8 -4 R 9 -1 R 9 1 R 9 2 R 8 4 R 7 5 R 6 7 R 4 8 R 3 9 R 1 8 R
F
9198 6106 M 0 9 R -3 9 R -5 8 R -5 6 R -7 6 R -9 4 R -8 2 R -9 1 R -9 -2 R
-9 -3 R -7 -5 R -7 -6 R -5 -7 R -3 -8 R -2 -9 R 0 -9 R 2 -9 R 3 -8 R 5 -8 R
7 -6 R 7 -5 R 9 -3 R 9 -1 R 9 0 R 8 3 R 9 4 R 7 5 R 5 7 R 5 8 R 3 8 R 0 9 R
F
9705 6133 M -1 9 R -2 8 R -5 8 R -5 7 R -8 6 R -8 4 R -8 2 R -9 0 R -9 -1 R
-9 -3 R -7 -5 R -7 -6 R -5 -8 R -3 -8 R -2 -9 R 0 -9 R 2 -8 R 3 -9 R 5 -7 R
7 -6 R 7 -5 R 9 -3 R 9 -1 R 9 0 R 8 2 R 8 4 R 8 6 R 5 7 R 5 7 R 2 9 R 1 9 R
F
10134 6157 M -1 9 R -3 9 R -4 8 R -6 7 R -7 5 R -8 4 R -9 2 R -9 1 R -9 -2 R
-8 -3 R -8 -4 R -6 -7 R -5 -7 R -4 -8 R -2 -9 R 0 -9 R 2 -9 R 4 -8 R 5 -7 R
6 -7 R 8 -4 R 8 -4 R 9 -1 R 9 1 R 9 2 R 8 4 R 7 5 R 6 7 R 4 8 R 3 9 R 1 8 R
F
10505 6181 M -1 9 R -2 8 R -5 8 R -6 7 R -7 5 R -8 4 R -8 3 R -9 0 R -9 -1 R
-9 -3 R -7 -5 R -7 -6 R -5 -8 R -4 -8 R -1 -9 R 0 -9 R 1 -8 R 4 -9 R 5 -7 R
7 -6 R 7 -5 R 9 -3 R 9 -2 R 9 1 R 8 2 R 8 4 R 7 6 R 6 6 R 5 8 R 2 9 R 1 9 R
F
10833 6201 M -1 9 R -3 9 R -4 8 R -6 6 R -7 6 R -8 4 R -9 2 R -9 1 R -9 -2 R
-8 -3 R -8 -5 R -6 -6 R -5 -7 R -4 -8 R -2 -9 R 0 -9 R 2 -9 R 4 -8 R 5 -8 R
6 -6 R 8 -5 R 8 -3 R 9 -1 R 9 0 R 9 3 R 8 4 R 7 5 R 6 7 R 4 8 R 3 8 R 1 9 R
F
11126 6219 M -1 9 R -3 9 R -4 7 R -6 7 R -7 6 R -8 4 R -9 2 R -9 0 R -9 -1 R
-8 -3 R -8 -5 R -6 -6 R -6 -7 R -3 -9 R -2 -8 R 0 -9 R 2 -9 R 3 -8 R 6 -8 R
6 -6 R 8 -5 R 8 -3 R 9 -1 R 9 0 R 9 2 R 8 4 R 7 6 R 6 7 R 4 8 R 3 8 R 1 9 R
F
11391 6236 M -1 9 R -3 9 R -4 8 R -6 6 R -7 6 R -8 4 R -9 2 R -9 1 R -9 -2 R
-8 -3 R -8 -5 R -6 -6 R -6 -7 R -3 -8 R -2 -9 R 0 -9 R 2 -9 R 3 -8 R 6 -8 R
6 -6 R 8 -5 R 8 -3 R 9 -1 R 9 0 R 9 3 R 8 4 R 7 5 R 6 7 R 4 8 R 3 8 R 1 9 R
F
11633 6252 M -1 9 R -3 8 R -4 8 R -6 7 R -7 6 R -8 3 R -9 3 R -9 0 R -9 -1 R
-8 -3 R -8 -5 R -6 -6 R -6 -8 R -3 -8 R -2 -9 R 0 -9 R 2 -8 R 3 -9 R 6 -7 R
6 -6 R 8 -5 R 8 -3 R 9 -1 R 9 0 R 9 2 R 8 4 R 7 6 R 6 6 R 4 8 R 3 9 R 1 9 R
F
11855 6266 M -1 9 R -2 8 R -5 8 R -6 7 R -7 6 R -8 3 R -8 3 R -9 0 R -9 -1 R
-9 -3 R -7 -5 R -7 -6 R -5 -8 R -4 -8 R -1 -9 R 0 -9 R 1 -8 R 4 -9 R 5 -7 R
7 -6 R 7 -5 R 9 -3 R 9 -2 R 9 1 R 8 2 R 8 4 R 7 6 R 6 6 R 5 8 R 2 9 R 1 9 R
F
12061 6279 M -1 9 R -2 8 R -5 8 R -6 7 R -7 5 R -8 4 R -8 3 R -9 0 R -9 -1 R
-9 -3 R -7 -5 R -7 -6 R -5 -8 R -4 -8 R -1 -9 R 0 -9 R 1 -9 R 4 -8 R 5 -7 R
7 -6 R 7 -5 R 9 -3 R 9 -2 R 9 1 R 8 2 R 8 4 R 7 6 R 6 6 R 5 8 R 2 9 R 1 9 R
F
12253 6293 M -1 8 R -3 9 R -4 8 R -6 7 R -7 5 R -8 4 R -9 2 R -9 1 R -8 -1 R
-9 -4 R -7 -4 R -7 -7 R -5 -7 R -4 -8 R -1 -9 R 0 -9 R 1 -9 R 4 -8 R 5 -7 R
7 -7 R 7 -4 R 9 -3 R 8 -2 R 9 1 R 9 2 R 8 4 R 7 5 R 6 7 R 4 8 R 3 9 R 1 9 R
F
12433 6306 M -1 9 R -3 9 R -4 7 R -6 7 R -7 6 R -8 4 R -9 2 R -9 0 R -9 -1 R
-8 -3 R -8 -5 R -7 -6 R -5 -7 R -3 -9 R -2 -8 R 0 -9 R 2 -9 R 3 -8 R 5 -8 R
7 -6 R 8 -5 R 8 -3 R 9 -1 R 9 0 R 9 2 R 8 4 R 7 6 R 6 7 R 4 8 R 3 8 R 1 9 R
F
12601 6318 M -1 9 R -2 9 R -5 7 R -6 7 R -7 6 R -8 4 R -9 2 R -9 0 R -8 -1 R
-9 -3 R -7 -5 R -7 -6 R -5 -7 R -4 -9 R -1 -8 R 0 -9 R 1 -9 R 4 -8 R 5 -8 R
7 -6 R 7 -5 R 9 -3 R 8 -1 R 9 0 R 9 2 R 8 4 R 7 6 R 6 7 R 5 8 R 2 8 R 1 9 R
F
12760 6329 M -1 9 R -3 9 R -4 7 R -6 7 R -7 6 R -8 4 R -9 2 R -9 0 R -8 -1 R
-9 -3 R -8 -5 R -6 -6 R -5 -7 R -4 -9 R -2 -8 R 0 -9 R 2 -9 R 4 -8 R 5 -8 R
6 -6 R 8 -5 R 9 -3 R 8 -1 R 9 0 R 9 2 R 8 4 R 7 6 R 6 7 R 4 8 R 3 8 R 1 9 R
F
12910 6339 M -1 9 R -2 9 R -5 8 R -5 7 R -8 5 R -8 4 R -8 2 R -9 1 R -9 -2 R
-9 -3 R -7 -5 R -7 -6 R -5 -7 R -3 -8 R -2 -9 R 0 -9 R 2 -9 R 3 -8 R 5 -8 R
7 -6 R 7 -5 R 9 -3 R 9 -1 R 9 0 R 8 3 R 8 4 R 8 5 R 5 7 R 5 8 R 2 8 R 1 9 R
F
13053 6349 M -1 9 R -3 9 R -4 8 R -6 6 R -7 6 R -8 4 R -9 2 R -9 1 R -9 -2 R
-8 -3 R -8 -5 R -6 -6 R -5 -7 R -4 -8 R -2 -9 R 0 -9 R 2 -9 R 4 -8 R 5 -8 R
6 -6 R 8 -5 R 8 -3 R 9 -1 R 9 0 R 9 3 R 8 4 R 7 5 R 6 7 R 4 8 R 3 8 R 1 9 R
F
13189 6359 M -1 9 R -3 9 R -4 8 R -6 6 R -7 6 R -8 4 R -9 2 R -9 0 R -9 -1 R
-8 -3 R -8 -5 R -6 -6 R -6 -7 R -3 -9 R -2 -8 R 0 -9 R 2 -9 R 3 -8 R 6 -8 R
6 -6 R 8 -5 R 8 -3 R 9 -1 R 9 0 R 9 3 R 8 3 R 7 6 R 6 7 R 4 8 R 3 8 R 1 9 R
F
13318 6368 M -1 9 R -3 9 R -4 8 R -6 7 R -7 5 R -8 4 R -9 2 R -9 1 R -9 -2 R
-8 -3 R -8 -5 R -6 -6 R -5 -7 R -4 -8 R -2 -9 R 0 -9 R 2 -9 R 4 -8 R 5 -8 R
6 -6 R 8 -4 R 8 -4 R 9 -1 R 9 0 R 9 3 R 8 4 R 7 5 R 6 7 R 4 8 R 3 8 R 1 9 R
F
13442 6377 M -1 9 R -3 9 R -4 8 R -6 7 R -7 5 R -8 4 R -9 2 R -9 1 R -9 -2 R
-8 -3 R -8 -5 R -6 -6 R -6 -7 R -3 -8 R -2 -9 R 0 -9 R 2 -9 R 3 -8 R 6 -8 R
6 -6 R 8 -5 R 8 -3 R 9 -1 R 9 0 R 9 3 R 8 4 R 7 5 R 6 7 R 4 8 R 3 8 R 1 9 R
F
13560 6386 M -1 9 R -3 8 R -4 8 R -6 7 R -7 5 R -8 4 R -9 3 R -9 0 R -9 -1 R
-8 -3 R -8 -5 R -6 -6 R -5 -8 R -4 -8 R -2 -9 R 0 -9 R 2 -9 R 4 -8 R 5 -7 R
6 -6 R 8 -5 R 8 -3 R 9 -2 R 9 1 R 9 2 R 8 4 R 7 5 R 6 7 R 4 8 R 3 9 R 1 9 R
F
13673 6393 M 0 9 R -3 9 R -5 8 R -5 7 R -7 5 R -9 4 R -8 2 R -9 1 R -9 -2 R
-9 -3 R -7 -5 R -7 -6 R -5 -7 R -3 -8 R -2 -9 R 0 -9 R 2 -9 R 3 -8 R 5 -8 R
7 -6 R 7 -5 R 9 -3 R 9 -1 R 9 0 R 8 3 R 9 4 R 7 5 R 5 7 R 5 8 R 3 8 R 0 9 R
F
13782 6401 M 0 9 R -3 9 R -4 7 R -6 7 R -7 6 R -8 4 R -9 2 R -9 0 R -9 -1 R
-8 -3 R -8 -5 R -7 -6 R -5 -7 R -3 -9 R -2 -8 R 0 -9 R 2 -9 R 3 -8 R 5 -8 R
7 -6 R 8 -5 R 8 -3 R 9 -1 R 9 0 R 9 2 R 8 4 R 7 6 R 6 7 R 4 8 R 3 8 R 0 9 R
F
13887 6408 M 0 9 R -3 9 R -5 8 R -5 7 R -7 5 R -9 4 R -8 2 R -9 1 R -9 -2 R
-9 -3 R -7 -5 R -7 -6 R -5 -7 R -3 -8 R -2 -9 R 0 -9 R 2 -9 R 3 -8 R 5 -8 R
7 -6 R 7 -4 R 9 -4 R 9 -1 R 9 0 R 8 3 R 9 4 R 7 5 R 5 7 R 5 8 R 3 8 R 0 9 R
F
13989 6416 M -1 9 R -3 8 R -4 8 R -6 7 R -7 5 R -8 4 R -9 3 R -9 0 R -9 -1 R
-8 -3 R -8 -5 R -7 -6 R -5 -8 R -3 -8 R -2 -9 R 0 -9 R 2 -9 R 3 -8 R 5 -7 R
7 -6 R 8 -5 R 8 -3 R 9 -2 R 9 1 R 9 2 R 8 4 R 7 5 R 6 7 R 4 8 R 3 9 R 1 9 R
F
14086 6423 M -1 9 R -2 8 R -5 8 R -6 7 R -7 6 R -8 4 R -9 2 R -9 0 R -8 -1 R
-9 -3 R -7 -5 R -7 -6 R -5 -8 R -4 -8 R -1 -9 R 0 -9 R 1 -8 R 4 -9 R 5 -7 R
7 -6 R 7 -5 R 9 -3 R 8 -1 R 9 0 R 9 2 R 8 4 R 7 6 R 6 7 R 5 7 R 2 9 R 1 9 R
F
14180 6430 M -1 9 R -2 9 R -5 7 R -5 7 R -8 6 R -8 4 R -8 2 R -9 0 R -9 -1 R
-9 -3 R -7 -5 R -7 -6 R -5 -7 R -3 -9 R -2 -8 R 0 -9 R 2 -9 R 3 -8 R 5 -8 R
7 -6 R 7 -5 R 9 -3 R 9 -1 R 9 0 R 8 2 R 8 4 R 8 6 R 5 7 R 5 8 R 2 8 R 1 9 R
F
14272 6437 M -1 9 R -3 9 R -4 8 R -6 6 R -7 6 R -8 4 R -9 2 R -9 1 R -9 -2 R
-8 -3 R -8 -5 R -7 -6 R -5 -7 R -3 -8 R -2 -9 R 0 -9 R 2 -9 R 3 -8 R 5 -8 R
7 -6 R 8 -5 R 8 -3 R 9 -1 R 9 0 R 9 3 R 8 4 R 7 5 R 6 7 R 4 8 R 3 8 R 1 9 R
F
14360 6444 M -1 9 R -3 8 R -4 8 R -6 7 R -7 6 R -8 4 R -9 2 R -9 0 R -9 -1 R
-8 -3 R -8 -5 R -6 -6 R -5 -7 R -4 -9 R -2 -9 R 0 -9 R 2 -8 R 4 -9 R 5 -7 R
6 -6 R 8 -5 R 8 -3 R 9 -1 R 9 0 R 9 2 R 8 4 R 7 6 R 6 7 R 4 7 R 3 9 R 1 9 R
F
14445 6451 M -1 9 R -2 8 R -5 8 R -5 7 R -8 5 R -8 4 R -8 3 R -9 0 R -9 -1 R
-9 -4 R -7 -4 R -7 -6 R -5 -8 R -3 -8 R -2 -9 R 0 -9 R 2 -9 R 3 -8 R 5 -7 R
7 -6 R 7 -5 R 9 -3 R 9 -2 R 9 1 R 8 2 R 8 4 R 8 5 R 5 7 R 5 8 R 2 9 R 1 9 R
F
14528 6457 M -1 9 R -2 9 R -5 8 R -5 6 R -8 6 R -8 4 R -8 2 R -9 1 R -9 -2 R
-9 -3 R -7 -5 R -7 -6 R -5 -7 R -3 -9 R -2 -8 R 0 -9 R 2 -9 R 3 -8 R 5 -8 R
7 -6 R 7 -5 R 9 -3 R 9 -1 R 9 0 R 8 3 R 8 4 R 8 5 R 5 7 R 5 8 R 2 8 R 1 9 R
F
14609 6464 M -1 9 R -3 8 R -4 8 R -6 7 R -7 5 R -8 4 R -9 3 R -9 0 R -9 -1 R
-8 -3 R -8 -5 R -6 -6 R -5 -8 R -4 -8 R -2 -9 R 0 -9 R 2 -9 R 4 -8 R 5 -7 R
6 -6 R 8 -5 R 8 -3 R 9 -2 R 9 1 R 9 2 R 8 4 R 7 5 R 6 7 R 4 8 R 3 9 R 1 9 R
F
14687 6470 M -1 9 R -2 9 R -5 8 R -5 6 R -8 6 R -8 4 R -8 2 R -9 1 R -9 -2 R
-9 -3 R -7 -5 R -7 -6 R -5 -7 R -3 -9 R -2 -8 R 0 -9 R 2 -9 R 3 -8 R 5 -8 R
7 -6 R 7 -5 R 9 -3 R 9 -1 R 9 0 R 8 3 R 8 4 R 8 5 R 5 7 R 5 8 R 2 8 R 1 9 R
F
14764 6477 M -1 9 R -3 8 R -4 8 R -6 7 R -7 5 R -8 4 R -9 3 R -9 0 R -9 -1 R
-8 -4 R -8 -4 R -7 -6 R -5 -8 R -3 -8 R -2 -9 R 0 -9 R 2 -9 R 3 -8 R 5 -7 R
7 -6 R 8 -5 R 8 -3 R 9 -2 R 9 1 R 9 2 R 8 4 R 7 5 R 6 7 R 4 8 R 3 9 R 1 9 R
F
14838 6483 M -1 9 R -3 8 R -4 8 R -6 7 R -7 6 R -8 3 R -9 3 R -9 0 R -9 -1 R
-8 -3 R -8 -5 R -6 -6 R -6 -8 R -3 -8 R -2 -9 R 0 -9 R 2 -8 R 3 -9 R 6 -7 R
6 -6 R 8 -5 R 8 -3 R 9 -2 R 9 1 R 9 2 R 8 4 R 7 6 R 6 6 R 4 8 R 3 9 R 1 9 R
F
14910 6489 M -1 9 R -3 8 R -4 8 R -6 7 R -7 5 R -8 4 R -9 3 R -9 0 R -9 -1 R
-8 -3 R -8 -5 R -6 -6 R -5 -8 R -4 -8 R -2 -9 R 0 -9 R 2 -9 R 4 -8 R 5 -7 R
6 -6 R 8 -5 R 8 -3 R 9 -2 R 9 1 R 9 2 R 8 4 R 7 6 R 6 6 R 4 8 R 3 9 R 1 9 R
F
14980 6495 M -1 8 R -2 9 R -5 8 R -6 7 R -7 5 R -8 4 R -8 2 R -9 1 R -9 -2 R
-9 -3 R -7 -4 R -7 -7 R -5 -7 R -3 -8 R -2 -9 R 0 -9 R 2 -9 R 3 -8 R 5 -7 R
7 -7 R 7 -4 R 9 -3 R 9 -2 R 9 1 R 8 2 R 8 4 R 7 5 R 6 7 R 5 8 R 2 9 R 1 9 R
F
0.804 0.000 0.000 setrgbcolor 2131 5665 M 12805 812 R D
0.471 0.471 0.863 setrgbcolor gsave 4059 5478 translate 0 0 M
%%IncludeResource: font Times-Italic
423.333 /Times-Italic STDFONT
(p) show
%%IncludeResource: font Times-Roman
423.333 /Times-Roman STDFONT
( = 5) show
%%IncludeResource: font Helvetica
423.333 /Helvetica STDFONT grestore 4723 4814 M 0 9 R -3 8 R -5 8 R -5 7 R
-8 6 R -8 4 R -8 2 R -9 0 R -9 -1 R -9 -3 R -7 -5 R -7 -6 R -5 -8 R -3 -8 R
-2 -9 R 0 -9 R 2 -8 R 3 -9 R 5 -7 R 7 -6 R 7 -5 R 9 -3 R 9 -1 R 9 0 R 8 2 R
8 4 R 8 6 R 5 7 R 5 7 R 3 9 R 0 9 R F
6651 4883 M -1 9 R -3 8 R -4 8 R -6 7 R -7 5 R -8 4 R -9 3 R -9 0 R -9 -1 R
-8 -3 R -8 -5 R -6 -6 R -6 -8 R -3 -8 R -2 -9 R 0 -9 R 2 -9 R 3 -8 R 6 -7 R
6 -6 R 8 -5 R 8 -3 R 9 -2 R 9 1 R 9 2 R 8 4 R 7 6 R 6 6 R 4 8 R 3 9 R 1 9 R
F
7778 4924 M -1 9 R -3 9 R -4 7 R -6 7 R -7 6 R -8 4 R -9 2 R -9 0 R -8 -1 R
-9 -3 R -7 -5 R -7 -6 R -5 -7 R -4 -9 R -1 -8 R 0 -9 R 1 -9 R 4 -8 R 5 -8 R
7 -6 R 7 -5 R 9 -3 R 8 -1 R 9 0 R 9 2 R 8 4 R 7 6 R 6 7 R 4 8 R 3 8 R 1 9 R
F
8578 4959 M -1 9 R -3 9 R -4 7 R -6 7 R -7 6 R -8 4 R -9 2 R -9 0 R -9 -1 R
-8 -3 R -8 -5 R -6 -6 R -5 -7 R -4 -9 R -2 -8 R 0 -9 R 2 -9 R 4 -8 R 5 -8 R
6 -6 R 8 -5 R 8 -3 R 9 -1 R 9 0 R 9 2 R 8 4 R 7 6 R 6 7 R 4 8 R 3 8 R 1 9 R
F
9198 4988 M 0 9 R -3 8 R -5 8 R -5 7 R -7 5 R -9 4 R -8 3 R -9 0 R -9 -1 R
-9 -3 R -7 -5 R -7 -6 R -5 -8 R -3 -8 R -2 -9 R 0 -9 R 2 -9 R 3 -8 R 5 -7 R
7 -6 R 7 -5 R 9 -3 R 9 -2 R 9 1 R 8 2 R 9 4 R 7 6 R 5 6 R 5 8 R 3 9 R 0 9 R
F
9705 5019 M -1 9 R -2 8 R -5 8 R -5 7 R -8 5 R -8 4 R -8 3 R -9 0 R -9 -1 R
-9 -3 R -7 -5 R -7 -6 R -5 -8 R -3 -8 R -2 -9 R 0 -9 R 2 -9 R 3 -8 R 5 -7 R
7 -6 R 7 -5 R 9 -3 R 9 -2 R 9 1 R 8 2 R 8 4 R 8 6 R 5 6 R 5 8 R 2 9 R 1 9 R
F
10134 5044 M -1 9 R -3 8 R -4 8 R -6 7 R -7 5 R -8 4 R -9 2 R -9 1 R -9 -1 R
-8 -4 R -8 -4 R -6 -6 R -5 -8 R -4 -8 R -2 -9 R 0 -9 R 2 -9 R 4 -8 R 5 -7 R
6 -7 R 8 -4 R 8 -3 R 9 -2 R 9 1 R 9 2 R 8 4 R 7 5 R 6 7 R 4 8 R 3 9 R 1 9 R
F
10505 5064 M -1 9 R -2 8 R -5 8 R -6 7 R -7 5 R -8 4 R -8 3 R -9 0 R -9 -1 R
-9 -3 R -7 -5 R -7 -6 R -5 -8 R -4 -8 R -1 -9 R 0 -9 R 1 -9 R 4 -8 R 5 -7 R
7 -6 R 7 -5 R 9 -3 R 9 -2 R 9 1 R 8 2 R 8 4 R 7 5 R 6 7 R 5 8 R 2 9 R 1 9 R
F
10833 5082 M -1 9 R -3 9 R -4 8 R -6 6 R -7 6 R -8 4 R -9 2 R -9 1 R -9 -2 R
-8 -3 R -8 -5 R -6 -6 R -5 -7 R -4 -9 R -2 -8 R 0 -9 R 2 -9 R 4 -8 R 5 -8 R
6 -6 R 8 -5 R 8 -3 R 9 -1 R 9 0 R 9 3 R 8 3 R 7 6 R 6 7 R 4 8 R 3 8 R 1 9 R
F
11126 5100 M -1 8 R -3 9 R -4 8 R -6 7 R -7 5 R -8 4 R -9 2 R -9 1 R -9 -1 R
-8 -4 R -8 -4 R -6 -7 R -6 -7 R -3 -8 R -2 -9 R 0 -9 R 2 -9 R 3 -8 R 6 -7 R
6 -7 R 8 -4 R 8 -3 R 9 -2 R 9 1 R 9 2 R 8 4 R 7 5 R 6 7 R 4 8 R 3 9 R 1 9 R
F
11391 5115 M -1 9 R -3 8 R -4 8 R -6 7 R -7 5 R -8 4 R -9 3 R -9 0 R -9 -1 R
-8 -3 R -8 -5 R -6 -6 R -6 -8 R -3 -8 R -2 -9 R 0 -9 R 2 -9 R 3 -8 R 6 -7 R
6 -6 R 8 -5 R 8 -3 R 9 -2 R 9 1 R 9 2 R 8 4 R 7 6 R 6 6 R 4 8 R 3 9 R 1 9 R
F
11633 5129 M -1 9 R -3 9 R -4 8 R -6 6 R -7 6 R -8 4 R -9 2 R -9 1 R -9 -2 R
-8 -3 R -8 -5 R -6 -6 R -6 -7 R -3 -9 R -2 -8 R 0 -9 R 2 -9 R 3 -8 R 6 -8 R
6 -6 R 8 -5 R 8 -3 R 9 -1 R 9 0 R 9 3 R 8 4 R 7 5 R 6 7 R 4 8 R 3 8 R 1 9 R
F
11855 5143 M -1 8 R -2 9 R -5 8 R -6 7 R -7 5 R -8 4 R -8 2 R -9 1 R -9 -1 R
-9 -4 R -7 -4 R -7 -7 R -5 -7 R -4 -8 R -1 -9 R 0 -9 R 1 -9 R 4 -8 R 5 -7 R
7 -7 R 7 -4 R 9 -3 R 9 -2 R 9 1 R 8 2 R 8 4 R 7 5 R 6 7 R 5 8 R 2 9 R 1 9 R
F
12061 5156 M -1 9 R -2 8 R -5 8 R -6 7 R -7 5 R -8 4 R -8 3 R -9 0 R -9 -1 R
-9 -3 R -7 -5 R -7 -6 R -5 -8 R -4 -8 R -1 -9 R 0 -9 R 1 -9 R 4 -8 R 5 -7 R
7 -6 R 7 -5 R 9 -3 R 9 -2 R 9 1 R 8 2 R 8 4 R 7 5 R 6 7 R 5 8 R 2 9 R 1 9 R
F
12253 5169 M -1 9 R -3 8 R -4 8 R -6 7 R -7 5 R -8 4 R -9 3 R -9 0 R -8 -1 R
-9 -3 R -7 -5 R -7 -6 R -5 -8 R -4 -8 R -1 -9 R 0 -9 R 1 -9 R 4 -8 R 5 -7 R
7 -6 R 7 -5 R 9 -3 R 8 -2 R 9 1 R 9 2 R 8 4 R 7 6 R 6 6 R 4 8 R 3 9 R 1 9 R
F
12433 5181 M -1 9 R -3 9 R -4 7 R -6 7 R -7 6 R -8 4 R -9 2 R -9 0 R -9 -1 R
-8 -3 R -8 -5 R -7 -6 R -5 -7 R -3 -9 R -2 -8 R 0 -9 R 2 -9 R 3 -9 R 5 -7 R
7 -6 R 8 -5 R 8 -3 R 9 -1 R 9 0 R 9 2 R 8 4 R 7 6 R 6 7 R 4 8 R 3 8 R 1 9 R
F
12601 5193 M -1 9 R -2 8 R -5 8 R -6 7 R -7 5 R -8 4 R -9 2 R -9 1 R -8 -1 R
-9 -4 R -7 -4 R -7 -7 R -5 -7 R -4 -8 R -1 -9 R 0 -9 R 1 -9 R 4 -8 R 5 -7 R
7 -7 R 7 -4 R 9 -3 R 8 -2 R 9 1 R 9 2 R 8 4 R 7 5 R 6 7 R 5 8 R 2 9 R 1 9 R
F
12760 5203 M -1 9 R -3 8 R -4 8 R -6 7 R -7 5 R -8 4 R -9 3 R -9 0 R -8 -1 R
-9 -3 R -8 -5 R -6 -6 R -5 -8 R -4 -8 R -2 -9 R 0 -9 R 2 -9 R 4 -8 R 5 -7 R
6 -6 R 8 -5 R 9 -3 R 8 -2 R 9 1 R 9 2 R 8 4 R 7 6 R 6 6 R 4 8 R 3 9 R 1 9 R
F
12910 5212 M -1 9 R -2 9 R -5 8 R -5 6 R -8 6 R -8 4 R -8 2 R -9 1 R -9 -2 R
-9 -3 R -7 -5 R -7 -6 R -5 -7 R -3 -8 R -2 -9 R 0 -9 R 2 -9 R 3 -8 R 5 -8 R
7 -6 R 7 -5 R 9 -3 R 9 -1 R 9 0 R 8 3 R 8 4 R 8 5 R 5 7 R 5 8 R 2 8 R 1 9 R
F
13053 5222 M -1 8 R -3 9 R -4 8 R -6 7 R -7 5 R -8 4 R -9 2 R -9 1 R -9 -1 R
-8 -4 R -8 -4 R -6 -7 R -5 -7 R -4 -8 R -2 -9 R 0 -9 R 2 -9 R 4 -8 R 5 -7 R
6 -7 R 8 -4 R 8 -3 R 9 -2 R 9 1 R 9 2 R 8 4 R 7 5 R 6 7 R 4 8 R 3 9 R 1 9 R
F
13189 5231 M -1 8 R -3 9 R -4 8 R -6 7 R -7 5 R -8 4 R -9 2 R -9 1 R -9 -1 R
-8 -4 R -8 -4 R -6 -7 R -6 -7 R -3 -8 R -2 -9 R 0 -9 R 2 -9 R 3 -8 R 6 -7 R
6 -7 R 8 -4 R 8 -3 R 9 -2 R 9 1 R 9 2 R 8 4 R 7 5 R 6 7 R 4 8 R 3 9 R 1 9 R
F
13318 5239 M -1 9 R -3 9 R -4 8 R -6 7 R -7 5 R -8 4 R -9 2 R -9 1 R -9 -2 R
-8 -3 R -8 -5 R -6 -6 R -5 -7 R -4 -8 R -2 -9 R 0 -9 R 2 -9 R 4 -8 R 5 -8 R
6 -6 R 8 -5 R 8 -3 R 9 -1 R 9 0 R 9 3 R 8 4 R 7 5 R 6 7 R 4 8 R 3 8 R 1 9 R
F
13442 5247 M -1 9 R -3 9 R -4 8 R -6 7 R -7 5 R -8 4 R -9 2 R -9 1 R -9 -2 R
-8 -3 R -8 -4 R -6 -7 R -6 -7 R -3 -8 R -2 -9 R 0 -9 R 2 -9 R 3 -8 R 6 -8 R
6 -6 R 8 -4 R 8 -4 R 9 -1 R 9 1 R 9 2 R 8 4 R 7 5 R 6 7 R 4 8 R 3 8 R 1 9 R
F
13560 5255 M -1 9 R -3 8 R -4 8 R -6 7 R -7 6 R -8 4 R -9 2 R -9 0 R -9 -1 R
-8 -3 R -8 -5 R -6 -6 R -5 -8 R -4 -8 R -2 -9 R 0 -9 R 2 -8 R 4 -9 R 5 -7 R
6 -6 R 8 -5 R 8 -3 R 9 -1 R 9 0 R 9 2 R 8 4 R 7 6 R 6 7 R 4 7 R 3 9 R 1 9 R
F
13673 5262 M 0 9 R -3 9 R -5 7 R -5 7 R -7 6 R -9 4 R -8 2 R -9 0 R -9 -1 R
-9 -3 R -7 -5 R -7 -6 R -5 -7 R -3 -9 R -2 -9 R 0 -8 R 2 -9 R 3 -9 R 5 -7 R
7 -6 R 7 -5 R 9 -3 R 9 -1 R 9 0 R 8 2 R 9 4 R 7 6 R 5 7 R 5 7 R 3 9 R 0 9 R
F
13782 5269 M 0 9 R -3 9 R -4 8 R -6 7 R -7 5 R -8 4 R -9 2 R -9 1 R -9 -2 R
-8 -3 R -8 -4 R -7 -7 R -5 -7 R -3 -8 R -2 -9 R 0 -9 R 2 -9 R 3 -8 R 5 -8 R
7 -6 R 8 -4 R 8 -4 R 9 -1 R 9 1 R 9 2 R 8 4 R 7 5 R 6 7 R 4 8 R 3 8 R 0 9 R
F
13887 5277 M 0 9 R -3 8 R -5 8 R -5 7 R -7 6 R -9 4 R -8 2 R -9 0 R -9 -1 R
-9 -3 R -7 -5 R -7 -6 R -5 -7 R -3 -9 R -2 -9 R 0 -9 R 2 -8 R 3 -9 R 5 -7 R
7 -6 R 7 -5 R 9 -3 R 9 -1 R 9 0 R 8 2 R 9 4 R 7 6 R 5 7 R 5 7 R 3 9 R 0 9 R
F
13989 5284 M -1 9 R -3 9 R -4 8 R -6 7 R -7 5 R -8 4 R -9 2 R -9 1 R -9 -2 R
-8 -3 R -8 -5 R -7 -6 R -5 -7 R -3 -8 R -2 -9 R 0 -9 R 2 -9 R 3 -8 R 5 -8 R
7 -6 R 8 -5 R 8 -3 R 9 -1 R 9 0 R 9 3 R 8 4 R 7 5 R 6 7 R 4 8 R 3 8 R 1 9 R
F
14086 5292 M -1 9 R -2 8 R -5 8 R -6 7 R -7 6 R -8 3 R -9 3 R -9 0 R -8 -1 R
-9 -3 R -7 -5 R -7 -6 R -5 -8 R -4 -8 R -1 -9 R 0 -9 R 1 -8 R 4 -9 R 5 -7 R
7 -6 R 7 -5 R 9 -3 R 8 -2 R 9 1 R 9 2 R 8 4 R 7 6 R 6 6 R 5 8 R 2 9 R 1 9 R
F
14180 5299 M -1 9 R -2 8 R -5 8 R -5 7 R -8 6 R -8 4 R -8 2 R -9 0 R -9 -1 R
-9 -3 R -7 -5 R -7 -6 R -5 -7 R -3 -9 R -2 -9 R 0 -9 R 2 -8 R 3 -9 R 5 -7 R
7 -6 R 7 -5 R 9 -3 R 9 -1 R 9 0 R 8 2 R 8 4 R 8 6 R 5 7 R 5 7 R 2 9 R 1 9 R
F
14272 5306 M -1 9 R -3 9 R -4 7 R -6 7 R -7 6 R -8 4 R -9 2 R -9 0 R -9 -1 R
-8 -3 R -8 -5 R -7 -6 R -5 -7 R -3 -9 R -2 -8 R 0 -9 R 2 -9 R 3 -9 R 5 -7 R
7 -6 R 8 -5 R 8 -3 R 9 -1 R 9 0 R 9 2 R 8 4 R 7 6 R 6 7 R 4 8 R 3 8 R 1 9 R
F
14360 5313 M -1 9 R -3 8 R -4 8 R -6 7 R -7 6 R -8 4 R -9 2 R -9 0 R -9 -1 R
-8 -3 R -8 -5 R -6 -6 R -5 -7 R -4 -9 R -2 -9 R 0 -9 R 2 -8 R 4 -9 R 5 -7 R
6 -6 R 8 -5 R 8 -3 R 9 -1 R 9 0 R 9 2 R 8 4 R 7 6 R 6 7 R 4 7 R 3 9 R 1 9 R
F
14445 5320 M -1 9 R -2 8 R -5 8 R -5 7 R -8 5 R -8 4 R -8 3 R -9 0 R -9 -1 R
-9 -3 R -7 -5 R -7 -6 R -5 -8 R -3 -8 R -2 -9 R 0 -9 R 2 -9 R 3 -8 R 5 -7 R
7 -6 R 7 -5 R 9 -3 R 9 -2 R 9 1 R 8 2 R 8 4 R 8 6 R 5 6 R 5 8 R 2 9 R 1 9 R
F
14528 5326 M -1 9 R -2 9 R -5 7 R -5 7 R -8 6 R -8 4 R -8 2 R -9 0 R -9 -1 R
-9 -3 R -7 -5 R -7 -6 R -5 -7 R -3 -9 R -2 -8 R 0 -9 R 2 -9 R 3 -8 R 5 -8 R
7 -6 R 7 -5 R 9 -3 R 9 -1 R 9 0 R 8 2 R 8 4 R 8 6 R 5 7 R 5 8 R 2 8 R 1 9 R
F
14609 5332 M -1 9 R -3 9 R -4 8 R -6 7 R -7 5 R -8 4 R -9 2 R -9 1 R -9 -2 R
-8 -3 R -8 -5 R -6 -6 R -5 -7 R -4 -8 R -2 -9 R 0 -9 R 2 -9 R 4 -8 R 5 -8 R
6 -6 R 8 -5 R 8 -3 R 9 -1 R 9 0 R 9 3 R 8 4 R 7 5 R 6 7 R 4 8 R 3 8 R 1 9 R
F
14687 5339 M -1 9 R -2 9 R -5 7 R -5 7 R -8 6 R -8 4 R -8 2 R -9 0 R -9 -1 R
-9 -3 R -7 -5 R -7 -6 R -5 -7 R -3 -9 R -2 -8 R 0 -9 R 2 -9 R 3 -8 R 5 -8 R
7 -6 R 7 -5 R 9 -3 R 9 -1 R 9 0 R 8 2 R 8 4 R 8 6 R 5 7 R 5 8 R 2 8 R 1 9 R
F
14764 5346 M -1 9 R -3 8 R -4 8 R -6 7 R -7 6 R -8 4 R -9 2 R -9 0 R -9 -1 R
-8 -3 R -8 -5 R -7 -6 R -5 -7 R -3 -9 R -2 -9 R 0 -9 R 2 -8 R 3 -9 R 5 -7 R
7 -6 R 8 -5 R 8 -3 R 9 -1 R 9 0 R 9 2 R 8 4 R 7 6 R 6 7 R 4 7 R 3 9 R 1 9 R
F
14838 5353 M -1 8 R -3 9 R -4 8 R -6 7 R -7 5 R -8 4 R -9 2 R -9 1 R -9 -1 R
-8 -4 R -8 -4 R -6 -7 R -6 -7 R -3 -8 R -2 -9 R 0 -9 R 2 -9 R 3 -8 R 6 -7 R
6 -7 R 8 -4 R 8 -3 R 9 -2 R 9 1 R 9 2 R 8 4 R 7 5 R 6 7 R 4 8 R 3 9 R 1 9 R
F
14910 5359 M -1 9 R -3 8 R -4 8 R -6 7 R -7 5 R -8 4 R -9 3 R -9 0 R -9 -1 R
-8 -3 R -8 -5 R -6 -6 R -5 -8 R -4 -8 R -2 -9 R 0 -9 R 2 -9 R 4 -8 R 5 -7 R
6 -6 R 8 -5 R 8 -3 R 9 -2 R 9 1 R 9 2 R 8 4 R 7 6 R 6 6 R 4 8 R 3 9 R 1 9 R
F
14980 5365 M -1 9 R -2 8 R -5 8 R -6 7 R -7 5 R -8 4 R -8 3 R -9 0 R -9 -1 R
-9 -3 R -7 -5 R -7 -6 R -5 -8 R -3 -8 R -2 -9 R 0 -9 R 2 -9 R 3 -8 R 5 -7 R
7 -6 R 7 -5 R 9 -3 R 9 -2 R 9 1 R 8 2 R 8 4 R 7 5 R 6 7 R 5 8 R 2 9 R 1 9 R
F
0.804 0.000 0.000 setrgbcolor 2131 4599 M 12805 741 R D
0.471 0.471 0.863 setrgbcolor gsave 4059 4401 translate 0 0 M
%%IncludeResource: font Times-Italic
423.333 /Times-Italic STDFONT
(p) show
%%IncludeResource: font Times-Roman
423.333 /Times-Roman STDFONT
( = 6) show
%%IncludeResource: font Helvetica
423.333 /Helvetica STDFONT grestore 4723 3999 M 0 9 R -3 8 R -5 8 R -5 7 R
-8 5 R -8 4 R -8 3 R -9 0 R -9 -1 R -9 -4 R -7 -4 R -7 -6 R -5 -8 R -3 -8 R
-2 -9 R 0 -9 R 2 -9 R 3 -8 R 5 -7 R 7 -6 R 7 -5 R 9 -3 R 9 -2 R 9 1 R 8 2 R
8 4 R 8 5 R 5 7 R 5 8 R 3 9 R 0 9 R F
6651 4068 M -1 9 R -3 8 R -4 8 R -6 7 R -7 6 R -8 3 R -9 3 R -9 0 R -9 -1 R
-8 -3 R -8 -5 R -6 -6 R -6 -8 R -3 -8 R -2 -9 R 0 -9 R 2 -8 R 3 -9 R 6 -7 R
6 -6 R 8 -5 R 8 -3 R 9 -1 R 9 0 R 9 2 R 8 4 R 7 6 R 6 6 R 4 8 R 3 9 R 1 9 R
F
7778 4114 M -1 9 R -3 9 R -4 8 R -6 6 R -7 6 R -8 4 R -9 2 R -9 1 R -8 -2 R
-9 -3 R -7 -5 R -7 -6 R -5 -7 R -4 -8 R -1 -9 R 0 -9 R 1 -9 R 4 -8 R 5 -8 R
7 -6 R 7 -5 R 9 -3 R 8 -1 R 9 0 R 9 3 R 8 4 R 7 5 R 6 7 R 4 8 R 3 8 R 1 9 R
F
8578 4147 M -1 9 R -3 8 R -4 8 R -6 7 R -7 6 R -8 3 R -9 3 R -9 0 R -9 -1 R
-8 -3 R -8 -5 R -6 -6 R -5 -8 R -4 -8 R -2 -9 R 0 -9 R 2 -8 R 4 -9 R 5 -7 R
6 -6 R 8 -5 R 8 -3 R 9 -2 R 9 1 R 9 2 R 8 4 R 7 6 R 6 6 R 4 8 R 3 9 R 1 9 R
F
9198 4176 M 0 9 R -3 9 R -5 7 R -5 7 R -7 6 R -9 4 R -8 2 R -9 0 R -9 -1 R
-9 -3 R -7 -5 R -7 -6 R -5 -7 R -3 -9 R -2 -8 R 0 -9 R 2 -9 R 3 -9 R 5 -7 R
7 -6 R 7 -5 R 9 -3 R 9 -1 R 9 0 R 8 2 R 9 4 R 7 6 R 5 7 R 5 8 R 3 8 R 0 9 R
F
9705 4206 M -1 9 R -2 9 R -5 8 R -5 7 R -8 5 R -8 4 R -8 2 R -9 1 R -9 -2 R
-9 -3 R -7 -5 R -7 -6 R -5 -7 R -3 -8 R -2 -9 R 0 -9 R 2 -9 R 3 -8 R 5 -8 R
7 -6 R 7 -5 R 9 -3 R 9 -1 R 9 0 R 8 3 R 8 4 R 8 5 R 5 7 R 5 8 R 2 8 R 1 9 R
F
10134 4228 M -1 9 R -3 9 R -4 8 R -6 7 R -7 5 R -8 4 R -9 2 R -9 1 R -9 -2 R
-8 -3 R -8 -4 R -6 -7 R -5 -7 R -4 -8 R -2 -9 R 0 -9 R 2 -9 R 4 -8 R 5 -8 R
6 -6 R 8 -4 R 8 -4 R 9 -1 R 9 1 R 9 2 R 8 4 R 7 5 R 6 7 R 4 8 R 3 8 R 1 9 R
F
10505 4248 M -1 9 R -2 9 R -5 7 R -6 7 R -7 6 R -8 4 R -8 2 R -9 0 R -9 -1 R
-9 -3 R -7 -5 R -7 -6 R -5 -7 R -4 -9 R -1 -8 R 0 -9 R 1 -9 R 4 -8 R 5 -8 R
7 -6 R 7 -5 R 9 -3 R 9 -1 R 9 0 R 8 2 R 8 4 R 7 6 R 6 7 R 5 8 R 2 8 R 1 9 R
F
10833 4269 M -1 9 R -3 8 R -4 8 R -6 7 R -7 5 R -8 4 R -9 3 R -9 0 R -9 -1 R
-8 -3 R -8 -5 R -6 -6 R -5 -8 R -4 -8 R -2 -9 R 0 -9 R 2 -9 R 4 -8 R 5 -7 R
6 -6 R 8 -5 R 8 -3 R 9 -2 R 9 1 R 9 2 R 8 4 R 7 5 R 6 7 R 4 8 R 3 9 R 1 9 R
F
11126 4286 M -1 9 R -3 9 R -4 8 R -6 6 R -7 6 R -8 4 R -9 2 R -9 1 R -9 -2 R
-8 -3 R -8 -5 R -6 -6 R -6 -7 R -3 -8 R -2 -9 R 0 -9 R 2 -9 R 3 -8 R 6 -8 R
6 -6 R 8 -5 R 8 -3 R 9 -1 R 9 0 R 9 3 R 8 4 R 7 5 R 6 7 R 4 8 R 3 8 R 1 9 R
F
11391 4302 M -1 9 R -3 9 R -4 7 R -6 7 R -7 6 R -8 4 R -9 2 R -9 0 R -9 -1 R
-8 -3 R -8 -5 R -6 -6 R -6 -7 R -3 -9 R -2 -8 R 0 -9 R 2 -9 R 3 -8 R 6 -8 R
6 -6 R 8 -5 R 8 -3 R 9 -1 R 9 0 R 9 2 R 8 4 R 7 6 R 6 7 R 4 8 R 3 8 R 1 9 R
F
11633 4317 M -1 9 R -3 8 R -4 8 R -6 7 R -7 5 R -8 4 R -9 3 R -9 0 R -9 -1 R
-8 -3 R -8 -5 R -6 -6 R -6 -8 R -3 -8 R -2 -9 R 0 -9 R 2 -9 R 3 -8 R 6 -7 R
6 -6 R 8 -5 R 8 -3 R 9 -2 R 9 1 R 9 2 R 8 4 R 7 6 R 6 6 R 4 8 R 3 9 R 1 9 R
F
11855 4331 M -1 9 R -2 8 R -5 8 R -6 7 R -7 5 R -8 4 R -8 3 R -9 0 R -9 -1 R
-9 -3 R -7 -5 R -7 -6 R -5 -8 R -4 -8 R -1 -9 R 0 -9 R 1 -9 R 4 -8 R 5 -7 R
7 -6 R 7 -5 R 9 -3 R 9 -2 R 9 1 R 8 2 R 8 4 R 7 6 R 6 6 R 5 8 R 2 9 R 1 9 R
F
12061 4345 M -1 9 R -2 8 R -5 8 R -6 7 R -7 6 R -8 3 R -8 3 R -9 0 R -9 -1 R
-9 -3 R -7 -5 R -7 -6 R -5 -8 R -4 -8 R -1 -9 R 0 -9 R 1 -8 R 4 -9 R 5 -7 R
7 -6 R 7 -5 R 9 -3 R 9 -1 R 9 0 R 8 2 R 8 4 R 7 6 R 6 6 R 5 8 R 2 9 R 1 9 R
F
12253 4357 M -1 9 R -3 9 R -4 7 R -6 7 R -7 6 R -8 4 R -9 2 R -9 0 R -8 -1 R
-9 -3 R -7 -5 R -7 -6 R -5 -7 R -4 -9 R -1 -8 R 0 -9 R 1 -9 R 4 -8 R 5 -8 R
7 -6 R 7 -5 R 9 -3 R 8 -1 R 9 0 R 9 2 R 8 4 R 7 6 R 6 7 R 4 8 R 3 8 R 1 9 R
F
12433 4369 M -1 8 R -3 9 R -4 8 R -6 7 R -7 5 R -8 4 R -9 2 R -9 1 R -9 -1 R
-8 -4 R -8 -4 R -7 -7 R -5 -7 R -3 -8 R -2 -9 R 0 -9 R 2 -9 R 3 -8 R 5 -7 R
7 -7 R 8 -4 R 8 -3 R 9 -2 R 9 1 R 9 2 R 8 4 R 7 5 R 6 7 R 4 8 R 3 9 R 1 9 R
F
12601 4379 M -1 9 R -2 8 R -5 8 R -6 7 R -7 5 R -8 4 R -9 3 R -9 0 R -8 -1 R
-9 -3 R -7 -5 R -7 -6 R -5 -8 R -4 -8 R -1 -9 R 0 -9 R 1 -9 R 4 -8 R 5 -7 R
7 -6 R 7 -5 R 9 -3 R 8 -2 R 9 1 R 9 2 R 8 4 R 7 6 R 6 6 R 5 8 R 2 9 R 1 9 R
F
12760 4388 M -1 9 R -3 9 R -4 8 R -6 6 R -7 6 R -8 4 R -9 2 R -9 1 R -8 -2 R
-9 -3 R -8 -5 R -6 -6 R -5 -7 R -4 -8 R -2 -9 R 0 -9 R 2 -9 R 4 -8 R 5 -8 R
6 -6 R 8 -5 R 9 -3 R 8 -1 R 9 0 R 9 3 R 8 4 R 7 5 R 6 7 R 4 8 R 3 8 R 1 9 R
F
12910 4397 M -1 9 R -2 9 R -5 7 R -5 7 R -8 6 R -8 4 R -8 2 R -9 0 R -9 -1 R
-9 -3 R -7 -5 R -7 -6 R -5 -7 R -3 -9 R -2 -8 R 0 -9 R 2 -9 R 3 -9 R 5 -7 R
7 -6 R 7 -5 R 9 -3 R 9 -1 R 9 0 R 8 2 R 8 4 R 8 6 R 5 7 R 5 8 R 2 8 R 1 9 R
F
13053 4406 M -1 9 R -3 9 R -4 8 R -6 7 R -7 5 R -8 4 R -9 2 R -9 1 R -9 -2 R
-8 -3 R -8 -4 R -6 -7 R -5 -7 R -4 -8 R -2 -9 R 0 -9 R 2 -9 R 4 -8 R 5 -8 R
6 -6 R 8 -4 R 8 -4 R 9 -1 R 9 1 R 9 2 R 8 4 R 7 5 R 6 7 R 4 8 R 3 8 R 1 9 R
F
13189 4416 M -1 9 R -3 9 R -4 7 R -6 7 R -7 6 R -8 4 R -9 2 R -9 0 R -9 -1 R
-8 -3 R -8 -5 R -6 -6 R -6 -7 R -3 -9 R -2 -9 R 0 -8 R 2 -9 R 3 -9 R 6 -7 R
6 -6 R 8 -5 R 8 -3 R 9 -1 R 9 0 R 9 2 R 8 4 R 7 6 R 6 7 R 4 7 R 3 9 R 1 9 R
F
13318 4425 M -1 9 R -3 8 R -4 8 R -6 7 R -7 6 R -8 4 R -9 2 R -9 0 R -9 -1 R
-8 -3 R -8 -5 R -6 -6 R -5 -7 R -4 -9 R -2 -9 R 0 -9 R 2 -8 R 4 -9 R 5 -7 R
6 -6 R 8 -5 R 8 -3 R 9 -1 R 9 0 R 9 2 R 8 4 R 7 6 R 6 7 R 4 7 R 3 9 R 1 9 R
F
13442 4434 M -1 9 R -3 8 R -4 8 R -6 7 R -7 5 R -8 4 R -9 2 R -9 1 R -9 -1 R
-8 -4 R -8 -4 R -6 -6 R -6 -8 R -3 -8 R -2 -9 R 0 -9 R 2 -9 R 3 -8 R 6 -7 R
6 -7 R 8 -4 R 8 -3 R 9 -2 R 9 1 R 9 2 R 8 4 R 7 5 R 6 7 R 4 8 R 3 9 R 1 9 R
F
13560 4442 M -1 9 R -3 9 R -4 8 R -6 7 R -7 5 R -8 4 R -9 2 R -9 1 R -9 -2 R
-8 -3 R -8 -4 R -6 -7 R -5 -7 R -4 -8 R -2 -9 R 0 -9 R 2 -9 R 4 -8 R 5 -7 R
6 -7 R 8 -4 R 8 -4 R 9 -1 R 9 1 R 9 2 R 8 4 R 7 5 R 6 7 R 4 8 R 3 9 R 1 8 R
F
13673 4451 M 0 9 R -3 9 R -5 8 R -5 6 R -7 6 R -9 4 R -8 2 R -9 1 R -9 -2 R
-9 -3 R -7 -5 R -7 -6 R -5 -7 R -3 -8 R -2 -9 R 0 -9 R 2 -9 R 3 -8 R 5 -8 R
7 -6 R 7 -5 R 9 -3 R 9 -1 R 9 0 R 8 3 R 9 4 R 7 5 R 5 7 R 5 8 R 3 8 R 0 9 R
F
13782 4459 M 0 9 R -3 9 R -4 8 R -6 7 R -7 5 R -8 4 R -9 2 R -9 1 R -9 -2 R
-8 -3 R -8 -4 R -7 -7 R -5 -7 R -3 -8 R -2 -9 R 0 -9 R 2 -9 R 3 -8 R 5 -7 R
7 -7 R 8 -4 R 8 -4 R 9 -1 R 9 1 R 9 2 R 8 4 R 7 5 R 6 7 R 4 8 R 3 9 R 0 8 R
F
13887 4467 M 0 9 R -3 9 R -5 8 R -5 6 R -7 6 R -9 4 R -8 2 R -9 1 R -9 -2 R
-9 -3 R -7 -5 R -7 -6 R -5 -7 R -3 -8 R -2 -9 R 0 -9 R 2 -9 R 3 -8 R 5 -8 R
7 -6 R 7 -5 R 9 -3 R 9 -1 R 9 0 R 8 3 R 9 4 R 7 5 R 5 7 R 5 8 R 3 8 R 0 9 R
F
13989 4475 M -1 9 R -3 8 R -4 8 R -6 7 R -7 5 R -8 4 R -9 3 R -9 0 R -9 -1 R
-8 -4 R -8 -4 R -7 -6 R -5 -8 R -3 -8 R -2 -9 R 0 -9 R 2 -9 R 3 -8 R 5 -7 R
7 -6 R 8 -5 R 8 -3 R 9 -2 R 9 1 R 9 2 R 8 4 R 7 5 R 6 7 R 4 8 R 3 9 R 1 9 R
F
14086 4482 M -1 8 R -2 9 R -5 8 R -6 7 R -7 5 R -8 4 R -9 2 R -9 1 R -8 -1 R
-9 -4 R -7 -4 R -7 -7 R -5 -7 R -4 -8 R -1 -9 R 0 -9 R 1 -9 R 4 -8 R 5 -7 R
7 -7 R 7 -4 R 9 -3 R 8 -2 R 9 1 R 9 2 R 8 4 R 7 5 R 6 7 R 5 8 R 2 9 R 1 9 R
F
14180 4489 M -1 8 R -2 9 R -5 8 R -5 7 R -8 5 R -8 4 R -8 2 R -9 1 R -9 -1 R
-9 -4 R -7 -4 R -7 -7 R -5 -7 R -3 -8 R -2 -9 R 0 -9 R 2 -9 R 3 -8 R 5 -7 R
7 -7 R 7 -4 R 9 -3 R 9 -2 R 9 1 R 8 2 R 8 4 R 8 5 R 5 7 R 5 8 R 2 9 R 1 9 R
F
14272 4495 M -1 9 R -3 9 R -4 8 R -6 7 R -7 5 R -8 4 R -9 2 R -9 1 R -9 -2 R
-8 -3 R -8 -4 R -7 -7 R -5 -7 R -3 -8 R -2 -9 R 0 -9 R 2 -9 R 3 -8 R 5 -8 R
7 -6 R 8 -4 R 8 -4 R 9 -1 R 9 1 R 9 2 R 8 4 R 7 5 R 6 7 R 4 8 R 3 8 R 1 9 R
F
14360 4502 M -1 9 R -3 8 R -4 8 R -6 7 R -7 6 R -8 4 R -9 2 R -9 0 R -9 -1 R
-8 -3 R -8 -5 R -6 -6 R -5 -7 R -4 -9 R -2 -9 R 0 -9 R 2 -8 R 4 -9 R 5 -7 R
6 -6 R 8 -5 R 8 -3 R 9 -1 R 9 0 R 9 2 R 8 4 R 7 6 R 6 7 R 4 7 R 3 9 R 1 9 R
F
0.804 0.000 0.000 setrgbcolor 2131 3802 M 12805 714 R D
0.471 0.471 0.863 setrgbcolor gsave 5365 4220 translate 0 0 M
%%IncludeResource: font Times-Italic
423.333 /Times-Italic STDFONT
(p) show
%%IncludeResource: font Times-Roman
423.333 /Times-Roman STDFONT
( = 7) show
%%IncludeResource: font Helvetica
423.333 /Helvetica STDFONT grestore 4723 3846 M 0 9 R -3 8 R -5 8 R -5 7 R
-8 5 R -8 4 R -8 3 R -9 0 R -9 -1 R -9 -3 R -7 -5 R -7 -6 R -5 -8 R -3 -8 R
-2 -9 R 0 -9 R 2 -9 R 3 -8 R 5 -7 R 7 -6 R 7 -5 R 9 -3 R 9 -2 R 9 1 R 8 2 R
8 4 R 8 6 R 5 6 R 5 8 R 3 9 R 0 9 R F
6651 3942 M -1 9 R -3 8 R -4 8 R -6 7 R -7 6 R -8 4 R -9 2 R -9 0 R -9 -1 R
-8 -3 R -8 -5 R -6 -6 R -6 -8 R -3 -8 R -2 -9 R 0 -9 R 2 -8 R 3 -9 R 6 -7 R
6 -6 R 8 -5 R 8 -3 R 9 -1 R 9 0 R 9 2 R 8 4 R 7 6 R 6 7 R 4 7 R 3 9 R 1 9 R
F
7778 3993 M -1 8 R -3 9 R -4 8 R -6 7 R -7 5 R -8 4 R -9 2 R -9 1 R -8 -1 R
-9 -4 R -7 -4 R -7 -7 R -5 -7 R -4 -8 R -1 -9 R 0 -9 R 1 -9 R 4 -8 R 5 -7 R
7 -7 R 7 -4 R 9 -3 R 8 -2 R 9 1 R 9 2 R 8 4 R 7 5 R 6 7 R 4 8 R 3 9 R 1 9 R
F
8578 4030 M -1 9 R -3 8 R -4 8 R -6 7 R -7 5 R -8 4 R -9 3 R -9 0 R -9 -1 R
-8 -3 R -8 -5 R -6 -6 R -5 -8 R -4 -8 R -2 -9 R 0 -9 R 2 -9 R 4 -8 R 5 -7 R
6 -6 R 8 -5 R 8 -3 R 9 -2 R 9 1 R 9 2 R 8 4 R 7 5 R 6 7 R 4 8 R 3 9 R 1 9 R
F
9198 4058 M 0 9 R -3 8 R -5 8 R -5 7 R -7 5 R -9 4 R -8 3 R -9 0 R -9 -1 R
-9 -3 R -7 -5 R -7 -6 R -5 -8 R -3 -8 R -2 -9 R 0 -9 R 2 -9 R 3 -8 R 5 -7 R
7 -6 R 7 -5 R 9 -3 R 9 -2 R 9 1 R 8 2 R 9 4 R 7 5 R 5 7 R 5 8 R 3 9 R 0 9 R
F
9705 4079 M -1 8 R -2 9 R -5 8 R -5 7 R -8 5 R -8 4 R -8 2 R -9 1 R -9 -1 R
-9 -4 R -7 -4 R -7 -7 R -5 -7 R -3 -8 R -2 -9 R 0 -9 R 2 -9 R 3 -8 R 5 -7 R
7 -7 R 7 -4 R 9 -3 R 9 -2 R 9 1 R 8 2 R 8 4 R 8 5 R 5 7 R 5 8 R 2 9 R 1 9 R
F
10134 4099 M -1 9 R -3 8 R -4 8 R -6 7 R -7 6 R -8 4 R -9 2 R -9 0 R -9 -1 R
-8 -3 R -8 -5 R -6 -6 R -5 -7 R -4 -9 R -2 -9 R 0 -9 R 2 -8 R 4 -9 R 5 -7 R
6 -6 R 8 -5 R 8 -3 R 9 -1 R 9 0 R 9 2 R 8 4 R 7 6 R 6 7 R 4 7 R 3 9 R 1 9 R
F
10505 4118 M -1 9 R -2 8 R -5 8 R -6 7 R -7 5 R -8 4 R -8 3 R -9 0 R -9 -1 R
-9 -3 R -7 -5 R -7 -6 R -5 -8 R -4 -8 R -1 -9 R 0 -9 R 1 -9 R 4 -8 R 5 -7 R
7 -6 R 7 -5 R 9 -3 R 9 -2 R 9 1 R 8 2 R 8 4 R 7 6 R 6 6 R 5 8 R 2 9 R 1 9 R
F
10833 4133 M -1 9 R -3 8 R -4 8 R -6 7 R -7 5 R -8 4 R -9 3 R -9 0 R -9 -1 R
-8 -3 R -8 -5 R -6 -6 R -5 -8 R -4 -8 R -2 -9 R 0 -9 R 2 -8 R 4 -9 R 5 -7 R
6 -6 R 8 -5 R 8 -3 R 9 -2 R 9 1 R 9 2 R 8 4 R 7 6 R 6 6 R 4 8 R 3 9 R 1 9 R
F
11126 4131 M -1 9 R -3 8 R -4 8 R -6 7 R -7 6 R -8 4 R -9 2 R -9 0 R -9 -1 R
-8 -3 R -8 -5 R -6 -6 R -6 -8 R -3 -8 R -2 -9 R 0 -9 R 2 -8 R 3 -9 R 6 -7 R
6 -6 R 8 -5 R 8 -3 R 9 -1 R 9 0 R 9 2 R 8 4 R 7 6 R 6 7 R 4 7 R 3 9 R 1 9 R
F
11391 4154 M -1 9 R -3 8 R -4 8 R -6 7 R -7 6 R -8 4 R -9 2 R -9 0 R -9 -1 R
-8 -3 R -8 -5 R -6 -6 R -6 -7 R -3 -9 R -2 -9 R 0 -9 R 2 -8 R 3 -9 R 6 -7 R
6 -6 R 8 -5 R 8 -3 R 9 -1 R 9 0 R 9 2 R 8 4 R 7 6 R 6 7 R 4 7 R 3 9 R 1 9 R
F
11633 4208 M -1 9 R -3 8 R -4 8 R -6 7 R -7 5 R -8 4 R -9 2 R -9 1 R -9 -1 R
-8 -4 R -8 -4 R -6 -7 R -6 -7 R -3 -8 R -2 -9 R 0 -9 R 2 -9 R 3 -8 R 6 -7 R
6 -7 R 8 -4 R 8 -3 R 9 -2 R 9 1 R 9 2 R 8 4 R 7 5 R 6 7 R 4 8 R 3 9 R 1 9 R
F
11855 4242 M -1 9 R -2 8 R -5 8 R -6 7 R -7 6 R -8 4 R -8 2 R -9 0 R -9 -1 R
-9 -3 R -7 -5 R -7 -6 R -5 -7 R -4 -9 R -1 -9 R 0 -9 R 1 -8 R 4 -9 R 5 -7 R
7 -6 R 7 -5 R 9 -3 R 9 -1 R 9 0 R 8 2 R 8 4 R 7 6 R 6 7 R 5 7 R 2 9 R 1 9 R
F
12061 4258 M -1 9 R -2 8 R -5 8 R -6 7 R -7 5 R -8 4 R -8 3 R -9 0 R -9 -1 R
-9 -3 R -7 -5 R -7 -6 R -5 -8 R -4 -8 R -1 -9 R 0 -9 R 1 -9 R 4 -8 R 5 -7 R
7 -6 R 7 -5 R 9 -3 R 9 -2 R 9 1 R 8 2 R 8 4 R 7 6 R 6 6 R 5 8 R 2 9 R 1 9 R
F
12253 4266 M -1 9 R -3 9 R -4 8 R -6 6 R -7 6 R -8 4 R -9 2 R -9 1 R -8 -2 R
-9 -3 R -7 -5 R -7 -6 R -5 -7 R -4 -8 R -1 -9 R 0 -9 R 1 -9 R 4 -8 R 5 -8 R
7 -6 R 7 -5 R 9 -3 R 8 -1 R 9 0 R 9 3 R 8 4 R 7 5 R 6 7 R 4 8 R 3 8 R 1 9 R
F
12433 4271 M -1 9 R -3 9 R -4 8 R -6 7 R -7 5 R -8 4 R -9 2 R -9 1 R -9 -2 R
-8 -3 R -8 -4 R -7 -7 R -5 -7 R -3 -8 R -2 -9 R 0 -9 R 2 -9 R 3 -8 R 5 -8 R
7 -6 R 8 -4 R 8 -4 R 9 -1 R 9 1 R 9 2 R 8 4 R 7 5 R 6 7 R 4 8 R 3 8 R 1 9 R
F
12601 4284 M -1 9 R -2 9 R -5 8 R -6 7 R -7 5 R -8 4 R -9 2 R -9 1 R -8 -2 R
-9 -3 R -7 -4 R -7 -7 R -5 -7 R -4 -8 R -1 -9 R 0 -9 R 1 -9 R 4 -8 R 5 -7 R
7 -7 R 7 -4 R 9 -4 R 8 -1 R 9 1 R 9 2 R 8 4 R 7 5 R 6 7 R 5 8 R 2 9 R 1 8 R
F
12760 4293 M -1 9 R -3 8 R -4 8 R -6 7 R -7 5 R -8 4 R -9 3 R -9 0 R -8 -1 R
-9 -3 R -8 -5 R -6 -6 R -5 -8 R -4 -8 R -2 -9 R 0 -9 R 2 -9 R 4 -8 R 5 -7 R
6 -6 R 8 -5 R 9 -3 R 8 -2 R 9 1 R 9 2 R 8 4 R 7 5 R 6 7 R 4 8 R 3 9 R 1 9 R
F
12910 4292 M -1 9 R -2 9 R -5 8 R -5 7 R -8 5 R -8 4 R -8 2 R -9 1 R -9 -2 R
-9 -3 R -7 -5 R -7 -6 R -5 -7 R -3 -8 R -2 -9 R 0 -9 R 2 -9 R 3 -8 R 5 -8 R
7 -6 R 7 -4 R 9 -4 R 9 -1 R 9 0 R 8 3 R 8 4 R 8 5 R 5 7 R 5 8 R 2 8 R 1 9 R
F
13053 4269 M -1 9 R -3 9 R -4 8 R -6 6 R -7 6 R -8 4 R -9 2 R -9 0 R -9 -1 R
-8 -3 R -8 -5 R -6 -6 R -5 -7 R -4 -9 R -2 -8 R 0 -9 R 2 -9 R 4 -8 R 5 -8 R
6 -6 R 8 -5 R 8 -3 R 9 -1 R 9 0 R 9 3 R 8 3 R 7 6 R 6 7 R 4 8 R 3 8 R 1 9 R
F
13189 4264 M -1 9 R -3 9 R -4 8 R -6 6 R -7 6 R -8 4 R -9 2 R -9 1 R -9 -2 R
-8 -3 R -8 -5 R -6 -6 R -6 -7 R -3 -8 R -2 -9 R 0 -9 R 2 -9 R 3 -8 R 6 -8 R
6 -6 R 8 -5 R 8 -3 R 9 -1 R 9 0 R 9 3 R 8 4 R 7 5 R 6 7 R 4 8 R 3 8 R 1 9 R
F
13318 4244 M -1 9 R -3 8 R -4 8 R -6 7 R -7 6 R -8 4 R -9 2 R -9 0 R -9 -1 R
-8 -3 R -8 -5 R -6 -6 R -5 -8 R -4 -8 R -2 -9 R 0 -9 R 2 -8 R 4 -9 R 5 -7 R
6 -6 R 8 -5 R 8 -3 R 9 -1 R 9 0 R 9 2 R 8 4 R 7 6 R 6 7 R 4 7 R 3 9 R 1 9 R
F
13442 4277 M -1 9 R -3 8 R -4 8 R -6 7 R -7 6 R -8 4 R -9 2 R -9 0 R -9 -1 R
-8 -3 R -8 -5 R -6 -6 R -6 -8 R -3 -8 R -2 -9 R 0 -9 R 2 -8 R 3 -9 R 6 -7 R
6 -6 R 8 -5 R 8 -3 R 9 -1 R 9 0 R 9 2 R 8 4 R 7 6 R 6 7 R 4 7 R 3 9 R 1 9 R
F
13560 4306 M -1 9 R -3 8 R -4 8 R -6 7 R -7 5 R -8 4 R -9 3 R -9 0 R -9 -1 R
-8 -3 R -8 -5 R -6 -6 R -5 -8 R -4 -8 R -2 -9 R 0 -9 R 2 -9 R 4 -8 R 5 -7 R
6 -6 R 8 -5 R 8 -3 R 9 -2 R 9 1 R 9 2 R 8 4 R 7 6 R 6 6 R 4 8 R 3 9 R 1 9 R
F
13673 4323 M 0 9 R -3 8 R -5 8 R -5 7 R -7 5 R -9 4 R -8 3 R -9 0 R -9 -1 R
-9 -3 R -7 -5 R -7 -6 R -5 -8 R -3 -8 R -2 -9 R 0 -9 R 2 -9 R 3 -8 R 5 -7 R
7 -6 R 7 -5 R 9 -3 R 9 -2 R 9 1 R 8 2 R 9 4 R 7 5 R 5 7 R 5 8 R 3 9 R 0 9 R
F
13782 4328 M 0 9 R -3 9 R -4 8 R -6 6 R -7 6 R -8 4 R -9 2 R -9 1 R -9 -2 R
-8 -3 R -8 -5 R -7 -6 R -5 -7 R -3 -8 R -2 -9 R 0 -9 R 2 -9 R 3 -8 R 5 -8 R
7 -6 R 8 -5 R 8 -3 R 9 -1 R 9 0 R 9 3 R 8 4 R 7 5 R 6 7 R 4 8 R 3 8 R 0 9 R
F
13887 4306 M 0 9 R -3 8 R -5 8 R -5 7 R -7 6 R -9 4 R -8 2 R -9 0 R -9 -1 R
-9 -3 R -7 -5 R -7 -6 R -5 -8 R -3 -8 R -2 -9 R 0 -9 R 2 -8 R 3 -9 R 5 -7 R
7 -6 R 7 -5 R 9 -3 R 9 -1 R 9 0 R 8 2 R 9 4 R 7 6 R 5 7 R 5 7 R 3 9 R 0 9 R
F
13989 4342 M -1 9 R -3 8 R -4 8 R -6 7 R -7 6 R -8 3 R -9 3 R -9 0 R -9 -1 R
-8 -3 R -8 -5 R -7 -6 R -5 -8 R -3 -8 R -2 -9 R 0 -9 R 2 -8 R 3 -9 R 5 -7 R
7 -6 R 8 -5 R 8 -3 R 9 -2 R 9 1 R 9 2 R 8 4 R 7 6 R 6 6 R 4 8 R 3 9 R 1 9 R
F
14086 4340 M -1 9 R -2 9 R -5 7 R -6 7 R -7 6 R -8 4 R -9 2 R -9 0 R -8 -1 R
-9 -3 R -7 -5 R -7 -6 R -5 -7 R -4 -9 R -1 -9 R 0 -8 R 1 -9 R 4 -9 R 5 -7 R
7 -6 R 7 -5 R 9 -3 R 8 -1 R 9 0 R 9 2 R 8 4 R 7 6 R 6 7 R 5 7 R 2 9 R 1 9 R
F
14180 4326 M -1 9 R -2 9 R -5 7 R -5 7 R -8 6 R -8 4 R -8 2 R -9 0 R -9 -1 R
-9 -3 R -7 -5 R -7 -6 R -5 -7 R -3 -9 R -2 -9 R 0 -8 R 2 -9 R 3 -9 R 5 -7 R
7 -6 R 7 -5 R 9 -3 R 9 -1 R 9 0 R 8 2 R 8 4 R 8 6 R 5 7 R 5 7 R 2 9 R 1 9 R
F
14272 4294 M -1 9 R -3 9 R -4 8 R -6 7 R -7 5 R -8 4 R -9 2 R -9 1 R -9 -2 R
-8 -3 R -8 -4 R -7 -7 R -5 -7 R -3 -8 R -2 -9 R 0 -9 R 2 -9 R 3 -8 R 5 -7 R
7 -7 R 8 -4 R 8 -3 R 9 -2 R 9 1 R 9 2 R 8 4 R 7 5 R 6 7 R 4 8 R 3 9 R 1 8 R
F
14360 4287 M -1 9 R -3 8 R -4 8 R -6 7 R -7 5 R -8 4 R -9 3 R -9 0 R -9 -1 R
-8 -3 R -8 -5 R -6 -6 R -5 -8 R -4 -8 R -2 -9 R 0 -9 R 2 -9 R 4 -8 R 5 -7 R
6 -6 R 8 -5 R 8 -3 R 9 -2 R 9 1 R 9 2 R 8 4 R 7 6 R 6 6 R 4 8 R 3 9 R 1 9 R
F
14445 4296 M -1 8 R -2 9 R -5 8 R -5 7 R -8 5 R -8 4 R -8 2 R -9 1 R -9 -1 R
-9 -4 R -7 -4 R -7 -7 R -5 -7 R -3 -8 R -2 -9 R 0 -9 R 2 -9 R 3 -8 R 5 -7 R
7 -7 R 7 -4 R 9 -3 R 9 -2 R 9 1 R 8 2 R 8 4 R 8 5 R 5 7 R 5 8 R 2 9 R 1 9 R
F
14528 4339 M -1 9 R -2 9 R -5 8 R -5 7 R -8 5 R -8 4 R -8 2 R -9 1 R -9 -2 R
-9 -3 R -7 -5 R -7 -6 R -5 -7 R -3 -8 R -2 -9 R 0 -9 R 2 -9 R 3 -8 R 5 -8 R
7 -6 R 7 -5 R 9 -3 R 9 -1 R 9 0 R 8 3 R 8 4 R 8 5 R 5 7 R 5 8 R 2 8 R 1 9 R
F
14609 4365 M -1 9 R -3 9 R -4 8 R -6 6 R -7 6 R -8 4 R -9 2 R -9 1 R -9 -2 R
-8 -3 R -8 -5 R -6 -6 R -5 -7 R -4 -8 R -2 -9 R 0 -9 R 2 -9 R 4 -8 R 5 -8 R
6 -6 R 8 -5 R 8 -3 R 9 -1 R 9 0 R 9 3 R 8 4 R 7 5 R 6 7 R 4 8 R 3 8 R 1 9 R
F
14687 4382 M -1 9 R -2 9 R -5 8 R -5 7 R -8 5 R -8 4 R -8 2 R -9 1 R -9 -2 R
-9 -3 R -7 -5 R -7 -6 R -5 -7 R -3 -8 R -2 -9 R 0 -9 R 2 -9 R 3 -8 R 5 -8 R
7 -6 R 7 -5 R 9 -3 R 9 -1 R 9 0 R 8 3 R 8 4 R 8 5 R 5 7 R 5 8 R 2 8 R 1 9 R
F
14764 4379 M -1 9 R -3 8 R -4 8 R -6 7 R -7 6 R -8 4 R -9 2 R -9 0 R -9 -1 R
-8 -3 R -8 -5 R -7 -6 R -5 -8 R -3 -8 R -2 -9 R 0 -9 R 2 -8 R 3 -9 R 5 -7 R
7 -6 R 8 -5 R 8 -3 R 9 -1 R 9 0 R 9 2 R 8 4 R 7 6 R 6 7 R 4 7 R 3 9 R 1 9 R
F
14838 4389 M -1 9 R -3 8 R -4 8 R -6 7 R -7 6 R -8 4 R -9 2 R -9 0 R -9 -1 R
-8 -3 R -8 -5 R -6 -6 R -6 -8 R -3 -8 R -2 -9 R 0 -9 R 2 -8 R 3 -9 R 6 -7 R
6 -6 R 8 -5 R 8 -3 R 9 -1 R 9 0 R 9 2 R 8 4 R 7 6 R 6 7 R 4 7 R 3 9 R 1 9 R
F
14910 4397 M -1 9 R -3 8 R -4 8 R -6 7 R -7 5 R -8 4 R -9 3 R -9 0 R -9 -1 R
-8 -3 R -8 -5 R -6 -6 R -5 -8 R -4 -8 R -2 -9 R 0 -9 R 2 -9 R 4 -8 R 5 -7 R
6 -6 R 8 -5 R 8 -3 R 9 -2 R 9 1 R 9 2 R 8 4 R 7 6 R 6 6 R 4 8 R 3 9 R 1 9 R
F
14980 4389 M -1 9 R -2 9 R -5 8 R -6 7 R -7 5 R -8 4 R -8 2 R -9 1 R -9 -2 R
-9 -3 R -7 -4 R -7 -7 R -5 -7 R -3 -8 R -2 -9 R 0 -9 R 2 -9 R 3 -8 R 5 -7 R
7 -7 R 7 -4 R 9 -3 R 9 -2 R 9 1 R 8 2 R 8 4 R 7 5 R 6 7 R 5 8 R 2 9 R 1 8 R
F
0.804 0.000 0.000 setrgbcolor 2131 3692 M 12805 685 R D
0.471 0.471 0.863 setrgbcolor gsave 4059 3486 translate 0 0 M
%%IncludeResource: font Times-Italic
423.333 /Times-Italic STDFONT
(p) show
%%IncludeResource: font Times-Roman
423.333 /Times-Roman STDFONT
( = 8) show
%%IncludeResource: font Helvetica
423.333 /Helvetica STDFONT grestore 4723 3369 M 0 9 R -3 8 R -5 8 R -5 7 R
-8 5 R -8 4 R -8 3 R -9 0 R -9 -1 R -9 -3 R -7 -5 R -7 -6 R -5 -8 R -3 -8 R
-2 -9 R 0 -9 R 2 -9 R 3 -8 R 5 -7 R 7 -6 R 7 -5 R 9 -3 R 9 -2 R 9 1 R 8 2 R
8 4 R 8 6 R 5 6 R 5 8 R 3 9 R 0 9 R F
6651 3446 M -1 9 R -3 9 R -4 7 R -6 7 R -7 6 R -8 4 R -9 2 R -9 0 R -9 -1 R
-8 -3 R -8 -5 R -6 -6 R -6 -7 R -3 -9 R -2 -8 R 0 -9 R 2 -9 R 3 -8 R 6 -8 R
6 -6 R 8 -5 R 8 -3 R 9 -1 R 9 0 R 9 2 R 8 4 R 7 6 R 6 7 R 4 8 R 3 8 R 1 9 R
F
7778 3481 M -1 9 R -3 9 R -4 7 R -6 7 R -7 6 R -8 4 R -9 2 R -9 0 R -8 -1 R
-9 -3 R -7 -5 R -7 -6 R -5 -7 R -4 -9 R -1 -8 R 0 -9 R 1 -9 R 4 -8 R 5 -8 R
7 -6 R 7 -5 R 9 -3 R 8 -1 R 9 0 R 9 2 R 8 4 R 7 6 R 6 7 R 4 8 R 3 8 R 1 9 R
F
8578 3513 M -1 9 R -3 8 R -4 8 R -6 7 R -7 5 R -8 4 R -9 3 R -9 0 R -9 -1 R
-8 -3 R -8 -5 R -6 -6 R -5 -8 R -4 -8 R -2 -9 R 0 -9 R 2 -9 R 4 -8 R 5 -7 R
6 -6 R 8 -5 R 8 -3 R 9 -2 R 9 1 R 9 2 R 8 4 R 7 6 R 6 6 R 4 8 R 3 9 R 1 9 R
F
9198 3534 M 0 9 R -3 9 R -5 7 R -5 7 R -7 6 R -9 4 R -8 2 R -9 0 R -9 -1 R
-9 -3 R -7 -5 R -7 -6 R -5 -7 R -3 -9 R -2 -8 R 0 -9 R 2 -9 R 3 -8 R 5 -8 R
7 -6 R 7 -5 R 9 -3 R 9 -1 R 9 0 R 8 2 R 9 4 R 7 6 R 5 7 R 5 8 R 3 8 R 0 9 R
F
9705 3553 M -1 9 R -2 9 R -5 8 R -5 7 R -8 5 R -8 4 R -8 2 R -9 1 R -9 -2 R
-9 -3 R -7 -5 R -7 -6 R -5 -7 R -3 -8 R -2 -9 R 0 -9 R 2 -9 R 3 -8 R 5 -8 R
7 -6 R 7 -4 R 9 -4 R 9 -1 R 9 0 R 8 3 R 8 4 R 8 5 R 5 7 R 5 8 R 2 8 R 1 9 R
F
10134 3571 M -1 9 R -3 9 R -4 8 R -6 7 R -7 5 R -8 4 R -9 2 R -9 1 R -9 -2 R
-8 -3 R -8 -4 R -6 -7 R -5 -7 R -4 -8 R -2 -9 R 0 -9 R 2 -9 R 4 -8 R 5 -7 R
6 -7 R 8 -4 R 8 -4 R 9 -1 R 9 1 R 9 2 R 8 4 R 7 5 R 6 7 R 4 8 R 3 9 R 1 8 R
F
10505 3584 M -1 9 R -2 9 R -5 8 R -6 6 R -7 6 R -8 4 R -8 2 R -9 0 R -9 -1 R
-9 -3 R -7 -5 R -7 -6 R -5 -7 R -4 -9 R -1 -8 R 0 -9 R 1 -9 R 4 -8 R 5 -8 R
7 -6 R 7 -5 R 9 -3 R 9 -1 R 9 0 R 8 3 R 8 3 R 7 6 R 6 7 R 5 8 R 2 8 R 1 9 R
F
10833 3597 M -1 9 R -3 9 R -4 8 R -6 6 R -7 6 R -8 4 R -9 2 R -9 1 R -9 -2 R
-8 -3 R -8 -5 R -6 -6 R -5 -7 R -4 -8 R -2 -9 R 0 -9 R 2 -9 R 4 -8 R 5 -8 R
6 -6 R 8 -5 R 8 -3 R 9 -1 R 9 0 R 9 3 R 8 4 R 7 5 R 6 7 R 4 8 R 3 8 R 1 9 R
F
11126 3589 M -1 9 R -3 9 R -4 8 R -6 6 R -7 6 R -8 4 R -9 2 R -9 1 R -9 -2 R
-8 -3 R -8 -5 R -6 -6 R -6 -7 R -3 -8 R -2 -9 R 0 -9 R 2 -9 R 3 -8 R 6 -8 R
6 -6 R 8 -5 R 8 -3 R 9 -1 R 9 0 R 9 3 R 8 4 R 7 5 R 6 7 R 4 8 R 3 8 R 1 9 R
F
11391 3612 M -1 9 R -3 8 R -4 8 R -6 7 R -7 6 R -8 4 R -9 2 R -9 0 R -9 -1 R
-8 -3 R -8 -5 R -6 -6 R -6 -8 R -3 -8 R -2 -9 R 0 -9 R 2 -8 R 3 -9 R 6 -7 R
6 -6 R 8 -5 R 8 -3 R 9 -1 R 9 0 R 9 2 R 8 4 R 7 6 R 6 7 R 4 7 R 3 9 R 1 9 R
F
11633 3668 M -1 9 R -3 8 R -4 8 R -6 7 R -7 5 R -8 4 R -9 2 R -9 1 R -9 -1 R
-8 -4 R -8 -4 R -6 -6 R -6 -8 R -3 -8 R -2 -9 R 0 -9 R 2 -9 R 3 -8 R 6 -7 R
6 -7 R 8 -4 R 8 -3 R 9 -2 R 9 1 R 9 2 R 8 4 R 7 5 R 6 7 R 4 8 R 3 9 R 1 9 R
F
11855 3702 M -1 9 R -2 9 R -5 8 R -6 7 R -7 5 R -8 4 R -8 2 R -9 1 R -9 -2 R
-9 -3 R -7 -4 R -7 -7 R -5 -7 R -4 -8 R -1 -9 R 0 -9 R 1 -9 R 4 -8 R 5 -7 R
7 -7 R 7 -4 R 9 -3 R 9 -2 R 9 1 R 8 2 R 8 4 R 7 5 R 6 7 R 5 8 R 2 9 R 1 8 R
F
12061 3716 M -1 9 R -2 9 R -5 7 R -6 7 R -7 6 R -8 4 R -8 2 R -9 0 R -9 -1 R
-9 -3 R -7 -5 R -7 -6 R -5 -7 R -4 -9 R -1 -8 R 0 -9 R 1 -9 R 4 -8 R 5 -8 R
7 -6 R 7 -5 R 9 -3 R 9 -1 R 9 0 R 8 2 R 8 4 R 7 6 R 6 7 R 5 8 R 2 8 R 1 9 R
F
12253 3728 M -1 9 R -3 8 R -4 8 R -6 7 R -7 6 R -8 3 R -9 3 R -9 0 R -8 -1 R
-9 -3 R -7 -5 R -7 -6 R -5 -8 R -4 -8 R -1 -9 R 0 -9 R 1 -8 R 4 -9 R 5 -7 R
7 -6 R 7 -5 R 9 -3 R 8 -2 R 9 1 R 9 2 R 8 4 R 7 6 R 6 6 R 4 8 R 3 9 R 1 9 R
F
12433 3736 M -1 9 R -3 8 R -4 8 R -6 7 R -7 6 R -8 4 R -9 2 R -9 0 R -9 -1 R
-8 -3 R -8 -5 R -7 -6 R -5 -8 R -3 -8 R -2 -9 R 0 -9 R 2 -8 R 3 -9 R 5 -7 R
7 -6 R 8 -5 R 8 -3 R 9 -1 R 9 0 R 9 2 R 8 4 R 7 6 R 6 7 R 4 7 R 3 9 R 1 9 R
F
12601 3742 M -1 8 R -2 9 R -5 8 R -6 7 R -7 5 R -8 4 R -9 2 R -9 1 R -8 -1 R
-9 -4 R -7 -4 R -7 -7 R -5 -7 R -4 -8 R -1 -9 R 0 -9 R 1 -9 R 4 -8 R 5 -7 R
7 -7 R 7 -4 R 9 -3 R 8 -2 R 9 1 R 9 2 R 8 4 R 7 5 R 6 7 R 5 8 R 2 9 R 1 9 R
F
12760 3744 M -1 9 R -3 9 R -4 8 R -6 7 R -7 5 R -8 4 R -9 2 R -9 1 R -8 -2 R
-9 -3 R -8 -4 R -6 -7 R -5 -7 R -4 -8 R -2 -9 R 0 -9 R 2 -9 R 4 -8 R 5 -8 R
6 -6 R 8 -4 R 9 -4 R 8 -1 R 9 1 R 9 2 R 8 4 R 7 5 R 6 7 R 4 8 R 3 8 R 1 9 R
F
12910 3753 M -1 9 R -2 8 R -5 8 R -5 7 R -8 5 R -8 4 R -8 3 R -9 0 R -9 -1 R
-9 -3 R -7 -5 R -7 -6 R -5 -8 R -3 -8 R -2 -9 R 0 -9 R 2 -9 R 3 -8 R 5 -7 R
7 -6 R 7 -5 R 9 -3 R 9 -2 R 9 1 R 8 2 R 8 4 R 8 6 R 5 6 R 5 8 R 2 9 R 1 9 R
F
13053 3742 M -1 9 R -3 9 R -4 8 R -6 6 R -7 6 R -8 4 R -9 2 R -9 0 R -9 -1 R
-8 -3 R -8 -5 R -6 -6 R -5 -7 R -4 -9 R -2 -8 R 0 -9 R 2 -9 R 4 -8 R 5 -8 R
6 -6 R 8 -5 R 8 -3 R 9 -1 R 9 0 R 9 3 R 8 3 R 7 6 R 6 7 R 4 8 R 3 8 R 1 9 R
F
13189 3701 M -1 9 R -3 8 R -4 8 R -6 7 R -7 6 R -8 4 R -9 2 R -9 0 R -9 -1 R
-8 -3 R -8 -5 R -6 -6 R -6 -7 R -3 -9 R -2 -9 R 0 -9 R 2 -8 R 3 -9 R 6 -7 R
6 -6 R 8 -5 R 8 -3 R 9 -1 R 9 0 R 9 2 R 8 4 R 7 6 R 6 7 R 4 7 R 3 9 R 1 9 R
F
13318 3700 M -1 9 R -3 9 R -4 8 R -6 7 R -7 5 R -8 4 R -9 2 R -9 1 R -9 -2 R
-8 -3 R -8 -4 R -6 -7 R -5 -7 R -4 -8 R -2 -9 R 0 -9 R 2 -9 R 4 -8 R 5 -7 R
6 -7 R 8 -4 R 8 -4 R 9 -1 R 9 1 R 9 2 R 8 4 R 7 5 R 6 7 R 4 8 R 3 9 R 1 8 R
F
13442 3732 M -1 8 R -3 9 R -4 8 R -6 7 R -7 5 R -8 4 R -9 2 R -9 1 R -9 -1 R
-8 -4 R -8 -4 R -6 -7 R -6 -7 R -3 -8 R -2 -9 R 0 -9 R 2 -9 R 3 -8 R 6 -7 R
6 -7 R 8 -4 R 8 -3 R 9 -2 R 9 1 R 9 2 R 8 4 R 7 5 R 6 7 R 4 8 R 3 9 R 1 9 R
F
13560 3756 M -1 9 R -3 8 R -4 8 R -6 7 R -7 6 R -8 4 R -9 2 R -9 0 R -9 -1 R
-8 -3 R -8 -5 R -6 -6 R -5 -8 R -4 -8 R -2 -9 R 0 -9 R 2 -8 R 4 -9 R 5 -7 R
6 -6 R 8 -5 R 8 -3 R 9 -1 R 9 0 R 9 2 R 8 4 R 7 6 R 6 7 R 4 7 R 3 9 R 1 9 R
F
13673 3774 M 0 9 R -3 8 R -5 8 R -5 7 R -7 5 R -9 4 R -8 3 R -9 0 R -9 -1 R
-9 -4 R -7 -4 R -7 -6 R -5 -8 R -3 -8 R -2 -9 R 0 -9 R 2 -9 R 3 -8 R 5 -7 R
7 -6 R 7 -5 R 9 -3 R 9 -2 R 9 1 R 8 2 R 9 4 R 7 5 R 5 7 R 5 8 R 3 9 R 0 9 R
F
13782 3780 M 0 8 R -3 9 R -4 8 R -6 7 R -7 5 R -8 4 R -9 2 R -9 1 R -9 -1 R
-8 -4 R -8 -4 R -7 -7 R -5 -7 R -3 -8 R -2 -9 R 0 -9 R 2 -9 R 3 -8 R 5 -7 R
7 -7 R 8 -4 R 8 -3 R 9 -2 R 9 1 R 9 2 R 8 4 R 7 5 R 6 7 R 4 8 R 3 9 R 0 9 R
F
13887 3750 M 0 9 R -3 8 R -5 8 R -5 7 R -7 5 R -9 4 R -8 2 R -9 1 R -9 -1 R
-9 -4 R -7 -4 R -7 -6 R -5 -8 R -3 -8 R -2 -9 R 0 -9 R 2 -9 R 3 -8 R 5 -7 R
7 -7 R 7 -4 R 9 -3 R 9 -2 R 9 1 R 8 2 R 9 4 R 7 5 R 5 7 R 5 8 R 3 9 R 0 9 R
F
13989 3789 M -1 9 R -3 8 R -4 8 R -6 7 R -7 6 R -8 3 R -9 3 R -9 0 R -9 -1 R
-8 -3 R -8 -5 R -7 -6 R -5 -8 R -3 -8 R -2 -9 R 0 -9 R 2 -8 R 3 -9 R 5 -7 R
7 -6 R 8 -5 R 8 -3 R 9 -2 R 9 1 R 9 2 R 8 4 R 7 6 R 6 6 R 4 8 R 3 9 R 1 9 R
F
14086 3788 M -1 9 R -2 9 R -5 8 R -6 6 R -7 6 R -8 4 R -9 2 R -9 1 R -8 -2 R
-9 -3 R -7 -5 R -7 -6 R -5 -7 R -4 -8 R -1 -9 R 0 -9 R 1 -9 R 4 -8 R 5 -8 R
7 -6 R 7 -5 R 9 -3 R 8 -1 R 9 0 R 9 3 R 8 4 R 7 5 R 6 7 R 5 8 R 2 8 R 1 9 R
F
14180 3787 M -1 9 R -2 9 R -5 8 R -5 7 R -8 5 R -8 4 R -8 2 R -9 1 R -9 -2 R
-9 -3 R -7 -4 R -7 -7 R -5 -7 R -3 -8 R -2 -9 R 0 -9 R 2 -9 R 3 -8 R 5 -8 R
7 -6 R 7 -4 R 9 -4 R 9 -1 R 9 1 R 8 2 R 8 4 R 8 5 R 5 7 R 5 8 R 2 8 R 1 9 R
F
14272 3745 M -1 9 R -3 9 R -4 8 R -6 6 R -7 6 R -8 4 R -9 2 R -9 1 R -9 -2 R
-8 -3 R -8 -5 R -7 -6 R -5 -7 R -3 -8 R -2 -9 R 0 -9 R 2 -9 R 3 -8 R 5 -8 R
7 -6 R 8 -5 R 8 -3 R 9 -1 R 9 0 R 9 3 R 8 4 R 7 5 R 6 7 R 4 8 R 3 8 R 1 9 R
F
14360 3714 M -1 9 R -3 9 R -4 7 R -6 7 R -7 6 R -8 4 R -9 2 R -9 0 R -9 -1 R
-8 -3 R -8 -5 R -6 -6 R -5 -7 R -4 -9 R -2 -8 R 0 -9 R 2 -9 R 4 -8 R 5 -8 R
6 -6 R 8 -5 R 8 -3 R 9 -1 R 9 0 R 9 2 R 8 4 R 7 6 R 6 7 R 4 8 R 3 8 R 1 9 R
F
14445 3680 M -1 9 R -2 9 R -5 7 R -5 7 R -8 6 R -8 4 R -8 2 R -9 0 R -9 -1 R
-9 -3 R -7 -5 R -7 -6 R -5 -7 R -3 -9 R -2 -8 R 0 -9 R 2 -9 R 3 -8 R 5 -8 R
7 -6 R 7 -5 R 9 -3 R 9 -1 R 9 0 R 8 2 R 8 4 R 8 6 R 5 7 R 5 8 R 2 8 R 1 9 R
F
14528 3781 M -1 8 R -2 9 R -5 8 R -5 7 R -8 5 R -8 4 R -8 2 R -9 1 R -9 -1 R
-9 -4 R -7 -4 R -7 -7 R -5 -7 R -3 -8 R -2 -9 R 0 -9 R 2 -9 R 3 -8 R 5 -7 R
7 -7 R 7 -4 R 9 -3 R 9 -2 R 9 1 R 8 2 R 8 4 R 8 5 R 5 7 R 5 8 R 2 9 R 1 9 R
F
14609 3816 M -1 9 R -3 9 R -4 8 R -6 6 R -7 6 R -8 4 R -9 2 R -9 1 R -9 -2 R
-8 -3 R -8 -5 R -6 -6 R -5 -7 R -4 -8 R -2 -9 R 0 -9 R 2 -9 R 4 -8 R 5 -8 R
6 -6 R 8 -5 R 8 -3 R 9 -1 R 9 0 R 9 3 R 8 4 R 7 5 R 6 7 R 4 8 R 3 8 R 1 9 R
F
14687 3830 M -1 9 R -2 9 R -5 8 R -5 6 R -8 6 R -8 4 R -8 2 R -9 1 R -9 -2 R
-9 -3 R -7 -5 R -7 -6 R -5 -7 R -3 -8 R -2 -9 R 0 -9 R 2 -9 R 3 -8 R 5 -8 R
7 -6 R 7 -5 R 9 -3 R 9 -1 R 9 0 R 8 3 R 8 4 R 8 5 R 5 7 R 5 8 R 2 8 R 1 9 R
F
14764 3816 M -1 9 R -3 9 R -4 8 R -6 7 R -7 5 R -8 4 R -9 2 R -9 1 R -9 -2 R
-8 -3 R -8 -5 R -7 -6 R -5 -7 R -3 -8 R -2 -9 R 0 -9 R 2 -9 R 3 -8 R 5 -8 R
7 -6 R 8 -5 R 8 -3 R 9 -1 R 9 0 R 9 3 R 8 4 R 7 5 R 6 7 R 4 8 R 3 8 R 1 9 R
F
14838 3835 M -1 9 R -3 8 R -4 8 R -6 7 R -7 5 R -8 4 R -9 2 R -9 1 R -9 -1 R
-8 -4 R -8 -4 R -6 -7 R -6 -7 R -3 -8 R -2 -9 R 0 -9 R 2 -9 R 3 -8 R 6 -7 R
6 -7 R 8 -4 R 8 -3 R 9 -2 R 9 1 R 9 2 R 8 4 R 7 5 R 6 7 R 4 8 R 3 9 R 1 9 R
F
14910 3842 M -1 9 R -3 9 R -4 8 R -6 7 R -7 5 R -8 4 R -9 2 R -9 1 R -9 -2 R
-8 -3 R -8 -5 R -6 -6 R -5 -7 R -4 -8 R -2 -9 R 0 -9 R 2 -9 R 4 -8 R 5 -8 R
6 -6 R 8 -5 R 8 -3 R 9 -1 R 9 0 R 9 3 R 8 4 R 7 5 R 6 7 R 4 8 R 3 8 R 1 9 R
F
14980 3836 M -1 9 R -2 9 R -5 8 R -6 6 R -7 6 R -8 4 R -8 2 R -9 0 R -9 -1 R
-9 -3 R -7 -5 R -7 -6 R -5 -7 R -3 -9 R -2 -8 R 0 -9 R 2 -9 R 3 -8 R 5 -8 R
7 -6 R 7 -5 R 9 -3 R 9 -1 R 9 0 R 8 3 R 8 3 R 7 6 R 6 7 R 5 8 R 2 8 R 1 9 R
F
0.804 0.000 0.000 setrgbcolor 2131 3225 M 12805 590 R D
0.471 0.471 0.863 setrgbcolor gsave 4059 3005 translate 0 0 M
%%IncludeResource: font Times-Italic
423.333 /Times-Italic STDFONT
(p) show
%%IncludeResource: font Times-Roman
423.333 /Times-Roman STDFONT
( = 9) show
%%IncludeResource: font Helvetica
423.333 /Helvetica STDFONT grestore 4723 2614 M 0 8 R -3 9 R -5 8 R -5 7 R
-8 5 R -8 4 R -8 2 R -9 1 R -9 -2 R -9 -3 R -7 -4 R -7 -7 R -5 -7 R -3 -8 R
-2 -9 R 0 -9 R 2 -9 R 3 -8 R 5 -7 R 7 -7 R 7 -4 R 9 -3 R 9 -2 R 9 1 R 8 2 R
8 4 R 8 5 R 5 7 R 5 8 R 3 9 R 0 9 R F
6651 2664 M -1 9 R -3 8 R -4 8 R -6 7 R -7 5 R -8 4 R -9 3 R -9 0 R -9 -1 R
-8 -3 R -8 -5 R -6 -6 R -6 -8 R -3 -8 R -2 -9 R 0 -9 R 2 -9 R 3 -8 R 6 -7 R
6 -6 R 8 -5 R 8 -3 R 9 -2 R 9 1 R 9 2 R 8 4 R 7 6 R 6 6 R 4 8 R 3 9 R 1 9 R
F
7778 2688 M -1 9 R -3 9 R -4 7 R -6 7 R -7 6 R -8 4 R -9 2 R -9 0 R -8 -1 R
-9 -3 R -7 -5 R -7 -6 R -5 -7 R -4 -9 R -1 -8 R 0 -9 R 1 -9 R 4 -9 R 5 -7 R
7 -6 R 7 -5 R 9 -3 R 8 -1 R 9 0 R 9 2 R 8 4 R 7 6 R 6 7 R 4 8 R 3 8 R 1 9 R
F
8578 2709 M -1 9 R -3 9 R -4 8 R -6 7 R -7 5 R -8 4 R -9 2 R -9 1 R -9 -2 R
-8 -3 R -8 -4 R -6 -7 R -5 -7 R -4 -8 R -2 -9 R 0 -9 R 2 -9 R 4 -8 R 5 -8 R
6 -6 R 8 -4 R 8 -4 R 9 -1 R 9 1 R 9 2 R 8 4 R 7 5 R 6 7 R 4 8 R 3 8 R 1 9 R
F
9198 2728 M 0 9 R -3 8 R -5 8 R -5 7 R -7 5 R -9 4 R -8 3 R -9 0 R -9 -1 R
-9 -3 R -7 -5 R -7 -6 R -5 -8 R -3 -8 R -2 -9 R 0 -9 R 2 -9 R 3 -8 R 5 -7 R
7 -6 R 7 -5 R 9 -3 R 9 -2 R 9 1 R 8 2 R 9 4 R 7 6 R 5 6 R 5 8 R 3 9 R 0 9 R
F
9705 2746 M -1 9 R -2 9 R -5 8 R -5 7 R -8 5 R -8 4 R -8 2 R -9 1 R -9 -2 R
-9 -3 R -7 -5 R -7 -6 R -5 -7 R -3 -8 R -2 -9 R 0 -9 R 2 -9 R 3 -8 R 5 -8 R
7 -6 R 7 -5 R 9 -3 R 9 -1 R 9 0 R 8 3 R 8 4 R 8 5 R 5 7 R 5 8 R 2 8 R 1 9 R
F
10134 2760 M -1 9 R -3 9 R -4 8 R -6 6 R -7 6 R -8 4 R -9 2 R -9 0 R -9 -1 R
-8 -3 R -8 -5 R -6 -6 R -5 -7 R -4 -9 R -2 -8 R 0 -9 R 2 -9 R 4 -8 R 5 -8 R
6 -6 R 8 -5 R 8 -3 R 9 -1 R 9 0 R 9 3 R 8 3 R 7 6 R 6 7 R 4 8 R 3 8 R 1 9 R
F
10505 2772 M -1 9 R -2 9 R -5 8 R -6 7 R -7 5 R -8 4 R -8 2 R -9 1 R -9 -2 R
-9 -3 R -7 -4 R -7 -7 R -5 -7 R -4 -8 R -1 -9 R 0 -9 R 1 -9 R 4 -8 R 5 -8 R
7 -6 R 7 -4 R 9 -4 R 9 -1 R 9 1 R 8 2 R 8 4 R 7 5 R 6 7 R 5 8 R 2 8 R 1 9 R
F
10833 2780 M -1 9 R -3 8 R -4 8 R -6 7 R -7 6 R -8 4 R -9 2 R -9 0 R -9 -1 R
-8 -3 R -8 -5 R -6 -6 R -5 -7 R -4 -9 R -2 -9 R 0 -9 R 2 -8 R 4 -9 R 5 -7 R
6 -6 R 8 -5 R 8 -3 R 9 -1 R 9 0 R 9 2 R 8 4 R 7 6 R 6 7 R 4 7 R 3 9 R 1 9 R
F
11126 2788 M -1 9 R -3 8 R -4 8 R -6 7 R -7 6 R -8 3 R -9 3 R -9 0 R -9 -1 R
-8 -3 R -8 -5 R -6 -6 R -6 -8 R -3 -8 R -2 -9 R 0 -9 R 2 -8 R 3 -9 R 6 -7 R
6 -6 R 8 -5 R 8 -3 R 9 -1 R 9 0 R 9 2 R 8 4 R 7 6 R 6 6 R 4 8 R 3 9 R 1 9 R
F
11391 2792 M -1 9 R -3 8 R -4 8 R -6 7 R -7 5 R -8 4 R -9 3 R -9 0 R -9 -1 R
-8 -3 R -8 -5 R -6 -6 R -6 -8 R -3 -8 R -2 -9 R 0 -9 R 2 -9 R 3 -8 R 6 -7 R
6 -6 R 8 -5 R 8 -3 R 9 -2 R 9 1 R 9 2 R 8 4 R 7 5 R 6 7 R 4 8 R 3 9 R 1 9 R
F
11633 2808 M -1 9 R -3 8 R -4 8 R -6 7 R -7 5 R -8 4 R -9 3 R -9 0 R -9 -1 R
-8 -3 R -8 -5 R -6 -6 R -6 -8 R -3 -8 R -2 -9 R 0 -9 R 2 -9 R 3 -8 R 6 -7 R
6 -6 R 8 -5 R 8 -3 R 9 -2 R 9 1 R 9 2 R 8 4 R 7 6 R 6 6 R 4 8 R 3 9 R 1 9 R
F
11855 2819 M -1 8 R -2 9 R -5 8 R -6 7 R -7 5 R -8 4 R -8 2 R -9 1 R -9 -2 R
-9 -3 R -7 -4 R -7 -7 R -5 -7 R -4 -8 R -1 -9 R 0 -9 R 1 -9 R 4 -8 R 5 -7 R
7 -7 R 7 -4 R 9 -3 R 9 -2 R 9 1 R 8 2 R 8 4 R 7 5 R 6 7 R 5 8 R 2 9 R 1 9 R
F
12061 2826 M -1 9 R -2 8 R -5 8 R -6 7 R -7 6 R -8 3 R -8 3 R -9 0 R -9 -1 R
-9 -3 R -7 -5 R -7 -6 R -5 -8 R -4 -8 R -1 -9 R 0 -9 R 1 -8 R 4 -9 R 5 -7 R
7 -6 R 7 -5 R 9 -3 R 9 -2 R 9 1 R 8 2 R 8 4 R 7 6 R 6 6 R 5 8 R 2 9 R 1 9 R
F
12253 2830 M -1 9 R -3 9 R -4 7 R -6 7 R -7 6 R -8 4 R -9 2 R -9 0 R -8 -1 R
-9 -3 R -7 -5 R -7 -6 R -5 -7 R -4 -9 R -1 -8 R 0 -9 R 1 -9 R 4 -8 R 5 -8 R
7 -6 R 7 -5 R 9 -3 R 8 -1 R 9 0 R 9 2 R 8 4 R 7 6 R 6 7 R 4 8 R 3 8 R 1 9 R
F
12433 2834 M -1 8 R -3 9 R -4 8 R -6 7 R -7 5 R -8 4 R -9 2 R -9 1 R -9 -2 R
-8 -3 R -8 -4 R -7 -7 R -5 -7 R -3 -8 R -2 -9 R 0 -9 R 2 -9 R 3 -8 R 5 -7 R
7 -7 R 8 -4 R 8 -3 R 9 -2 R 9 1 R 9 2 R 8 4 R 7 5 R 6 7 R 4 8 R 3 9 R 1 9 R
F
12601 2840 M -1 9 R -2 9 R -5 8 R -6 7 R -7 5 R -8 4 R -9 2 R -9 1 R -8 -2 R
-9 -3 R -7 -4 R -7 -7 R -5 -7 R -4 -8 R -1 -9 R 0 -9 R 1 -9 R 4 -8 R 5 -7 R
7 -7 R 7 -4 R 9 -4 R 8 -1 R 9 1 R 9 2 R 8 4 R 7 5 R 6 7 R 5 8 R 2 9 R 1 8 R
F
12760 2846 M -1 9 R -3 8 R -4 8 R -6 7 R -7 5 R -8 4 R -9 3 R -9 0 R -8 -1 R
-9 -4 R -8 -4 R -6 -6 R -5 -8 R -4 -8 R -2 -9 R 0 -9 R 2 -9 R 4 -8 R 5 -7 R
6 -6 R 8 -5 R 9 -3 R 8 -2 R 9 1 R 9 2 R 8 4 R 7 5 R 6 7 R 4 8 R 3 9 R 1 9 R
F
12910 2847 M -1 9 R -2 9 R -5 8 R -5 7 R -8 5 R -8 4 R -8 2 R -9 1 R -9 -2 R
-9 -3 R -7 -4 R -7 -7 R -5 -7 R -3 -8 R -2 -9 R 0 -9 R 2 -9 R 3 -8 R 5 -7 R
7 -7 R 7 -4 R 9 -4 R 9 -1 R 9 1 R 8 2 R 8 4 R 8 5 R 5 7 R 5 8 R 2 8 R 1 9 R
F
13053 2848 M -1 9 R -3 8 R -4 8 R -6 7 R -7 6 R -8 4 R -9 2 R -9 0 R -9 -1 R
-8 -3 R -8 -5 R -6 -6 R -5 -7 R -4 -9 R -2 -9 R 0 -9 R 2 -8 R 4 -9 R 5 -7 R
6 -6 R 8 -5 R 8 -3 R 9 -1 R 9 0 R 9 2 R 8 4 R 7 6 R 6 7 R 4 7 R 3 9 R 1 9 R
F
13189 2847 M -1 9 R -3 9 R -4 8 R -6 6 R -7 6 R -8 4 R -9 2 R -9 1 R -9 -2 R
-8 -3 R -8 -5 R -6 -6 R -6 -7 R -3 -8 R -2 -9 R 0 -9 R 2 -9 R 3 -8 R 6 -8 R
6 -6 R 8 -5 R 8 -3 R 9 -1 R 9 0 R 9 3 R 8 4 R 7 5 R 6 7 R 4 8 R 3 8 R 1 9 R
F
13318 2854 M -1 9 R -3 9 R -4 8 R -6 6 R -7 6 R -8 4 R -9 2 R -9 1 R -9 -2 R
-8 -3 R -8 -5 R -6 -6 R -5 -7 R -4 -8 R -2 -9 R 0 -9 R 2 -9 R 4 -8 R 5 -8 R
6 -6 R 8 -5 R 8 -3 R 9 -1 R 9 0 R 9 3 R 8 4 R 7 5 R 6 7 R 4 8 R 3 8 R 1 9 R
F
13442 2864 M -1 8 R -3 9 R -4 8 R -6 7 R -7 5 R -8 4 R -9 2 R -9 1 R -9 -2 R
-8 -3 R -8 -4 R -6 -7 R -6 -7 R -3 -8 R -2 -9 R 0 -9 R 2 -9 R 3 -8 R 6 -7 R
6 -7 R 8 -4 R 8 -3 R 9 -2 R 9 1 R 9 2 R 8 4 R 7 5 R 6 7 R 4 8 R 3 9 R 1 9 R
F
13560 2875 M -1 8 R -3 9 R -4 8 R -6 7 R -7 5 R -8 4 R -9 2 R -9 1 R -9 -1 R
-8 -4 R -8 -4 R -6 -7 R -5 -7 R -4 -8 R -2 -9 R 0 -9 R 2 -9 R 4 -8 R 5 -7 R
6 -7 R 8 -4 R 8 -3 R 9 -2 R 9 1 R 9 2 R 8 4 R 7 5 R 6 7 R 4 8 R 3 9 R 1 9 R
F
13673 2881 M 0 9 R -3 9 R -5 8 R -5 6 R -7 6 R -9 4 R -8 2 R -9 0 R -9 -1 R
-9 -3 R -7 -5 R -7 -6 R -5 -7 R -3 -9 R -2 -8 R 0 -9 R 2 -9 R 3 -8 R 5 -8 R
7 -6 R 7 -5 R 9 -3 R 9 -1 R 9 0 R 8 3 R 9 3 R 7 6 R 5 7 R 5 8 R 3 8 R 0 9 R
F
13782 2887 M 0 9 R -3 8 R -4 8 R -6 7 R -7 6 R -8 4 R -9 2 R -9 0 R -9 -1 R
-8 -3 R -8 -5 R -7 -6 R -5 -7 R -3 -9 R -2 -9 R 0 -9 R 2 -8 R 3 -9 R 5 -7 R
7 -6 R 8 -5 R 8 -3 R 9 -1 R 9 0 R 9 2 R 8 4 R 7 6 R 6 7 R 4 7 R 3 9 R 0 9 R
F
13887 2888 M 0 9 R -3 8 R -5 8 R -5 7 R -7 6 R -9 4 R -8 2 R -9 0 R -9 -1 R
-9 -3 R -7 -5 R -7 -6 R -5 -8 R -3 -8 R -2 -9 R 0 -9 R 2 -8 R 3 -9 R 5 -7 R
7 -6 R 7 -5 R 9 -3 R 9 -1 R 9 0 R 8 2 R 9 4 R 7 6 R 5 7 R 5 7 R 3 9 R 0 9 R
F
13989 2897 M -1 9 R -3 9 R -4 7 R -6 7 R -7 6 R -8 4 R -9 2 R -9 0 R -9 -1 R
-8 -3 R -8 -5 R -7 -6 R -5 -7 R -3 -9 R -2 -8 R 0 -9 R 2 -9 R 3 -8 R 5 -8 R
7 -6 R 8 -5 R 8 -3 R 9 -1 R 9 0 R 9 2 R 8 4 R 7 6 R 6 7 R 4 8 R 3 8 R 1 9 R
F
14086 2898 M -1 9 R -2 9 R -5 7 R -6 7 R -7 6 R -8 4 R -9 2 R -9 0 R -8 -1 R
-9 -3 R -7 -5 R -7 -6 R -5 -7 R -4 -9 R -1 -9 R 0 -8 R 1 -9 R 4 -9 R 5 -7 R
7 -6 R 7 -5 R 9 -3 R 8 -1 R 9 0 R 9 2 R 8 4 R 7 6 R 6 7 R 5 7 R 2 9 R 1 9 R
F
14180 2897 M -1 9 R -2 8 R -5 8 R -5 7 R -8 6 R -8 4 R -8 2 R -9 0 R -9 -1 R
-9 -3 R -7 -5 R -7 -6 R -5 -8 R -3 -8 R -2 -9 R 0 -9 R 2 -8 R 3 -9 R 5 -7 R
7 -6 R 7 -5 R 9 -3 R 9 -1 R 9 0 R 8 2 R 8 4 R 8 6 R 5 7 R 5 7 R 2 9 R 1 9 R
F
14272 2894 M -1 9 R -3 8 R -4 8 R -6 7 R -7 5 R -8 4 R -9 3 R -9 0 R -9 -1 R
-8 -3 R -8 -5 R -7 -6 R -5 -8 R -3 -8 R -2 -9 R 0 -9 R 2 -9 R 3 -8 R 5 -7 R
7 -6 R 8 -5 R 8 -3 R 9 -2 R 9 1 R 9 2 R 8 4 R 7 6 R 6 6 R 4 8 R 3 9 R 1 9 R
F
14360 2883 M -1 9 R -3 9 R -4 8 R -6 7 R -7 5 R -8 4 R -9 2 R -9 1 R -9 -2 R
-8 -3 R -8 -4 R -6 -7 R -5 -7 R -4 -8 R -2 -9 R 0 -9 R 2 -9 R 4 -8 R 5 -8 R
6 -6 R 8 -4 R 8 -4 R 9 -1 R 9 1 R 9 2 R 8 4 R 7 5 R 6 7 R 4 8 R 3 8 R 1 9 R
F
14445 2904 M -1 9 R -2 9 R -5 8 R -5 7 R -8 5 R -8 4 R -8 2 R -9 1 R -9 -2 R
-9 -3 R -7 -4 R -7 -7 R -5 -7 R -3 -8 R -2 -9 R 0 -9 R 2 -9 R 3 -8 R 5 -7 R
7 -7 R 7 -4 R 9 -4 R 9 -1 R 9 1 R 8 2 R 8 4 R 8 5 R 5 7 R 5 8 R 2 9 R 1 8 R
F
14528 2911 M -1 9 R -2 8 R -5 8 R -5 7 R -8 6 R -8 4 R -8 2 R -9 0 R -9 -1 R
-9 -3 R -7 -5 R -7 -6 R -5 -8 R -3 -8 R -2 -9 R 0 -9 R 2 -8 R 3 -9 R 5 -7 R
7 -6 R 7 -5 R 9 -3 R 9 -1 R 9 0 R 8 2 R 8 4 R 8 6 R 5 7 R 5 7 R 2 9 R 1 9 R
F
14609 2922 M -1 9 R -3 8 R -4 8 R -6 7 R -7 5 R -8 4 R -9 2 R -9 1 R -9 -1 R
-8 -4 R -8 -4 R -6 -6 R -5 -8 R -4 -8 R -2 -9 R 0 -9 R 2 -9 R 4 -8 R 5 -7 R
6 -6 R 8 -5 R 8 -3 R 9 -2 R 9 1 R 9 2 R 8 4 R 7 5 R 6 7 R 4 8 R 3 9 R 1 9 R
F
14687 2928 M -1 9 R -2 8 R -5 8 R -5 7 R -8 6 R -8 4 R -8 2 R -9 0 R -9 -1 R
-9 -3 R -7 -5 R -7 -6 R -5 -7 R -3 -9 R -2 -9 R 0 -9 R 2 -8 R 3 -9 R 5 -7 R
7 -6 R 7 -5 R 9 -3 R 9 -1 R 9 0 R 8 2 R 8 4 R 8 6 R 5 7 R 5 7 R 2 9 R 1 9 R
F
14764 2930 M -1 9 R -3 8 R -4 8 R -6 7 R -7 5 R -8 4 R -9 2 R -9 1 R -9 -1 R
-8 -4 R -8 -4 R -7 -6 R -5 -8 R -3 -8 R -2 -9 R 0 -9 R 2 -9 R 3 -8 R 5 -7 R
7 -7 R 8 -4 R 8 -3 R 9 -2 R 9 1 R 9 2 R 8 4 R 7 5 R 6 7 R 4 8 R 3 9 R 1 9 R
F
14838 2936 M -1 9 R -3 8 R -4 8 R -6 7 R -7 5 R -8 4 R -9 3 R -9 0 R -9 -1 R
-8 -3 R -8 -5 R -6 -6 R -6 -8 R -3 -8 R -2 -9 R 0 -9 R 2 -9 R 3 -8 R 6 -7 R
6 -6 R 8 -5 R 8 -3 R 9 -2 R 9 1 R 9 2 R 8 4 R 7 6 R 6 6 R 4 8 R 3 9 R 1 9 R
F
14910 2939 M -1 9 R -3 8 R -4 8 R -6 7 R -7 5 R -8 4 R -9 2 R -9 1 R -9 -1 R
-8 -4 R -8 -4 R -6 -6 R -5 -8 R -4 -8 R -2 -9 R 0 -9 R 2 -9 R 4 -8 R 5 -7 R
6 -7 R 8 -4 R 8 -3 R 9 -2 R 9 1 R 9 2 R 8 4 R 7 5 R 6 7 R 4 8 R 3 9 R 1 9 R
F
14980 2940 M -1 9 R -2 9 R -5 7 R -6 7 R -7 6 R -8 4 R -8 2 R -9 0 R -9 -1 R
-9 -3 R -7 -5 R -7 -6 R -5 -7 R -3 -9 R -2 -8 R 0 -9 R 2 -9 R 3 -9 R 5 -7 R
7 -6 R 7 -5 R 9 -3 R 9 -1 R 9 0 R 8 2 R 8 4 R 7 6 R 6 7 R 5 8 R 2 8 R 1 9 R
F
0.804 0.000 0.000 setrgbcolor 2131 2504 M 12805 418 R D
0.471 0.471 0.863 setrgbcolor gsave 4059 2258 translate 0 0 M
%%IncludeResource: font Times-Italic
423.333 /Times-Italic STDFONT
(p) show
%%IncludeResource: font Times-Roman
423.333 /Times-Roman STDFONT
( = 10) show
%%IncludeResource: font Helvetica
423.333 /Helvetica STDFONT grestore
%%PageTrailer
end
%%PageResources: font Helvetica
%%+ font Times-Italic
%%+ font Times-Roman
%%Trailer
%%Pages: 1
%%DocumentNeededResources: font Helvetica
%%+ font Times-Italic
%%+ font Times-Roman
%%EOF
