%!PS-Adobe-3.0 EPSF-3.0
%%BoundingBox: 0 0 510 510
%%Title: Graphics produced by IDL
%%For: vrs@freya01, /freya/u/vrs/Coding/gpu_testbed/idl
%%Creator: IDL Version 8.5.1 (linux x86_64 m64)
%%CreationDate: Sun Jul 17 12:57:35 2022
%%DocumentData: Clean7bit
%%Requirements: color
%%LanguageLevel: 1
%%PageOrder: Ascend
%%Pages: (atend)
%%DocumentNeededResources: (atend)
%%EndComments
%%BeginProlog
%+ prolog.ps -- Prolog for IDL generated PostScript files
%+ Copyright (c) 1988-2015 Exelis Visual Information Solutions, Inc. All Rights Reserved.
%v 5
/$IDL_DICT 40 dict def $IDL_DICT begin /bdef { bind def } bind def /C
{currentpoint newpath moveto} bdef /CP {currentpoint} bdef /D {currentpoint
stroke moveto} bdef /F {closepath fill} bdef /K { setgray } bdef /M {moveto}
bdef /N {rmoveto} bdef /P {lineto} bdef /R {rlineto} bdef /S {gsave show
grestore} bdef /X {currentpoint pop} bdef /Z {gsave currentpoint lineto 20
setlinewidth 1 setlinecap stroke grestore} bdef /L0 {[] 0 setdash} bdef /L1
{[40 100] 0 setdash} bdef /L2 {[200 200] 0 setdash} bdef /L3 {[200 100 50
100] 0 setdash} bdef /L4 {[300 100 50 100 50 100 50 100] 0 setdash} bdef /L5
{[400 200] 0 setdash} bdef /STDFONT { findfont exch scalefont setfont } bdef
/ISOFONT { findfont dup length dict begin { 1 index /FID ne {def} {pop pop}
ifelse } forall /Encoding ISOLatin1Encoding def currentdict end /idltmpfont
exch definefont exch scalefont setfont } bdef /ISOBULLET { gsave /Helvetica
findfont exch scalefont setfont (\267) show currentpoint grestore moveto}
bdef /MITERLIMIT { 2.5 setmiterlimit } bdef end
%%EndProlog
%%Page: 0 1
%%PageRequirements: color
%%PageResources: (atend)
%%PageOrientation: Portrait
%%PageBoundingBox: 0 0 510 510
%%BeginPageSetup
$IDL_DICT begin 0.0283465 dup scale MITERLIMIT
%%IncludeResource: font Helvetica
423.333 /Helvetica STDFONT
%%EndPageSetup
25 setlinewidth L0 0.000 0.000 0.000 setrgbcolor 1598 1690 M 15603 0 R D
1598 1690 M 0 464 R D gsave 1598 1056 translate 0 0 M 1.2 dup scale
-294.217 0 N
(0.0) show grestore 4719 1690 M 0 464 R D gsave 4719 1056 translate 0 0 M
1.2 dup scale -294.217 0 N
(0.2) show grestore 7839 1690 M 0 464 R D gsave 7839 1056 translate 0 0 M
1.2 dup scale -294.217 0 N
(0.4) show grestore 10960 1690 M 0 464 R D gsave 10960 1056 translate 0 0 M
1.2 dup scale -294.217 0 N
(0.6) show grestore 14080 1690 M 0 464 R D gsave 14080 1056 translate 0 0 M
1.2 dup scale -294.217 0 N
(0.8) show grestore 17201 1690 M 0 464 R D gsave 17201 1056 translate 0 0 M
1.2 dup scale -294.217 0 N
(1.0) show grestore 2379 1690 M 0 232 R D 3159 1690 M 0 232 R D 3939 1690 M
0 232 R D 5499 1690 M 0 232 R D 6279 1690 M 0 232 R D 7059 1690 M 0 232 R D
8620 1690 M 0 232 R D 9400 1690 M 0 232 R D 10180 1690 M 0 232 R D
11740 1690 M 0 232 R D 12520 1690 M 0 232 R D 13300 1690 M 0 232 R D
14861 1690 M 0 232 R D 15641 1690 M 0 232 R D 16421 1690 M 0 232 R D
gsave 9400 507 translate 0 0 M 1.2 dup scale -93.98 0 N
%%IncludeResource: font Times-Italic
423.333 /Times-Italic STDFONT
(x) show
%%IncludeResource: font Helvetica
423.333 /Helvetica STDFONT grestore 1598 17155 M 15603 0 R D 1598 17155 M
0 -464 R D 4719 17155 M 0 -464 R D 7839 17155 M 0 -464 R D 10960 17155 M
0 -464 R D 14080 17155 M 0 -464 R D 17201 17155 M 0 -464 R D 2379 17155 M
0 -232 R D 3159 17155 M 0 -232 R D 3939 17155 M 0 -232 R D 5499 17155 M
0 -232 R D 6279 17155 M 0 -232 R D 7059 17155 M 0 -232 R D 8620 17155 M
0 -232 R D 9400 17155 M 0 -232 R D 10180 17155 M 0 -232 R D 11740 17155 M
0 -232 R D 12520 17155 M 0 -232 R D 13300 17155 M 0 -232 R D 14861 17155 M
0 -232 R D 15641 17155 M 0 -232 R D 16421 17155 M 0 -232 R D 1598 1690 M
0 15465 R D 1598 1690 M 469 0 R D gsave 1465 1690 translate 0 0 M
1.2 dup scale -235.373 0 N
(0) show grestore 1598 4783 M 469 0 R D gsave 1465 4614 translate 0 0 M
1.2 dup scale -235.373 0 N
(1) show grestore 1598 7876 M 469 0 R D gsave 1465 7707 translate 0 0 M
1.2 dup scale -235.373 0 N
(2) show grestore 1598 10969 M 469 0 R D gsave 1465 10800 translate 0 0 M
1.2 dup scale -235.373 0 N
(3) show grestore 1598 14062 M 469 0 R D gsave 1465 13893 translate 0 0 M
1.2 dup scale -235.373 0 N
(4) show grestore 1598 17155 M 469 0 R D gsave 1465 16860 translate 0 0 M
1.2 dup scale -235.373 0 N
(5) show grestore 1598 1999 M 235 0 R D 1598 2308 M 235 0 R D 1598 2618 M
235 0 R D 1598 2927 M 235 0 R D 1598 3236 M 235 0 R D 1598 3546 M 235 0 R D
1598 3855 M 235 0 R D 1598 4164 M 235 0 R D 1598 4473 M 235 0 R D
1598 5092 M 235 0 R D 1598 5401 M 235 0 R D 1598 5711 M 235 0 R D
1598 6020 M 235 0 R D 1598 6329 M 235 0 R D 1598 6639 M 235 0 R D
1598 6948 M 235 0 R D 1598 7257 M 235 0 R D 1598 7567 M 235 0 R D
1598 8185 M 235 0 R D 1598 8495 M 235 0 R D 1598 8804 M 235 0 R D
1598 9113 M 235 0 R D 1598 9422 M 235 0 R D 1598 9732 M 235 0 R D
1598 10041 M 235 0 R D 1598 10350 M 235 0 R D 1598 10660 M 235 0 R D
1598 11278 M 235 0 R D 1598 11588 M 235 0 R D 1598 11897 M 235 0 R D
1598 12206 M 235 0 R D 1598 12516 M 235 0 R D 1598 12825 M 235 0 R D
1598 13134 M 235 0 R D 1598 13444 M 235 0 R D 1598 13753 M 235 0 R D
1598 14371 M 235 0 R D 1598 14681 M 235 0 R D 1598 14990 M 235 0 R D
1598 15299 M 235 0 R D 1598 15609 M 235 0 R D 1598 15918 M 235 0 R D
1598 16227 M 235 0 R D 1598 16537 M 235 0 R D 1598 16846 M 235 0 R D
gsave 784 9422 translate 0 0 M 90 rotate 1.2 dup scale -116.205 0 N
%%IncludeResource: font Symbol
423.333 /Symbol STDFONT
(r) show
%%IncludeResource: font Helvetica
423.333 /Helvetica STDFONT grestore 17201 1690 M 0 15465 R D 17201 1690 M
-468 0 R D 17201 4783 M -468 0 R D 17201 7876 M -468 0 R D 17201 10969 M
-468 0 R D 17201 14062 M -468 0 R D 17201 17155 M -468 0 R D 17201 1999 M
-234 0 R D 17201 2308 M -234 0 R D 17201 2618 M -234 0 R D 17201 2927 M
-234 0 R D 17201 3236 M -234 0 R D 17201 3546 M -234 0 R D 17201 3855 M
-234 0 R D 17201 4164 M -234 0 R D 17201 4473 M -234 0 R D 17201 5092 M
-234 0 R D 17201 5401 M -234 0 R D 17201 5711 M -234 0 R D 17201 6020 M
-234 0 R D 17201 6329 M -234 0 R D 17201 6639 M -234 0 R D 17201 6948 M
-234 0 R D 17201 7257 M -234 0 R D 17201 7567 M -234 0 R D 17201 8185 M
-234 0 R D 17201 8495 M -234 0 R D 17201 8804 M -234 0 R D 17201 9113 M
-234 0 R D 17201 9422 M -234 0 R D 17201 9732 M -234 0 R D 17201 10041 M
-234 0 R D 17201 10350 M -234 0 R D 17201 10660 M -234 0 R D 17201 11278 M
-234 0 R D 17201 11588 M -234 0 R D 17201 11897 M -234 0 R D 17201 12206 M
-234 0 R D 17201 12516 M -234 0 R D 17201 12825 M -234 0 R D 17201 13134 M
-234 0 R D 17201 13444 M -234 0 R D 17201 13753 M -234 0 R D 17201 14371 M
-234 0 R D 17201 14681 M -234 0 R D 17201 14990 M -234 0 R D 17201 15299 M
-234 0 R D 17201 15609 M -234 0 R D 17201 15918 M -234 0 R D 17201 16227 M
-234 0 R D 17201 16537 M -234 0 R D 17201 16846 M -234 0 R D 60 setlinewidth
0.706 0.706 0.706 setrgbcolor 1611 4783 M 24 0 R 24 0 R 25 0 R 24 0 R 25 0 R
24 0 R 24 0 R 25 0 R 24 0 R 24 0 R 25 0 R 24 0 R 25 0 R 24 0 R 24 0 R 25 0 R
24 0 R 24 0 R 25 0 R 24 0 R 25 0 R 24 0 R 24 0 R 25 0 R 24 0 R 25 0 R 24 0 R
24 0 R 25 0 R 24 0 R 24 0 R 25 0 R 24 0 R 25 0 R 24 0 R 24 0 R 25 0 R 24 0 R
24 0 R 25 0 R 24 0 R 25 0 R 24 0 R 24 0 R 25 0 R 24 0 R 24 0 R 25 0 R 24 0 R
25 0 R 24 0 R 24 0 R 25 0 R 24 0 R 25 0 R 24 0 R 24 0 R 25 0 R 24 0 R 24 0 R
25 0 R 24 0 R 25 0 R 24 0 R 24 0 R 25 0 R 24 0 R 24 0 R 25 0 R 24 0 R 25 0 R
24 0 R 24 0 R 25 0 R 24 0 R 24 0 R 25 0 R 24 0 R 25 0 R 24 0 R 24 0 R 25 0 R
24 0 R 24 0 R 25 0 R 24 0 R 25 0 R 24 0 R 24 0 R 25 0 R 24 0 R 25 0 R 24 0 R
24 0 R 25 0 R 24 0 R 24 0 R 25 0 R 24 0 R 25 0 R 24 0 R 24 0 R 25 0 R 24 0 R
24 0 R 25 0 R 24 0 R 25 0 R 24 0 R 24 0 R 25 0 R 24 0 R 24 0 R 25 0 R 24 0 R
25 0 R 24 0 R 24 0 R 25 0 R 24 0 R 25 0 R 24 0 R 24 0 R 25 0 R 24 0 R 24 0 R
25 0 R 24 0 R 25 0 R 24 0 R 24 0 R 25 0 R 24 0 R 24 0 R 25 0 R 24 0 R 25 0 R
24 0 R 24 0 R 25 0 R 24 0 R 24 0 R 25 0 R 24 0 R 25 0 R 24 0 R 24 0 R 25 0 R
24 0 R 24 0 R 25 0 R 24 0 R 25 0 R 24 0 R 24 0 R 25 0 R 24 0 R 25 0 R 24 0 R
24 9279 R 25 0 R 24 0 R 24 0 R 25 0 R 24 0 R 25 0 R 24 0 R 24 0 R 25 0 R
24 0 R 24 0 R 25 0 R 24 0 R 25 0 R 24 0 R 24 0 R 25 0 R 24 0 R 24 0 R 25 0 R
24 0 R 25 0 R 24 0 R 24 0 R 25 0 R 24 0 R 25 0 R 24 0 R 24 0 R 25 0 R 24 0 R
24 0 R 25 0 R 24 0 R 25 0 R 24 0 R 24 0 R 25 0 R 24 0 R 24 0 R 25 0 R 24 0 R
25 0 R 24 0 R 24 0 R 25 0 R 24 0 R 24 0 R 25 0 R 24 0 R 25 0 R 24 0 R 24 0 R
25 0 R 24 0 R 24 0 R 25 0 R 24 0 R 25 0 R 24 0 R 24 0 R 25 0 R 24 0 R 25 0 R
24 0 R 24 0 R 25 0 R 24 0 R 24 0 R 25 0 R 24 0 R 25 0 R 24 0 R 24 0 R 25 0 R
24 0 R 24 0 R 25 0 R 24 0 R 25 0 R 24 0 R 24 0 R 25 0 R 24 0 R 24 0 R 25 0 R
24 0 R 25 0 R 24 0 R 24 0 R 25 0 R 24 0 R 25 0 R 24 0 R 24 0 R 25 0 R 24 0 R
24 0 R 25 0 R 24 0 R 25 0 R 24 0 R 24 0 R 25 0 R 24 0 R 24 0 R 25 0 R 24 0 R
25 0 R 24 0 R 24 0 R 25 0 R 24 0 R 24 0 R 25 0 R 24 0 R 25 0 R 24 0 R 24 0 R
25 0 R 24 0 R 24 0 R 25 0 R 24 0 R 25 0 R 24 0 R 24 0 R 25 0 R 24 0 R 25 0 R
24 0 R 24 0 R 25 0 R 24 0 R 24 0 R 25 0 R 24 0 R 25 0 R 24 0 R 24 0 R 25 0 R
24 0 R 24 0 R 25 0 R 24 0 R 25 0 R 24 0 R 24 0 R 25 0 R 24 0 R 24 0 R 25 0 R
24 0 R 25 0 R 24 0 R 24 0 R 25 0 R 24 0 R 25 0 R 24 0 R 24 0 R 25 0 R 24 0 R
24 0 R 25 0 R 24 0 R 25 0 R 24 0 R 24 0 R 25 0 R 24 0 R 24 0 R 25 0 R 24 0 R
25 0 R 24 0 R 24 0 R 25 0 R 24 0 R 24 0 R 25 0 R 24 0 R 25 0 R 24 0 R 24 0 R
25 0 R 24 0 R 24 0 R 25 0 R 24 0 R 25 0 R 24 0 R 24 0 R 25 0 R 24 0 R 25 0 R
24 0 R 24 0 R 25 0 R 24 0 R 24 0 R 25 0 R 24 0 R 25 0 R 24 0 R 24 0 R 25 0 R
24 0 R 24 0 R 25 0 R 24 0 R 25 0 R 24 0 R 24 0 R 25 0 R 24 0 R 24 0 R 25 0 R
24 0 R 25 0 R 24 0 R 24 0 R 25 0 R 24 0 R 24 0 R 25 0 R 24 0 R 25 0 R 24 0 R
24 0 R 25 0 R 24 0 R 25 0 R 24 0 R 24 0 R 25 0 R 24 0 R 24 0 R 25 0 R 24 0 R
25 0 R 24 0 R 24 0 R 25 0 R 24 0 R 24 0 R 25 0 R 24 0 R 25 0 R 24 0 R 24 0 R
25 0 R 24 0 R 24 0 R 25 0 R 24 0 R 25 0 R 24 0 R 24 0 R 25 0 R 24 0 R 25 0 R
24 0 R 24 0 R 25 0 R 24 0 R 24 0 R 25 0 R 24 0 R 25 0 R 24 0 R 24 0 R 25 0 R
24 0 R 24 0 R 25 0 R 24 0 R 25 0 R 24 0 R 24 0 R 25 0 R 24 0 R 24 0 R 25 0 R
24 0 R 25 0 R 24 0 R 24 0 R 25 0 R 24 0 R 24 0 R 25 0 R 24 0 R 25 0 R 24 0 R
24 0 R 25 0 R 24 0 R 25 0 R 24 0 R 24 0 R 25 0 R 24 0 R 24 0 R 25 0 R 24 0 R
25 0 R 24 0 R 24 0 R 25 0 R 24 0 R 24 0 R 25 0 R 24 0 R 25 0 R 24 0 R 24 0 R
25 0 R 24 0 R 24 -9279 R 25 0 R 24 0 R 25 0 R 24 0 R 24 0 R 25 0 R 24 0 R
25 0 R 24 0 R 24 0 R 25 0 R 24 0 R 24 0 R 25 0 R 24 0 R 25 0 R 24 0 R 24 0 R
25 0 R 24 0 R 24 0 R 25 0 R 24 0 R 25 0 R 24 0 R 24 0 R 25 0 R 24 0 R 24 0 R
25 0 R 24 0 R 25 0 R 24 0 R 24 0 R 25 0 R 24 0 R 24 0 R 25 0 R 24 0 R 25 0 R
24 0 R 24 0 R 25 0 R 24 0 R 25 0 R 24 0 R 24 0 R 25 0 R 24 0 R 24 0 R 25 0 R
24 0 R 25 0 R 24 0 R 24 0 R 25 0 R 24 0 R 24 0 R 25 0 R 24 0 R 25 0 R 24 0 R
24 0 R 25 0 R 24 0 R 24 0 R 25 0 R 24 0 R 25 0 R 24 0 R 24 0 R 25 0 R 24 0 R
25 0 R 24 0 R 24 0 R 25 0 R 24 0 R 24 0 R 25 0 R 24 0 R 25 0 R 24 0 R 24 0 R
25 0 R 24 0 R 24 0 R 25 0 R 24 0 R 25 0 R 24 0 R 24 0 R 25 0 R 24 0 R 24 0 R
25 0 R 24 0 R 25 0 R 24 0 R 24 0 R 25 0 R 24 0 R 24 0 R 25 0 R 24 0 R 25 0 R
24 0 R 24 0 R 25 0 R 24 0 R 25 0 R 24 0 R 24 0 R 25 0 R 24 0 R 24 0 R 25 0 R
24 0 R 25 0 R 24 0 R 24 0 R 25 0 R 24 0 R 24 0 R 25 0 R 24 0 R 25 0 R 24 0 R
24 0 R 25 0 R 24 0 R 24 0 R 25 0 R 24 0 R 25 0 R 24 0 R 24 0 R 25 0 R 24 0 R
25 0 R 24 0 R 24 0 R 25 0 R 24 0 R 24 0 R 25 0 R 24 0 R 25 0 R 24 0 R 24 0 R
25 0 R 24 0 R 24 0 R 25 0 R 24 0 R 25 0 R 24 0 R 24 0 R 25 0 R D
25 setlinewidth 0.843 0.000 0.843 setrgbcolor 1611 4946 M 24 2 R 24 2 R
25 2 R 24 2 R 25 2 R 24 2 R 24 2 R 25 2 R 24 2 R 24 -3 R 25 6 R 24 6 R
25 6 R 24 5 R 24 6 R 25 6 R 24 6 R 24 6 R 25 5 R 24 2 R 25 9 R 24 10 R
24 9 R 25 10 R 24 10 R 25 9 R 24 10 R 24 9 R 25 10 R 24 5 R 24 13 R 25 14 R
24 13 R 25 13 R 24 13 R 24 14 R 25 13 R 24 13 R 24 13 R 25 9 R 24 17 R
25 17 R 24 17 R 24 17 R 25 17 R 24 16 R 24 17 R 25 17 R 24 17 R 25 13 R
24 20 R 24 20 R 25 21 R 24 20 R 25 20 R 24 20 R 24 21 R 25 20 R 24 20 R
24 17 R 25 23 R 24 24 R 25 24 R 24 23 R 24 24 R 25 24 R 24 23 R 24 24 R
25 24 R 24 20 R 25 26 R 24 27 R 24 27 R 25 27 R 24 27 R 24 27 R 25 27 R
24 26 R 25 27 R 24 24 R 24 30 R 25 30 R 24 30 R 24 30 R 25 30 R 24 30 R
25 30 R 24 30 R 24 30 R 25 26 R 24 33 R 25 33 R 24 33 R 24 33 R 25 33 R
24 33 R 24 33 R 25 33 R 24 33 R 25 30 R 24 35 R 24 36 R 25 36 R 24 35 R
24 36 R 25 36 R 24 35 R 25 36 R 24 36 R 24 33 R 25 38 R 24 38 R 24 38 R
25 39 R 24 38 R 25 38 R 24 38 R 24 39 R 25 38 R 24 36 R 25 40 R 24 41 R
24 40 R 25 41 R 24 40 R 24 41 R 25 40 R 24 41 R 25 40 R 24 39 R 24 42 R
25 43 R 24 43 R 24 42 R 25 43 R 24 42 R 25 43 R 24 43 R 24 42 R 25 41 R
24 45 R 24 44 R 25 44 R 24 45 R 25 44 R 24 44 R 24 45 R 25 44 R 24 44 R
24 43 R 25 46 R 24 46 R 25 46 R 24 45 R 24 46 R 25 46 R 24 46 R 25 45 R
24 46 R 24 45 R 25 47 R 24 46 R 24 47 R 25 47 R 24 46 R 25 47 R 24 47 R
24 46 R 25 47 R 24 47 R 24 47 R 25 47 R 24 47 R 25 47 R 24 47 R 24 48 R
25 47 R 24 47 R 24 47 R 25 48 R 24 47 R 25 47 R 24 47 R 24 47 R 25 47 R
24 47 R 25 47 R 24 47 R 24 47 R 25 48 R 24 47 R 24 46 R 25 47 R 24 46 R
25 47 R 24 46 R 24 46 R 25 47 R 24 46 R 24 49 R 25 45 R 24 45 R 25 45 R
24 46 R 24 45 R 25 45 R 24 45 R 24 45 R 25 46 R 24 47 R 25 44 R 24 43 R
24 44 R 25 43 R 24 44 R 24 43 R 25 43 R 24 44 R 25 43 R 24 47 R 24 41 R
25 41 R 24 41 R 25 41 R 24 41 R 24 42 R 25 41 R 24 41 R 24 41 R 25 45 R
24 38 R 25 38 R 24 39 R 24 38 R 25 38 R 24 38 R 24 39 R 25 38 R 24 38 R
25 43 R 24 35 R 24 34 R 25 35 R 24 35 R 24 35 R 25 35 R 24 35 R 25 35 R
24 35 R 24 40 R 25 31 R 24 31 R 25 31 R 24 32 R 24 31 R 25 31 R 24 31 R
24 31 R 25 32 R 24 36 R 25 27 R 24 27 R 24 27 R 25 27 R 24 27 R 24 27 R
25 27 R 24 27 R 25 27 R 24 33 R 24 23 R 25 22 R 24 23 R 24 22 R 25 23 R
24 22 R 25 22 R 24 23 R 24 22 R 25 29 R 24 17 R 24 18 R 25 17 R 24 17 R
25 18 R 24 17 R 24 17 R 25 18 R 24 17 R 25 23 R 24 12 R 24 12 R 25 12 R
24 12 R 24 12 R 25 12 R 24 12 R 25 12 R 24 11 R 24 18 R 25 7 R 24 6 R 24 7 R
25 7 R 24 6 R 25 7 R 24 6 R 24 7 R 25 7 R 24 12 R 24 1 R 25 2 R 24 2 R
25 1 R 24 2 R 24 1 R 25 2 R 24 2 R 25 1 R 24 7 R 24 -3 R 25 -3 R 24 -3 R
24 -3 R 25 -3 R 24 -3 R 25 -3 R 24 -3 R 24 -3 R 25 2 R 24 -7 R 24 -7 R
25 -7 R 24 -8 R 25 -7 R 24 -7 R 24 -7 R 25 -7 R 24 -7 R 24 -3 R 25 -11 R
24 -11 R 25 -11 R 24 -11 R 24 -11 R 25 -11 R 24 -11 R 24 -11 R 25 -12 R
24 -6 R 25 -15 R 24 -15 R 24 -15 R 25 -15 R 24 -15 R 25 -15 R 24 -14 R
24 -15 R 25 -15 R 24 -11 R 24 -18 R 25 -19 R 24 -19 R 25 -19 R 24 -19 R
24 -19 R 25 -18 R 24 -19 R 24 -19 R 25 -14 R 24 -23 R 25 -23 R 24 -23 R
24 -23 R 25 -23 R 24 -23 R 24 -23 R 25 -23 R 24 -23 R 25 -17 R 24 -28 R
24 -27 R 25 -27 R 24 -28 R 24 -27 R 25 -27 R 24 -28 R 25 -27 R 24 -27 R
24 -22 R 25 -32 R 24 -32 R 25 -32 R 24 -32 R 24 -32 R 25 -32 R 24 -32 R
24 -32 R 25 -32 R 24 -26 R 25 -37 R 24 -36 R 24 -37 R 25 -37 R 24 -36 R
24 -37 R 25 -37 R 24 -36 R 25 -37 R 24 -31 R 24 -42 R 25 -41 R 24 -41 R
24 -41 R 25 -42 R 24 -41 R 25 -41 R 24 -41 R 24 -42 R 25 -36 R 24 -46 R
25 -45 R 24 -46 R 24 -45 R 25 -46 R 24 -45 R 24 -46 R 25 -46 R 24 -45 R
25 -42 R 24 -49 R 24 -49 R 25 -50 R 24 -49 R 24 -49 R 25 -49 R 24 -49 R
25 -50 R 24 -49 R 24 -46 R 25 -52 R 24 -53 R 24 -52 R 25 -52 R 24 -52 R
25 -52 R 24 -52 R 24 -52 R 25 -52 R 24 -51 R 24 -53 R 25 -54 R 24 -54 R
25 -54 R 24 -54 R 24 -53 R 25 -54 R 24 -54 R 25 -54 R 24 -54 R 24 -54 R
25 -55 R 24 -54 R 24 -54 R 25 -55 R 24 -54 R 25 -55 R 24 -54 R 24 -54 R
25 -56 R 24 -54 R 24 -54 R 25 -54 R 24 -54 R 25 -53 R 24 -54 R 24 -54 R
25 -54 R 24 -54 R 24 -56 R 25 -52 R 24 -52 R 25 -52 R 24 -52 R 24 -52 R
25 -52 R 24 -52 R 25 -52 R 24 -52 R 24 -56 R 25 -50 R 24 -49 R 24 -49 R
25 -49 R 24 -50 R 25 -49 R 24 -49 R 24 -50 R 25 -49 R 24 -54 R 24 -45 R
25 -46 R 24 -46 R 25 -46 R 24 -46 R 24 -45 R 25 -46 R 24 -46 R 24 -46 R
25 -50 R 24 -42 R 25 -42 R 24 -42 R 24 -42 R 25 -42 R 24 -42 R 24 -41 R
25 -42 R 24 -42 R 25 -47 R 24 -38 R 24 -37 R 25 -38 R 24 -38 R 25 -38 R
24 -37 R 24 -38 R 25 -38 R 24 -38 R 24 -42 R 25 -34 R 24 -33 R 25 -34 R
24 -33 R 24 -34 R 25 -34 R 24 -33 R 24 -34 R 25 -34 R 24 -38 R 25 -29 R
24 -30 R 24 -30 R 25 -29 R 24 -30 R 24 -30 R 25 -29 R 24 -30 R 25 -29 R
24 -34 R 24 -26 R 25 -26 R 24 -26 R 25 -26 R 24 -26 R 24 -26 R 25 -25 R
24 -26 R 24 -26 R 25 -30 R 24 -22 R 25 -23 R 24 -22 R 24 -22 R 25 -23 R
24 -22 R 24 -23 R 25 -22 R 24 -22 R 25 -26 R 24 -19 R 24 -19 R 25 -20 R
24 -19 R 24 -19 R 25 -19 R 24 -19 R 25 -19 R 24 -19 R 24 -23 R 25 -16 R
24 -16 R 24 -16 R 25 -17 R 24 -16 R 25 -16 R 24 -16 R 24 -16 R 25 -17 R
24 -19 R 25 -13 R 24 -14 R 24 -13 R 25 -13 R 24 -14 R 24 -13 R 25 -14 R
24 -13 R 25 -14 R 24 -16 R 24 -11 R 25 -11 R 24 -10 R 24 -11 R 25 -11 R
24 -11 R 25 -11 R 24 -10 R 24 -11 R 25 -14 R 24 -8 R 24 -9 R 25 -8 R 24 -8 R
25 -8 R 24 -8 R 24 -8 R 25 -8 R 24 -9 R 25 -12 R 24 -5 R 24 -5 R 25 -5 R
24 -5 R 24 -6 R 25 -5 R 24 -5 R 25 -5 R 24 -5 R 24 -10 R 25 -2 R 24 -1 R
24 -2 R 25 -2 R 24 -2 R 25 -1 R 24 -2 R 24 -2 R 25 -2 R D
gsave 8640 10800 translate 0 0 M 1.5 dup scale
%%IncludeResource: font Times-Italic
423.333 /Times-Italic STDFONT
(p) show
%%IncludeResource: font Times-Roman
423.333 /Times-Roman STDFONT
( = 2) show
%%IncludeResource: font Helvetica
423.333 /Helvetica STDFONT grestore 0.000 0.000 0.804 setrgbcolor
1611 4783 M 24 0 R 24 0 R 25 0 R 24 0 R 25 0 R 24 0 R 24 -1 R 25 0 R 24 0 R
24 0 R 25 0 R 24 0 R 25 0 R 24 0 R 24 0 R 25 0 R 24 0 R 24 0 R 25 0 R 24 0 R
25 0 R 24 1 R 24 0 R 25 0 R 24 0 R 25 0 R 24 0 R 24 0 R 25 0 R 24 0 R 24 0 R
25 0 R 24 1 R 25 0 R 24 0 R 24 0 R 25 0 R 24 0 R 24 0 R 25 0 R 24 0 R 25 0 R
24 0 R 24 0 R 25 0 R 24 1 R 24 0 R 25 0 R 24 0 R 25 0 R 24 -1 R 24 0 R
25 0 R 24 0 R 25 0 R 24 0 R 24 0 R 25 0 R 24 0 R 24 0 R 25 0 R 24 0 R 25 0 R
24 0 R 24 0 R 25 1 R 24 0 R 24 0 R 25 1 R 24 1 R 25 0 R 24 1 R 24 1 R 25 1 R
24 1 R 24 2 R 25 2 R 24 2 R 25 3 R 24 3 R 24 3 R 25 3 R 24 4 R 24 4 R 25 5 R
24 5 R 25 6 R 24 6 R 24 7 R 25 8 R 24 8 R 25 8 R 24 10 R 24 10 R 25 11 R
24 12 R 24 13 R 25 13 R 24 15 R 25 15 R 24 16 R 24 17 R 25 18 R 24 20 R
24 20 R 25 21 R 24 22 R 25 23 R 24 24 R 24 26 R 25 26 R 24 28 R 24 28 R
25 30 R 24 30 R 25 32 R 24 33 R 24 33 R 25 35 R 24 36 R 25 37 R 24 38 R
24 39 R 25 39 R 24 41 R 24 42 R 25 44 R 24 44 R 25 45 R 24 47 R 24 47 R
25 48 R 24 50 R 24 51 R 25 53 R 24 54 R 25 57 R 24 57 R 24 60 R 25 64 R
24 62 R 24 65 R 25 68 R 24 73 R 25 76 R 24 79 R 24 83 R 25 87 R 24 90 R
24 96 R 25 98 R 24 105 R 25 111 R 24 117 R 24 124 R 25 130 R 24 136 R
25 143 R 24 149 R 24 149 R 25 168 R 24 173 R 24 177 R 25 181 R 24 186 R
25 190 R 24 194 R 24 198 R 25 203 R 24 199 R 24 212 R 25 209 R 24 207 R
25 204 R 24 201 R 24 198 R 25 195 R 24 192 R 24 190 R 25 182 R 24 180 R
25 172 R 24 164 R 24 156 R 25 147 R 24 140 R 25 132 R 24 124 R 24 116 R
25 110 R 24 95 R 24 88 R 25 79 R 24 72 R 25 64 R 24 55 R 24 48 R 25 40 R
24 32 R 24 30 R 25 14 R 24 11 R 25 6 R 24 2 R 24 -1 R 25 -6 R 24 -10 R
24 -14 R 25 -17 R 24 -18 R 25 -25 R 24 -24 R 24 -25 R 25 -25 R 24 -25 R
24 -24 R 25 -25 R 24 -25 R 25 -25 R 24 -23 R 24 -23 R 25 -20 R 24 -20 R
25 -17 R 24 -15 R 24 -14 R 25 -13 R 24 -10 R 24 -9 R 25 -8 R 24 -4 R 25 -3 R
24 -1 R 24 -1 R 25 1 R 24 2 R 24 3 R 25 4 R 24 5 R 25 6 R 24 7 R 24 8 R
25 8 R 24 7 R 24 8 R 25 8 R 24 7 R 25 8 R 24 8 R 24 7 R 25 7 R 24 6 R 25 6 R
24 5 R 24 5 R 25 4 R 24 3 R 24 3 R 25 3 R 24 2 R 25 1 R 24 0 R 24 1 R
25 -1 R 24 0 R 24 -1 R 25 -1 R 24 -2 R 25 -2 R 24 -1 R 24 -3 R 25 -3 R
24 -2 R 24 -2 R 25 -3 R 24 -2 R 25 -2 R 24 -3 R 24 -2 R 25 -2 R 24 -2 R
24 -1 R 25 -2 R 24 -1 R 25 -1 R 24 -1 R 24 -1 R 25 0 R 24 -1 R 25 0 R 24 0 R
24 1 R 25 0 R 24 0 R 24 1 R 25 0 R 24 1 R 25 1 R 24 0 R 24 1 R 25 1 R 24 1 R
24 1 R 25 1 R 24 0 R 25 1 R 24 1 R 24 0 R 25 1 R 24 0 R 24 1 R 25 0 R 24 0 R
25 0 R 24 0 R 24 0 R 25 0 R 24 0 R 25 0 R 24 0 R 24 0 R 25 0 R 24 -1 R
24 0 R 25 0 R 24 -1 R 25 0 R 24 0 R 24 -1 R 25 0 R 24 -1 R 24 0 R 25 0 R
24 0 R 25 -1 R 24 0 R 24 0 R 25 0 R 24 0 R 24 0 R 25 0 R 24 0 R 25 0 R
24 0 R 24 1 R 25 0 R 24 0 R 24 1 R 25 0 R 24 0 R 25 1 R 24 0 R 24 1 R 25 0 R
24 1 R 25 0 R 24 1 R 24 0 R 25 1 R 24 0 R 24 0 R 25 1 R 24 0 R 25 0 R 24 0 R
24 0 R 25 0 R 24 0 R 24 0 R 25 0 R 24 -1 R 25 -1 R 24 0 R 24 -1 R 25 -1 R
24 -1 R 24 -1 R 25 -1 R 24 -2 R 25 -1 R 24 -2 R 24 -2 R 25 -2 R 24 -1 R
24 -2 R 25 -2 R 24 -2 R 25 -2 R 24 -1 R 24 -2 R 25 -2 R 24 -1 R 25 -2 R
24 -1 R 24 -1 R 25 0 R 24 -1 R 24 0 R 25 1 R 24 0 R 25 1 R 24 2 R 24 2 R
25 2 R 24 3 R 24 3 R 25 4 R 24 4 R 25 5 R 24 4 R 24 6 R 25 7 R 24 6 R 24 7 R
25 6 R 24 7 R 25 7 R 24 7 R 24 7 R 25 5 R 24 8 R 25 7 R 24 5 R 24 5 R 25 3 R
24 2 R 24 1 R 25 0 R 24 -1 R 25 -5 R 24 -3 R 24 -7 R 25 -9 R 24 -13 R
24 -16 R 25 -18 R 24 -22 R 25 -25 R 24 -28 R 24 -33 R 25 -35 R 24 -39 R
24 -45 R 25 -49 R 24 -54 R 25 -58 R 24 -63 R 24 -68 R 25 -73 R 24 -77 R
24 -84 R 25 -89 R 24 -93 R 25 -99 R 24 -103 R 24 -109 R 25 -113 R 24 -119 R
25 -123 R 24 -126 R 24 -135 R 25 -138 R 24 -141 R 24 -145 R 25 -148 R
24 -151 R 25 -154 R 24 -158 R 24 -161 R 25 -160 R 24 -168 R 24 -168 R
25 -169 R 24 -169 R 25 -169 R 24 -169 R 24 -170 R 25 -169 R 24 -170 R
24 -168 R 25 -170 R 24 -167 R 25 -165 R 24 -162 R 24 -160 R 25 -157 R
24 -154 R 25 -152 R 24 -149 R 24 -146 R 25 -143 R 24 -139 R 24 -135 R
25 -131 R 24 -127 R 25 -122 R 24 -119 R 24 -115 R 25 -111 R 24 -107 R
24 -102 R 25 -98 R 24 -94 R 25 -91 R 24 -86 R 24 -83 R 25 -78 R 24 -75 R
24 -71 R 25 -68 R 24 -63 R 25 -60 R 24 -57 R 24 -53 R 25 -51 R 24 -48 R
24 -44 R 25 -42 R 24 -38 R 25 -36 R 24 -32 R 24 -30 R 25 -28 R 24 -25 R
25 -24 R 24 -21 R 24 -19 R 25 -17 R 24 -14 R 24 -14 R 25 -10 R 24 -10 R
25 -8 R 24 -6 R 24 -6 R 25 -5 R 24 -3 R 24 -2 R 25 -1 R 24 -1 R 25 1 R
24 2 R 24 1 R 25 2 R 24 2 R 24 3 R 25 3 R 24 3 R 25 4 R 24 3 R 24 4 R 25 4 R
24 3 R 25 4 R 24 3 R 24 3 R 25 3 R 24 2 R 24 3 R 25 2 R 24 2 R 25 2 R 24 2 R
24 1 R 25 1 R 24 1 R 24 0 R 25 1 R 24 0 R 25 0 R 24 0 R 24 -1 R 25 0 R
24 -1 R 24 -1 R 25 -1 R 24 -1 R 25 -1 R 24 -1 R 24 -1 R 25 -1 R 24 -1 R
24 -2 R 25 -1 R 24 -1 R 25 -1 R 24 -1 R 24 -1 R 25 0 R 24 -1 R 25 -1 R
24 -1 R 24 0 R 25 -1 R 24 0 R 24 0 R 25 0 R 24 -1 R 25 0 R 24 0 R 24 0 R
25 1 R 24 0 R 24 0 R 25 0 R 24 0 R 25 1 R 24 0 R 24 0 R 25 1 R 24 0 R 24 0 R
25 1 R 24 0 R 25 0 R 24 1 R 24 0 R 25 0 R 24 0 R 25 1 R 24 0 R 24 0 R 25 0 R
24 0 R 24 0 R 25 0 R 24 0 R 25 0 R 24 0 R 24 0 R 25 0 R 24 0 R 24 0 R 25 0 R
24 0 R 25 0 R 24 -1 R 24 0 R 25 0 R D gsave 8640 9540 translate 0 0 M
1.5 dup scale
%%IncludeResource: font Times-Italic
423.333 /Times-Italic STDFONT
(p) show
%%IncludeResource: font Times-Roman
423.333 /Times-Roman STDFONT
( = 3) show
%%IncludeResource: font Helvetica
423.333 /Helvetica STDFONT grestore 0.000 0.608 0.000 setrgbcolor
1611 4783 M 24 0 R 24 0 R 25 0 R 24 0 R 25 0 R 24 0 R 24 0 R 25 0 R 24 0 R
24 0 R 25 0 R 24 0 R 25 0 R 24 0 R 24 0 R 25 0 R 24 0 R 24 0 R 25 0 R 24 0 R
25 0 R 24 0 R 24 0 R 25 0 R 24 0 R 25 0 R 24 0 R 24 0 R 25 0 R 24 0 R 24 0 R
25 0 R 24 0 R 25 0 R 24 0 R 24 0 R 25 0 R 24 0 R 24 0 R 25 0 R 24 0 R 25 0 R
24 0 R 24 0 R 25 0 R 24 0 R 24 0 R 25 0 R 24 0 R 25 0 R 24 0 R 24 0 R 25 0 R
24 0 R 25 0 R 24 0 R 24 0 R 25 0 R 24 0 R 24 0 R 25 0 R 24 0 R 25 0 R 24 0 R
24 0 R 25 0 R 24 0 R 24 0 R 25 0 R 24 0 R 25 -1 R 24 0 R 24 0 R 25 -1 R
24 0 R 24 0 R 25 0 R 24 0 R 25 0 R 24 0 R 24 0 R 25 1 R 24 0 R 24 1 R 25 1 R
24 0 R 25 1 R 24 1 R 24 1 R 25 0 R 24 1 R 25 0 R 24 1 R 24 -1 R 25 0 R
24 -1 R 24 -1 R 25 -2 R 24 -1 R 25 -3 R 24 -2 R 24 -2 R 25 -3 R 24 -2 R
24 -3 R 25 -1 R 24 -2 R 25 0 R 24 0 R 24 1 R 25 1 R 24 3 R 24 4 R 25 5 R
24 6 R 25 6 R 24 7 R 24 8 R 25 8 R 24 7 R 25 7 R 24 7 R 24 4 R 25 3 R 24 1 R
24 -1 R 25 -4 R 24 -6 R 25 -8 R 24 -12 R 24 -11 R 25 -14 R 24 -16 R 24 -14 R
25 -14 R 24 -10 R 25 -5 R 24 1 R 24 9 R 25 19 R 24 29 R 24 44 R 25 62 R
24 80 R 25 100 R 24 122 R 24 145 R 25 169 R 24 195 R 24 224 R 25 244 R
24 274 R 25 300 R 24 324 R 24 346 R 25 364 R 24 382 R 25 396 R 24 408 R
24 414 R 25 422 R 24 419 R 24 415 R 25 406 R 24 395 R 25 379 R 24 362 R
24 340 R 25 315 R 24 286 R 24 263 R 25 230 R 24 200 R 25 168 R 24 140 R
24 112 R 25 86 R 24 60 R 24 36 R 25 15 R 24 -5 R 25 -19 R 24 -31 R 24 -39 R
25 -47 R 24 -51 R 25 -53 R 24 -52 R 24 -50 R 25 -44 R 24 -40 R 24 -33 R
25 -25 R 24 -17 R 25 -11 R 24 -4 R 24 3 R 25 8 R 24 13 R 24 18 R 25 21 R
24 22 R 25 22 R 24 22 R 24 21 R 25 20 R 24 17 R 24 14 R 25 11 R 24 7 R
25 4 R 24 1 R 24 -3 R 25 -5 R 24 -7 R 24 -8 R 25 -10 R 24 -10 R 25 -11 R
24 -10 R 24 -9 R 25 -9 R 24 -6 R 25 -6 R 24 -3 R 24 -2 R 25 -1 R 24 1 R
24 2 R 25 3 R 24 5 R 25 5 R 24 4 R 24 5 R 25 5 R 24 4 R 24 4 R 25 3 R 24 3 R
25 1 R 24 1 R 24 0 R 25 -1 R 24 -1 R 24 -2 R 25 -2 R 24 -3 R 25 -2 R 24 -3 R
24 -2 R 25 -2 R 24 -2 R 25 -1 R 24 -1 R 24 0 R 25 0 R 24 0 R 24 1 R 25 1 R
24 1 R 25 1 R 24 1 R 24 2 R 25 1 R 24 1 R 24 1 R 25 0 R 24 1 R 25 0 R 24 0 R
24 0 R 25 -1 R 24 0 R 24 -1 R 25 -1 R 24 0 R 25 -1 R 24 0 R 24 -1 R 25 0 R
24 0 R 24 -1 R 25 0 R 24 0 R 25 1 R 24 0 R 24 0 R 25 0 R 24 1 R 25 0 R
24 0 R 24 1 R 25 0 R 24 0 R 24 0 R 25 0 R 24 0 R 25 0 R 24 0 R 24 0 R 25 0 R
24 -1 R 24 0 R 25 0 R 24 0 R 25 0 R 24 0 R 24 0 R 25 0 R 24 0 R 24 0 R
25 0 R 24 0 R 25 0 R 24 0 R 24 0 R 25 0 R 24 0 R 25 0 R 24 0 R 24 0 R 25 0 R
24 0 R 24 0 R 25 0 R 24 0 R 25 0 R 24 0 R 24 0 R 25 0 R 24 0 R 24 0 R 25 0 R
24 0 R 25 0 R 24 0 R 24 0 R 25 0 R 24 0 R 24 0 R 25 0 R 24 0 R 25 0 R 24 0 R
24 0 R 25 0 R 24 0 R 24 0 R 25 0 R 24 0 R 25 0 R 24 0 R 24 0 R 25 0 R 24 0 R
25 0 R 24 0 R 24 0 R 25 0 R 24 0 R 24 0 R 25 0 R 24 0 R 25 0 R 24 0 R 24 0 R
25 0 R 24 0 R 24 0 R 25 0 R 24 0 R 25 0 R 24 0 R 24 0 R 25 0 R 24 0 R
24 -1 R 25 0 R 24 0 R 25 0 R 24 0 R 24 0 R 25 1 R 24 0 R 24 0 R 25 0 R
24 1 R 25 0 R 24 0 R 24 1 R 25 0 R 24 0 R 25 1 R 24 0 R 24 0 R 25 0 R
24 -1 R 24 0 R 25 -1 R 24 0 R 25 -1 R 24 -1 R 24 -1 R 25 -2 R 24 -1 R
24 -1 R 25 0 R 24 -1 R 25 -1 R 24 1 R 24 0 R 25 0 R 24 2 R 24 1 R 25 2 R
24 3 R 25 2 R 24 3 R 24 4 R 25 3 R 24 3 R 25 3 R 24 2 R 24 2 R 25 1 R 24 0 R
24 -1 R 25 -2 R 24 -4 R 25 -5 R 24 -6 R 24 -7 R 25 -8 R 24 -9 R 24 -10 R
25 -9 R 24 -9 R 25 -9 R 24 -7 R 24 -5 R 25 -5 R 24 -1 R 24 3 R 25 6 R 24 9 R
25 13 R 24 15 R 24 20 R 25 22 R 24 25 R 24 26 R 25 26 R 24 27 R 25 24 R
24 20 R 24 14 R 25 6 R 24 -4 R 25 -15 R 24 -31 R 24 -42 R 25 -63 R 24 -84 R
24 -106 R 25 -129 R 24 -153 R 25 -177 R 24 -202 R 24 -229 R 25 -256 R
24 -277 R 24 -302 R 25 -325 R 24 -345 R 25 -361 R 24 -376 R 24 -386 R
25 -395 R 24 -401 R 24 -400 R 25 -403 R 24 -394 R 25 -384 R 24 -371 R
24 -357 R 25 -338 R 24 -319 R 25 -297 R 24 -272 R 24 -246 R 25 -223 R
24 -195 R 24 -168 R 25 -143 R 24 -119 R 25 -97 R 24 -76 R 24 -56 R 25 -39 R
24 -23 R 24 -9 R 25 1 R 24 9 R 25 15 R 24 20 R 24 23 R 25 24 R 24 24 R
24 23 R 25 19 R 24 17 R 25 13 R 24 9 R 24 5 R 25 1 R 24 -1 R 24 -5 R 25 -7 R
24 -9 R 25 -10 R 24 -12 R 24 -12 R 25 -11 R 24 -10 R 25 -9 R 24 -8 R 24 -7 R
25 -4 R 24 -4 R 24 -1 R 25 0 R 24 2 R 25 3 R 24 4 R 24 4 R 25 5 R 24 5 R
24 5 R 25 4 R 24 4 R 25 4 R 24 3 R 24 2 R 25 1 R 24 0 R 24 0 R 25 -1 R
24 -1 R 25 -2 R 24 -1 R 24 -3 R 25 -2 R 24 -2 R 25 -2 R 24 -2 R 24 -1 R
25 -1 R 24 -1 R 24 0 R 25 0 R 24 0 R 25 1 R 24 0 R 24 1 R 25 1 R 24 1 R
24 1 R 25 1 R 24 1 R 25 1 R 24 0 R 24 0 R 25 1 R 24 0 R 24 -1 R 25 0 R
24 0 R 25 -1 R 24 0 R 24 0 R 25 -1 R 24 0 R 24 -1 R 25 0 R 24 0 R 25 0 R
24 0 R 24 0 R 25 0 R 24 0 R 25 0 R 24 0 R 24 0 R 25 1 R 24 0 R 24 0 R 25 0 R
24 0 R 25 0 R 24 0 R 24 0 R 25 0 R 24 0 R 24 0 R 25 0 R 24 0 R 25 0 R 24 0 R
24 0 R 25 0 R 24 0 R 24 0 R 25 0 R 24 0 R 25 0 R 24 0 R 24 0 R 25 0 R 24 0 R
25 0 R 24 0 R 24 0 R 25 0 R 24 0 R 24 0 R 25 0 R 24 0 R 25 0 R 24 0 R 24 0 R
25 0 R 24 0 R 24 0 R 25 0 R 24 0 R 25 0 R 24 0 R 24 0 R 25 0 R D
gsave 8640 8280 translate 0 0 M 1.5 dup scale
%%IncludeResource: font Times-Italic
423.333 /Times-Italic STDFONT
(p) show
%%IncludeResource: font Times-Roman
423.333 /Times-Roman STDFONT
( = 4) show
%%IncludeResource: font Helvetica
423.333 /Helvetica STDFONT grestore 0.922 0.000 0.000 setrgbcolor
1611 4783 M 24 0 R 24 0 R 25 0 R 24 0 R 25 0 R 24 0 R 24 0 R 25 0 R 24 0 R
24 0 R 25 0 R 24 0 R 25 0 R 24 0 R 24 0 R 25 0 R 24 0 R 24 0 R 25 0 R 24 0 R
25 0 R 24 0 R 24 0 R 25 0 R 24 0 R 25 0 R 24 0 R 24 0 R 25 0 R 24 0 R 24 0 R
25 0 R 24 0 R 25 0 R 24 0 R 24 0 R 25 0 R 24 0 R 24 0 R 25 0 R 24 0 R 25 0 R
24 0 R 24 0 R 25 0 R 24 0 R 24 0 R 25 0 R 24 0 R 25 0 R 24 0 R 24 0 R 25 0 R
24 0 R 25 0 R 24 0 R 24 0 R 25 0 R 24 0 R 24 0 R 25 0 R 24 0 R 25 0 R 24 0 R
24 0 R 25 0 R 24 0 R 24 0 R 25 0 R 24 0 R 25 0 R 24 0 R 24 0 R 25 0 R 24 0 R
24 0 R 25 0 R 24 0 R 25 0 R 24 0 R 24 0 R 25 0 R 24 0 R 24 0 R 25 0 R 24 0 R
25 0 R 24 0 R 24 0 R 25 0 R 24 0 R 25 0 R 24 0 R 24 0 R 25 0 R 24 0 R 24 0 R
25 0 R 24 0 R 25 0 R 24 0 R 24 0 R 25 0 R 24 0 R 24 0 R 25 0 R 24 0 R 25 0 R
24 0 R 24 0 R 25 0 R 24 0 R 24 0 R 25 0 R 24 0 R 25 0 R 24 0 R 24 0 R
25 -1 R 24 1 R 25 0 R 24 0 R 24 0 R 25 -1 R 24 0 R 24 1 R 25 1 R 24 0 R
25 -1 R 24 -2 R 24 -1 R 25 2 R 24 4 R 24 1 R 25 -3 R 24 -6 R 25 -3 R 24 5 R
24 10 R 25 5 R 24 -6 R 24 -16 R 25 -11 R 24 8 R 25 25 R 24 21 R 24 -8 R
25 -40 R 24 -39 R 24 4 R 25 64 R 24 76 R 25 11 R 24 -86 R 24 -84 R 25 157 R
24 673 R 25 1335 R 24 1879 R 24 2045 R 25 1737 R 24 1087 R 24 383 R 25 -93 R
24 -227 R 25 -102 R 24 90 R 24 184 R 25 144 R 24 42 R 24 -26 R 25 -21 R
24 26 R 25 51 R 24 30 R 24 -14 R 25 -40 R 24 -26 R 24 9 R 25 30 R 24 21 R
25 -6 R 24 -23 R 24 -17 R 25 5 R 24 18 R 25 12 R 24 -3 R 24 -15 R 25 -10 R
24 3 R 24 11 R 25 7 R 24 -3 R 25 -9 R 24 -5 R 24 3 R 25 7 R 24 5 R 24 -2 R
25 -4 R 24 -2 R 25 3 R 24 4 R 24 0 R 25 -3 R 24 -3 R 24 -1 R 25 2 R 24 3 R
25 0 R 24 -2 R 24 -2 R 25 0 R 24 1 R 24 2 R 25 -1 R 24 -1 R 25 -1 R 24 0 R
24 1 R 25 1 R 24 0 R 25 -1 R 24 -1 R 24 1 R 25 1 R 24 0 R 24 -1 R 25 0 R
24 0 R 25 0 R 24 1 R 24 -1 R 25 0 R 24 0 R 24 0 R 25 0 R 24 0 R 25 0 R
24 0 R 24 0 R 25 0 R 24 0 R 24 0 R 25 0 R 24 0 R 25 0 R 24 0 R 24 0 R 25 0 R
24 0 R 25 0 R 24 0 R 24 0 R 25 0 R 24 0 R 24 0 R 25 0 R 24 0 R 25 0 R 24 0 R
24 0 R 25 0 R 24 0 R 24 0 R 25 -1 R 24 -1 R 25 -2 R 24 0 R 24 1 R 25 2 R
24 0 R 24 -1 R 25 -3 R 24 -4 R 25 -2 R 24 2 R 24 5 R 25 7 R 24 5 R 24 2 R
25 -1 R 24 -1 R 25 -1 R 24 -1 R 24 -1 R 25 -1 R 24 -2 R 25 -2 R 24 -1 R
24 0 R 25 1 R 24 1 R 24 0 R 25 -1 R 24 0 R 25 0 R 24 0 R 24 1 R 25 0 R
24 -1 R 24 0 R 25 0 R 24 0 R 25 0 R 24 0 R 24 0 R 25 0 R 24 0 R 24 0 R
25 0 R 24 0 R 25 0 R 24 0 R 24 0 R 25 0 R 24 0 R 25 0 R 24 0 R 24 0 R 25 0 R
24 0 R 24 0 R 25 0 R 24 0 R 25 0 R 24 0 R 24 0 R 25 0 R 24 0 R 24 0 R 25 0 R
24 0 R 25 0 R 24 0 R 24 0 R 25 0 R 24 0 R 24 0 R 25 0 R 24 0 R 25 0 R 24 0 R
24 0 R 25 0 R 24 0 R 24 0 R 25 0 R 24 0 R 25 0 R 24 0 R 24 0 R 25 0 R 24 0 R
25 0 R 24 0 R 24 0 R 25 0 R 24 0 R 24 0 R 25 0 R 24 0 R 25 0 R 24 0 R 24 1 R
25 0 R 24 0 R 24 0 R 25 0 R 24 -1 R 25 0 R 24 0 R 24 0 R 25 0 R 24 0 R
24 0 R 25 0 R 24 0 R 25 0 R 24 0 R 24 0 R 25 0 R 24 0 R 24 0 R 25 0 R 24 0 R
25 0 R 24 0 R 24 0 R 25 0 R 24 0 R 25 0 R 24 0 R 24 0 R 25 0 R 24 0 R 24 0 R
25 0 R 24 0 R 25 0 R 24 0 R 24 0 R 25 0 R 24 0 R 24 0 R 25 0 R 24 0 R 25 0 R
24 0 R 24 0 R 25 0 R 24 0 R 24 0 R 25 0 R 24 0 R 25 0 R 24 0 R 24 0 R 25 0 R
24 0 R 25 0 R 24 0 R 24 0 R 25 0 R 24 1 R 24 0 R 25 0 R 24 1 R 25 0 R 24 0 R
24 0 R 25 0 R 24 -1 R 24 -1 R 25 0 R 24 -1 R 25 -1 R 24 0 R 24 0 R 25 0 R
24 1 R 24 1 R 25 1 R 24 0 R 25 -1 R 24 -2 R 24 0 R 25 2 R 24 3 R 24 0 R
25 -3 R 24 -4 R 25 -1 R 24 5 R 24 6 R 25 2 R 24 -6 R 25 -11 R 24 -5 R
24 10 R 25 18 R 24 10 R 24 -13 R 25 -30 R 24 -20 R 25 15 R 24 48 R 24 41 R
25 -14 R 24 -81 R 24 -83 R 25 8 R 24 141 R 25 165 R 24 -70 R 24 -605 R
25 -1305 R 24 -1891 R 24 -2098 R 25 -1824 R 24 -1204 R 25 -517 R 24 -37 R
24 130 R 25 65 R 24 -62 R 25 -106 R 24 -47 R 24 41 R 25 76 R 24 39 R
24 -25 R 25 -56 R 24 -31 R 25 15 R 24 41 R 24 26 R 25 -10 R 24 -31 R
24 -20 R 25 7 R 24 23 R 25 15 R 24 -5 R 24 -17 R 25 -12 R 24 4 R 24 13 R
25 9 R 24 -3 R 25 -11 R 24 -6 R 24 3 R 25 8 R 24 5 R 24 -3 R 25 -6 R 24 -4 R
25 3 R 24 5 R 24 2 R 25 -2 R 24 -4 R 25 -2 R 24 3 R 24 3 R 25 0 R 24 -1 R
24 -3 R 25 0 R 24 2 R 25 1 R 24 0 R 24 -1 R 25 -1 R 24 0 R 24 1 R 25 1 R
24 0 R 25 -1 R 24 -1 R 24 1 R 25 0 R 24 1 R 24 -1 R 25 0 R 24 0 R 25 0 R
24 1 R 24 0 R 25 -1 R 24 0 R 25 0 R 24 0 R 24 0 R 25 0 R 24 -1 R 24 -1 R
25 0 R 24 -1 R 25 0 R 24 0 R 24 0 R 25 1 R 24 0 R 24 1 R 25 1 R 24 0 R
25 1 R 24 0 R 24 0 R 25 0 R 24 0 R 24 0 R 25 0 R 24 0 R 25 0 R 24 0 R
24 -1 R 25 0 R 24 0 R 24 0 R 25 0 R 24 0 R 25 0 R 24 0 R 24 0 R 25 0 R
24 0 R 25 0 R 24 0 R 24 0 R 25 0 R 24 0 R 24 0 R 25 0 R 24 0 R 25 0 R 24 0 R
24 0 R 25 0 R 24 0 R 24 0 R 25 0 R 24 0 R 25 0 R 24 0 R 24 0 R 25 0 R 24 0 R
24 0 R 25 0 R 24 0 R 25 0 R 24 0 R 24 0 R 25 0 R 24 0 R 25 0 R 24 0 R 24 0 R
25 0 R 24 0 R 24 0 R 25 0 R 24 0 R 25 0 R 24 0 R 24 0 R 25 0 R 24 0 R 24 0 R
25 0 R 24 0 R 25 0 R 24 0 R 24 0 R 25 0 R D gsave 8640 7020 translate 0 0 M
1.5 dup scale
%%IncludeResource: font Times-Italic
423.333 /Times-Italic STDFONT
(p) show
%%IncludeResource: font Times-Roman
423.333 /Times-Roman STDFONT
( = 10) show
%%IncludeResource: font Helvetica
423.333 /Helvetica STDFONT grestore
%%PageTrailer
end
%%PageResources: font Helvetica
%%+ font Times-Italic
%%+ font Symbol
%%+ font Times-Roman
%%Trailer
%%Pages: 1
%%DocumentNeededResources: font Helvetica
%%+ font Times-Italic
%%+ font Symbol
%%+ font Times-Roman
%%EOF
