%!PS-Adobe-3.0 EPSF-3.0
%%BoundingBox: 0 0 340 453
%%Title: Graphics produced by IDL
%%For: vrs@freya01, /freya/u/vrs/Coding/gpu_testbed/idl
%%Creator: IDL Version 8.5.1 (linux x86_64 m64)
%%CreationDate: Sun Jun 19 22:53:50 2022
%%DocumentData: Clean7bit
%%Requirements: color
%%LanguageLevel: 1
%%PageOrder: Ascend
%%Pages: (atend)
%%DocumentNeededResources: (atend)
%%EndComments
%%BeginProlog
%+ prolog.ps -- Prolog for IDL generated PostScript files
%+ Copyright (c) 1988-2015 Exelis Visual Information Solutions, Inc. All Rights Reserved.
%v 5
/$IDL_DICT 40 dict def $IDL_DICT begin /bdef { bind def } bind def /C
{currentpoint newpath moveto} bdef /CP {currentpoint} bdef /D {currentpoint
stroke moveto} bdef /F {closepath fill} bdef /K { setgray } bdef /M {moveto}
bdef /N {rmoveto} bdef /P {lineto} bdef /R {rlineto} bdef /S {gsave show
grestore} bdef /X {currentpoint pop} bdef /Z {gsave currentpoint lineto 20
setlinewidth 1 setlinecap stroke grestore} bdef /L0 {[] 0 setdash} bdef /L1
{[40 100] 0 setdash} bdef /L2 {[200 200] 0 setdash} bdef /L3 {[200 100 50
100] 0 setdash} bdef /L4 {[300 100 50 100 50 100 50 100] 0 setdash} bdef /L5
{[400 200] 0 setdash} bdef /STDFONT { findfont exch scalefont setfont } bdef
/ISOFONT { findfont dup length dict begin { 1 index /FID ne {def} {pop pop}
ifelse } forall /Encoding ISOLatin1Encoding def currentdict end /idltmpfont
exch definefont exch scalefont setfont } bdef /ISOBULLET { gsave /Helvetica
findfont exch scalefont setfont (\267) show currentpoint grestore moveto}
bdef /MITERLIMIT { 2.5 setmiterlimit } bdef end
%%EndProlog
%%Page: 0 1
%%PageRequirements: color
%%PageResources: (atend)
%%PageOrientation: Portrait
%%PageBoundingBox: 0 0 340 453
%%BeginPageSetup
$IDL_DICT begin 0.0283465 dup scale MITERLIMIT
%%IncludeResource: font Helvetica
423.333 /Helvetica STDFONT
%%EndPageSetup
25 setlinewidth L0 0.000 0.000 0.000 setrgbcolor 2131 1690 M 9070 0 R D
3832 1690 M 0 404 R D gsave 3832 1056 translate 0 0 M 1.2 dup scale
-117.687 0 N
(2) show grestore 6099 1690 M 0 404 R D gsave 6099 1056 translate 0 0 M
1.2 dup scale -117.687 0 N
(4) show grestore 8367 1690 M 0 404 R D gsave 8367 1056 translate 0 0 M
1.2 dup scale -117.687 0 N
(6) show grestore 10634 1690 M 0 404 R D gsave 10634 1056 translate 0 0 M
1.2 dup scale -117.687 0 N
(8) show grestore 2131 1690 M 0 202 R D 2698 1690 M 0 202 R D 3265 1690 M
0 202 R D 4399 1690 M 0 202 R D 4966 1690 M 0 202 R D 5532 1690 M 0 202 R D
6666 1690 M 0 202 R D 7233 1690 M 0 202 R D 7800 1690 M 0 202 R D
8933 1690 M 0 202 R D 9500 1690 M 0 202 R D 10067 1690 M 0 202 R D
11201 1690 M 0 202 R D gsave 6666 507 translate 0 0 M 1.2 dup scale
-105.833 0 N
%%IncludeResource: font Times-Italic
423.333 /Times-Italic STDFONT
(p) show
%%IncludeResource: font Helvetica
423.333 /Helvetica STDFONT grestore 2131 15155 M 9070 0 R D 3832 15155 M
0 -404 R D 6099 15155 M 0 -404 R D 8367 15155 M 0 -404 R D 10634 15155 M
0 -404 R D 2131 15155 M 0 -202 R D 2698 15155 M 0 -202 R D 3265 15155 M
0 -202 R D 4399 15155 M 0 -202 R D 4966 15155 M 0 -202 R D 5532 15155 M
0 -202 R D 6666 15155 M 0 -202 R D 7233 15155 M 0 -202 R D 7800 15155 M
0 -202 R D 8933 15155 M 0 -202 R D 9500 15155 M 0 -202 R D 10067 15155 M
0 -202 R D 11201 15155 M 0 -202 R D 2131 1690 M 0 13465 R D 2131 2691 M
272 0 R D gsave 1998 2522 translate 0 0 M 1.2 dup scale -850.011 0 N
(10) show X 192.937 M
%%IncludeResource: font Helvetica
262.467 /Helvetica STDFONT
(-10) show grestore
%%IncludeResource: font Helvetica
423.333 /Helvetica STDFONT 2131 5557 M 272 0 R D
gsave 1998 5388 translate 0 0 M 1.2 dup scale -704.08 0 N
(10) show X 192.937 M
%%IncludeResource: font Helvetica
262.467 /Helvetica STDFONT
(-8) show grestore
%%IncludeResource: font Helvetica
423.333 /Helvetica STDFONT 2131 8422 M 272 0 R D
gsave 1998 8254 translate 0 0 M 1.2 dup scale -704.08 0 N
(10) show X 192.937 M
%%IncludeResource: font Helvetica
262.467 /Helvetica STDFONT
(-6) show grestore
%%IncludeResource: font Helvetica
423.333 /Helvetica STDFONT 2131 11288 M 272 0 R D
gsave 1998 11119 translate 0 0 M 1.2 dup scale -704.08 0 N
(10) show X 192.937 M
%%IncludeResource: font Helvetica
262.467 /Helvetica STDFONT
(-4) show grestore
%%IncludeResource: font Helvetica
423.333 /Helvetica STDFONT 2131 14154 M 272 0 R D
gsave 1998 13985 translate 0 0 M 1.2 dup scale -704.08 0 N
(10) show X 192.937 M
%%IncludeResource: font Helvetica
262.467 /Helvetica STDFONT
(-2) show grestore
%%IncludeResource: font Helvetica
423.333 /Helvetica STDFONT 2131 4124 M 136 0 R D 2131 6990 M 136 0 R D
2131 9855 M 136 0 R D 2131 12721 M 136 0 R D gsave 578 8422 translate 0 0 M
90 rotate 1.2 dup scale -235.162 0 N
%%IncludeResource: font Times-Roman
423.333 /Times-Roman STDFONT
(L1) show
%%IncludeResource: font Helvetica
423.333 /Helvetica STDFONT grestore 11201 1690 M 0 13465 R D 11201 2691 M
-272 0 R D 11201 5557 M -272 0 R D 11201 8422 M -272 0 R D 11201 11288 M
-272 0 R D 11201 14154 M -272 0 R D 11201 4124 M -136 0 R D 11201 6990 M
-136 0 R D 11201 9855 M -136 0 R D 11201 12721 M -136 0 R D 30 setlinewidth
0.451 0.000 0.039 setrgbcolor 2698 14620 M 111 -111 R -111 -111 R -111 111 R
111 111 R D 3832 13694 M 111 -111 R -111 -111 R -111 111 R 111 111 R D
4966 12510 M 111 -111 R -111 -111 R -111 111 R 111 111 R D 6099 11481 M
111 -111 R -111 -111 R -111 111 R 111 111 R D 7233 10474 M 111 -111 R
-111 -111 R -111 111 R 111 111 R D 8367 9650 M 111 -111 R -111 -111 R
-111 111 R 111 111 R D 9500 8379 M 111 -111 R -111 -111 R -111 111 R
111 111 R D 10634 7263 M 111 -111 R -111 -111 R -111 111 R 111 111 R D
2698 14509 M 1134 -926 R 1134 -1184 R 1133 -1029 R 1134 -1007 R 1134 -824 R
1133 -1271 R 1134 -1116 R D gsave 8707 7093 translate 0 0 M
%%IncludeResource: font Times-Italic
423.333 /Times-Italic STDFONT
(N) show X -97.4878 M
%%IncludeResource: font Times-Roman
262.467 /Times-Roman STDFONT
(cell) show X 0 M
%%IncludeResource: font Times-Roman
423.333 /Times-Roman STDFONT
( = 16) show
%%IncludeResource: font Helvetica
423.333 /Helvetica STDFONT grestore 0.529 0.000 0.078 setrgbcolor
2698 14540 M 111 -111 R -111 -111 R -111 111 R 111 111 R D 3832 12889 M
111 -111 R -111 -111 R -111 111 R 111 111 R D 4966 10999 M 111 -111 R
-111 -111 R -111 111 R 111 111 R D 6099 9236 M 111 -111 R -111 -111 R
-111 111 R 111 111 R D 7233 7809 M 111 -111 R -111 -111 R -111 111 R
111 111 R D 8367 6704 M 111 -111 R -111 -111 R -111 111 R 111 111 R D
9500 5323 M 111 -111 R -111 -111 R -111 111 R 111 111 R D 10634 3957 M
111 -111 R -111 -111 R -111 111 R 111 111 R D 2698 14429 M 1134 -1651 R
1134 -1890 R 1133 -1763 R 1134 -1427 R 1134 -1105 R 1133 -1381 R
1134 -1366 R D gsave 8707 3786 translate 0 0 M
%%IncludeResource: font Times-Italic
423.333 /Times-Italic STDFONT
(N) show X -97.4878 M
%%IncludeResource: font Times-Roman
262.467 /Times-Roman STDFONT
(cell) show X 0 M
%%IncludeResource: font Times-Roman
423.333 /Times-Roman STDFONT
( = 32) show
%%IncludeResource: font Helvetica
423.333 /Helvetica STDFONT grestore 0.608 0.000 0.118 setrgbcolor
2698 14404 M 111 -111 R -111 -111 R -111 111 R 111 111 R D 3832 11846 M
111 -111 R -111 -111 R -111 111 R 111 111 R D 4966 9332 M 111 -111 R
-111 -111 R -111 111 R 111 111 R D 6099 7273 M 111 -111 R -111 -111 R
-111 111 R 111 111 R D 7233 5486 M 111 -111 R -111 -111 R -111 111 R
111 111 R D 8367 3831 M 111 -111 R -111 -111 R -111 111 R 111 111 R D
9500 2457 M 111 -111 R -111 -111 R -111 111 R 111 111 R D 2698 14293 M
1134 -2558 R 1134 -2514 R 1133 -2059 R 1134 -1787 R 1134 -1655 R
1133 -1374 R D gsave 7573 2287 translate 0 0 M
%%IncludeResource: font Times-Italic
423.333 /Times-Italic STDFONT
(N) show X -97.4878 M
%%IncludeResource: font Times-Roman
262.467 /Times-Roman STDFONT
(cell) show X 0 M
%%IncludeResource: font Times-Roman
423.333 /Times-Roman STDFONT
( = 64) show
%%IncludeResource: font Helvetica
423.333 /Helvetica STDFONT grestore 0.686 0.000 0.157 setrgbcolor
2698 14202 M 111 -111 R -111 -111 R -111 111 R 111 111 R D 3832 10708 M
111 -111 R -111 -111 R -111 111 R 111 111 R D 4966 7842 M 111 -111 R
-111 -111 R -111 111 R 111 111 R D 6099 5425 M 111 -111 R -111 -111 R
-111 111 R 111 111 R D 7233 3236 M 111 -111 R -111 -111 R -111 111 R
111 111 R D 2698 14091 M 1134 -3494 R 1134 -2866 R 1133 -2417 R 1134 -2189 R
D gsave 5306 3065 translate 0 0 M
%%IncludeResource: font Times-Italic
423.333 /Times-Italic STDFONT
(N) show X -97.4878 M
%%IncludeResource: font Times-Roman
262.467 /Times-Roman STDFONT
(cell) show X 0 M
%%IncludeResource: font Times-Roman
423.333 /Times-Roman STDFONT
( = 128) show
%%IncludeResource: font Helvetica
423.333 /Helvetica STDFONT grestore
%%PageTrailer
end
%%PageResources: font Helvetica
%%+ font Times-Italic
%%+ font Times-Roman
%%Trailer
%%Pages: 1
%%DocumentNeededResources: font Helvetica
%%+ font Times-Italic
%%+ font Times-Roman
%%EOF
