%!PS-Adobe-3.0 EPSF-3.0
%%BoundingBox: 0 0 340 453
%%Title: Graphics produced by IDL
%%For: vrs@freya01, /freya/u/vrs/Coding/gpu_testbed/idl
%%Creator: IDL Version 8.5.1 (linux x86_64 m64)
%%CreationDate: Sun Jun 19 22:53:57 2022
%%DocumentData: Clean7bit
%%Requirements: color
%%LanguageLevel: 1
%%PageOrder: Ascend
%%Pages: (atend)
%%DocumentNeededResources: (atend)
%%EndComments
%%BeginProlog
%+ prolog.ps -- Prolog for IDL generated PostScript files
%+ Copyright (c) 1988-2015 Exelis Visual Information Solutions, Inc. All Rights Reserved.
%v 5
/$IDL_DICT 40 dict def $IDL_DICT begin /bdef { bind def } bind def /C
{currentpoint newpath moveto} bdef /CP {currentpoint} bdef /D {currentpoint
stroke moveto} bdef /F {closepath fill} bdef /K { setgray } bdef /M {moveto}
bdef /N {rmoveto} bdef /P {lineto} bdef /R {rlineto} bdef /S {gsave show
grestore} bdef /X {currentpoint pop} bdef /Z {gsave currentpoint lineto 20
setlinewidth 1 setlinecap stroke grestore} bdef /L0 {[] 0 setdash} bdef /L1
{[40 100] 0 setdash} bdef /L2 {[200 200] 0 setdash} bdef /L3 {[200 100 50
100] 0 setdash} bdef /L4 {[300 100 50 100 50 100 50 100] 0 setdash} bdef /L5
{[400 200] 0 setdash} bdef /STDFONT { findfont exch scalefont setfont } bdef
/ISOFONT { findfont dup length dict begin { 1 index /FID ne {def} {pop pop}
ifelse } forall /Encoding ISOLatin1Encoding def currentdict end /idltmpfont
exch definefont exch scalefont setfont } bdef /ISOBULLET { gsave /Helvetica
findfont exch scalefont setfont (\267) show currentpoint grestore moveto}
bdef /MITERLIMIT { 2.5 setmiterlimit } bdef end
%%EndProlog
%%Page: 0 1
%%PageRequirements: color
%%PageResources: (atend)
%%PageOrientation: Portrait
%%PageBoundingBox: 0 0 340 453
%%BeginPageSetup
$IDL_DICT begin 0.0283465 dup scale MITERLIMIT
%%IncludeResource: font Helvetica
423.333 /Helvetica STDFONT
%%EndPageSetup
25 setlinewidth L0 0.000 0.000 0.000 setrgbcolor 2131 1690 M 9070 0 R D
2131 1690 M 0 404 R D gsave 2131 1056 translate 0 0 M 1.2 dup scale
-235.373 0 N
(10) show grestore 9102 1690 M 0 404 R D gsave 9102 1056 translate 0 0 M
1.2 dup scale -353.06 0 N
(100) show grestore 4230 1690 M 0 202 R D 5457 1690 M 0 202 R D 6328 1690 M
0 202 R D 7004 1690 M 0 202 R D 7556 1690 M 0 202 R D 8023 1690 M 0 202 R D
8427 1690 M 0 202 R D 8783 1690 M 0 202 R D 11201 1690 M 0 202 R D
gsave 6666 507 translate 0 0 M 1.2 dup scale -381.732 0 N
%%IncludeResource: font Times-Italic
423.333 /Times-Italic STDFONT
(N) show X -97.4878 M
%%IncludeResource: font Times-Roman
262.467 /Times-Roman STDFONT
(cells) show
%%IncludeResource: font Helvetica
262.467 /Helvetica STDFONT grestore
%%IncludeResource: font Helvetica
423.333 /Helvetica STDFONT 2131 15155 M 9070 0 R D 2131 15155 M 0 -404 R D
9102 15155 M 0 -404 R D 4230 15155 M 0 -202 R D 5457 15155 M 0 -202 R D
6328 15155 M 0 -202 R D 7004 15155 M 0 -202 R D 7556 15155 M 0 -202 R D
8023 15155 M 0 -202 R D 8427 15155 M 0 -202 R D 8783 15155 M 0 -202 R D
11201 15155 M 0 -202 R D 2131 1690 M 0 13465 R D 2131 2691 M 272 0 R D
gsave 1998 2522 translate 0 0 M 1.2 dup scale -850.011 0 N
(10) show X 192.937 M
%%IncludeResource: font Helvetica
262.467 /Helvetica STDFONT
(-10) show grestore
%%IncludeResource: font Helvetica
423.333 /Helvetica STDFONT 2131 5557 M 272 0 R D
gsave 1998 5388 translate 0 0 M 1.2 dup scale -704.08 0 N
(10) show X 192.937 M
%%IncludeResource: font Helvetica
262.467 /Helvetica STDFONT
(-8) show grestore
%%IncludeResource: font Helvetica
423.333 /Helvetica STDFONT 2131 8422 M 272 0 R D
gsave 1998 8254 translate 0 0 M 1.2 dup scale -704.08 0 N
(10) show X 192.937 M
%%IncludeResource: font Helvetica
262.467 /Helvetica STDFONT
(-6) show grestore
%%IncludeResource: font Helvetica
423.333 /Helvetica STDFONT 2131 11288 M 272 0 R D
gsave 1998 11119 translate 0 0 M 1.2 dup scale -704.08 0 N
(10) show X 192.937 M
%%IncludeResource: font Helvetica
262.467 /Helvetica STDFONT
(-4) show grestore
%%IncludeResource: font Helvetica
423.333 /Helvetica STDFONT 2131 14154 M 272 0 R D
gsave 1998 13985 translate 0 0 M 1.2 dup scale -704.08 0 N
(10) show X 192.937 M
%%IncludeResource: font Helvetica
262.467 /Helvetica STDFONT
(-2) show grestore
%%IncludeResource: font Helvetica
423.333 /Helvetica STDFONT 2131 4124 M 136 0 R D 2131 6990 M 136 0 R D
2131 9855 M 136 0 R D 2131 12721 M 136 0 R D gsave 578 8422 translate 0 0 M
90 rotate 1.2 dup scale -235.162 0 N
%%IncludeResource: font Times-Roman
423.333 /Times-Roman STDFONT
(L1) show
%%IncludeResource: font Helvetica
423.333 /Helvetica STDFONT grestore 11201 1690 M 0 13465 R D 11201 2691 M
-272 0 R D 11201 5557 M -272 0 R D 11201 8422 M -272 0 R D 11201 11288 M
-272 0 R D 11201 14154 M -272 0 R D 11201 4124 M -136 0 R D 11201 6990 M
-136 0 R D 11201 9855 M -136 0 R D 11201 12721 M -136 0 R D 50 setlinewidth
L2 0.784 0.784 0.784 setrgbcolor 2131 15152 M 3522 -723 R 5547 -1140 R D
30 setlinewidth L0 0.451 0.000 0.039 setrgbcolor 3554 14620 M 111 -111 R
-111 -111 R -111 111 R 111 111 R D 5653 14540 M 111 -111 R -111 -111 R
-111 111 R 111 111 R D 7751 14404 M 111 -111 R -111 -111 R -111 111 R
111 111 R D 9850 14202 M 111 -111 R -111 -111 R -111 111 R 111 111 R D
3554 14509 M 2099 -80 R 2098 -136 R 2099 -202 R D 25 setlinewidth L1
2131 14634 M 9069 -603 R D 0.000 0.000 0.000 setrgbcolor
gsave 9427 13691 translate 0 0 M
%%IncludeResource: font Times-Italic
423.333 /Times-Italic STDFONT
(n) show
%%IncludeResource: font Times-Roman
423.333 /Times-Roman STDFONT
( = 0) show
%%IncludeResource: font Helvetica
423.333 /Helvetica STDFONT grestore 50 setlinewidth L2
0.784 0.784 0.784 setrgbcolor 2131 14225 M 3522 -1447 R 5547 -2281 R D
30 setlinewidth L0 0.529 0.000 0.078 setrgbcolor 3554 13694 M 111 -111 R
-111 -111 R -111 111 R 111 111 R D 5653 12889 M 111 -111 R -111 -111 R
-111 111 R 111 111 R D 7751 11846 M 111 -111 R -111 -111 R -111 111 R
111 111 R D 9850 10708 M 111 -111 R -111 -111 R -111 111 R 111 111 R D
3554 13583 M 2099 -805 R 2098 -1043 R 2099 -1138 R D 25 setlinewidth L1
2131 14352 M 9069 -4324 R D 0.451 0.000 0.039 setrgbcolor
gsave 9427 10197 translate 0 0 M
%%IncludeResource: font Times-Italic
423.333 /Times-Italic STDFONT
(n) show
%%IncludeResource: font Times-Roman
423.333 /Times-Roman STDFONT
( = 1) show
%%IncludeResource: font Helvetica
423.333 /Helvetica STDFONT grestore 50 setlinewidth L2
0.784 0.784 0.784 setrgbcolor 2131 13060 M 3522 -2172 R 5547 -3421 R D
30 setlinewidth L0 0.608 0.000 0.118 setrgbcolor 3554 12510 M 111 -111 R
-111 -111 R -111 111 R 111 111 R D 5653 10999 M 111 -111 R -111 -111 R
-111 111 R 111 111 R D 7751 9332 M 111 -111 R -111 -111 R -111 111 R
111 111 R D 9850 7842 M 111 -111 R -111 -111 R -111 111 R 111 111 R D
3554 12399 M 2099 -1511 R 2098 -1667 R 2099 -1490 R D 25 setlinewidth L1
2131 13473 M 9069 -6773 R D 0.529 0.000 0.078 setrgbcolor
gsave 9427 7332 translate 0 0 M
%%IncludeResource: font Times-Italic
423.333 /Times-Italic STDFONT
(n) show
%%IncludeResource: font Times-Roman
423.333 /Times-Roman STDFONT
( = 2) show
%%IncludeResource: font Helvetica
423.333 /Helvetica STDFONT grestore 50 setlinewidth L2
0.784 0.784 0.784 setrgbcolor 2131 12020 M 3522 -2895 R 5547 -4562 R D
30 setlinewidth L0 0.686 0.000 0.157 setrgbcolor 3554 11481 M 111 -111 R
-111 -111 R -111 111 R 111 111 R D 5653 9236 M 111 -111 R -111 -111 R
-111 111 R 111 111 R D 7751 7273 M 111 -111 R -111 -111 R -111 111 R
111 111 R D 9850 5425 M 111 -111 R -111 -111 R -111 111 R 111 111 R D
3554 11370 M 2099 -2245 R 2098 -1963 R 2099 -1848 R D 25 setlinewidth L1
2131 12628 M 9069 -8700 R D 0.608 0.000 0.118 setrgbcolor
gsave 9427 4915 translate 0 0 M
%%IncludeResource: font Times-Italic
423.333 /Times-Italic STDFONT
(n) show
%%IncludeResource: font Times-Roman
423.333 /Times-Roman STDFONT
( = 3) show
%%IncludeResource: font Helvetica
423.333 /Helvetica STDFONT grestore 50 setlinewidth L2
0.784 0.784 0.784 setrgbcolor 2131 11318 M 3522 -3620 R 5547 -5701 R D
30 setlinewidth L0 0.765 0.000 0.196 setrgbcolor 3554 10474 M 111 -111 R
-111 -111 R -111 111 R 111 111 R D 5653 7809 M 111 -111 R -111 -111 R
-111 111 R 111 111 R D 7751 5486 M 111 -111 R -111 -111 R -111 111 R
111 111 R D 9850 3236 M 111 -111 R -111 -111 R -111 111 R 111 111 R D
3554 10363 M 2099 -2665 R 2098 -2323 R 2099 -2250 R D 25 setlinewidth L1
2131 11877 M 8893 -10188 R D 0.686 0.000 0.157 setrgbcolor
gsave 9427 2725 translate 0 0 M
%%IncludeResource: font Times-Italic
423.333 /Times-Italic STDFONT
(n) show
%%IncludeResource: font Times-Roman
423.333 /Times-Roman STDFONT
( = 4) show
%%IncludeResource: font Helvetica
423.333 /Helvetica STDFONT grestore 50 setlinewidth L2
0.784 0.784 0.784 setrgbcolor 2131 10936 M 3522 -4343 R 3976 -4904 R D
30 setlinewidth L0 0.843 0.000 0.235 setrgbcolor 3554 9650 M 111 -111 R
-111 -111 R -111 111 R 111 111 R D 5653 6704 M 111 -111 R -111 -111 R
-111 111 R 111 111 R D 7751 3831 M 111 -111 R -111 -111 R -111 111 R
111 111 R D 3554 9539 M 2099 -2946 R 2098 -2873 R D 25 setlinewidth L1
2131 11502 M 7076 -9813 R D 0.765 0.000 0.196 setrgbcolor
gsave 7328 3320 translate 0 0 M
%%IncludeResource: font Times-Italic
423.333 /Times-Italic STDFONT
(n) show
%%IncludeResource: font Times-Roman
423.333 /Times-Roman STDFONT
( = 5) show
%%IncludeResource: font Helvetica
423.333 /Helvetica STDFONT grestore 50 setlinewidth L2
0.784 0.784 0.784 setrgbcolor 2131 10279 M 3522 -5067 R 2448 -3523 R D
30 setlinewidth L0 0.922 0.000 0.275 setrgbcolor 3554 8379 M 111 -111 R
-111 -111 R -111 111 R 111 111 R D 5653 5323 M 111 -111 R -111 -111 R
-111 111 R 111 111 R D 7751 2457 M 111 -111 R -111 -111 R -111 111 R
111 111 R D 3554 8268 M 2099 -3056 R 2098 -2866 R D 25 setlinewidth L1
2131 10247 M 6064 -8558 R D 0.843 0.000 0.235 setrgbcolor
gsave 7328 1947 translate 0 0 M
%%IncludeResource: font Times-Italic
423.333 /Times-Italic STDFONT
(n) show
%%IncludeResource: font Times-Roman
423.333 /Times-Roman STDFONT
( = 6) show
%%IncludeResource: font Helvetica
423.333 /Helvetica STDFONT grestore 50 setlinewidth L2
0.784 0.784 0.784 setrgbcolor 2131 9637 M 3522 -5791 R 1311 -2157 R D
30 setlinewidth L0 1.000 0.000 0.314 setrgbcolor 3554 7263 M 111 -111 R
-111 -111 R -111 111 R 111 111 R D 5653 3957 M 111 -111 R -111 -111 R
-111 111 R 111 111 R D 3554 7152 M 2099 -3306 R D 25 setlinewidth L1
2131 9396 M 4890 -7707 R D 0.922 0.000 0.275 setrgbcolor
gsave 5230 3446 translate 0 0 M
%%IncludeResource: font Times-Italic
423.333 /Times-Italic STDFONT
(n) show
%%IncludeResource: font Times-Roman
423.333 /Times-Roman STDFONT
( = 7) show
%%IncludeResource: font Helvetica
423.333 /Helvetica STDFONT grestore
%%PageTrailer
end
%%PageResources: font Helvetica
%%+ font Times-Italic
%%+ font Times-Roman
%%Trailer
%%Pages: 1
%%DocumentNeededResources: font Helvetica
%%+ font Times-Italic
%%+ font Times-Roman
%%EOF
