%!PS-Adobe-3.0 EPSF-3.0
%%BoundingBox: 0 0 510 340
%%Title: Graphics produced by IDL
%%For: vrs@freya01, /freya/u/vrs/Coding/gpu_testbed/idl
%%Creator: IDL Version 8.5.1 (linux x86_64 m64)
%%CreationDate: Fri Sep 29 13:51:46 2023
%%DocumentData: Clean7bit
%%Requirements: color
%%LanguageLevel: 1
%%PageOrder: Ascend
%%Pages: (atend)
%%DocumentNeededResources: (atend)
%%EndComments
%%BeginProlog
%+ prolog.ps -- Prolog for IDL generated PostScript files
%+ Copyright (c) 1988-2015 Exelis Visual Information Solutions, Inc. All Rights Reserved.
%v 5
/$IDL_DICT 40 dict def $IDL_DICT begin /bdef { bind def } bind def /C
{currentpoint newpath moveto} bdef /CP {currentpoint} bdef /D {currentpoint
stroke moveto} bdef /F {closepath fill} bdef /K { setgray } bdef /M {moveto}
bdef /N {rmoveto} bdef /P {lineto} bdef /R {rlineto} bdef /S {gsave show
grestore} bdef /X {currentpoint pop} bdef /Z {gsave currentpoint lineto 20
setlinewidth 1 setlinecap stroke grestore} bdef /L0 {[] 0 setdash} bdef /L1
{[40 100] 0 setdash} bdef /L2 {[200 200] 0 setdash} bdef /L3 {[200 100 50
100] 0 setdash} bdef /L4 {[300 100 50 100 50 100 50 100] 0 setdash} bdef /L5
{[400 200] 0 setdash} bdef /STDFONT { findfont exch scalefont setfont } bdef
/ISOFONT { findfont dup length dict begin { 1 index /FID ne {def} {pop pop}
ifelse } forall /Encoding ISOLatin1Encoding def currentdict end /idltmpfont
exch definefont exch scalefont setfont } bdef /ISOBULLET { gsave /Helvetica
findfont exch scalefont setfont (\267) show currentpoint grestore moveto}
bdef /MITERLIMIT { 2.5 setmiterlimit } bdef end
%%EndProlog
%%Page: 0 1
%%PageRequirements: color
%%PageResources: (atend)
%%PageOrientation: Portrait
%%PageBoundingBox: 0 0 510 340
%%BeginPageSetup
$IDL_DICT begin 0.0283465 dup scale MITERLIMIT
%%IncludeResource: font Helvetica
423.333 /Helvetica STDFONT
%%EndPageSetup
25 setlinewidth L0 0.000 0.000 0.000 setrgbcolor 2664 1690 M 14803 0 R D
5490 1690 M 0 284 R D gsave 5490 1056 translate 0 0 M 1.2 dup scale
-235.373 0 N
(10) show grestore 12966 1690 M 0 284 R D gsave 12966 1056 translate 0 0 M
1.2 dup scale -353.06 0 N
(100) show grestore 3239 1690 M 0 142 R D 3831 1690 M 0 142 R D 4331 1690 M
0 142 R D 4765 1690 M 0 142 R D 5147 1690 M 0 142 R D 7740 1690 M 0 142 R D
9057 1690 M 0 142 R D 9991 1690 M 0 142 R D 10715 1690 M 0 142 R D
11307 1690 M 0 142 R D 11808 1690 M 0 142 R D 12241 1690 M 0 142 R D
12624 1690 M 0 142 R D 15217 1690 M 0 142 R D 16533 1690 M 0 142 R D
17467 1690 M 0 142 R D gsave 10066 507 translate 0 0 M 1.2 dup scale
-105.833 0 N
(k) show grestore 2664 11155 M 14803 0 R D 5490 11155 M 0 -284 R D
12966 11155 M 0 -284 R D 3239 11155 M 0 -142 R D 3831 11155 M 0 -142 R D
4331 11155 M 0 -142 R D 4765 11155 M 0 -142 R D 5147 11155 M 0 -142 R D
7740 11155 M 0 -142 R D 9057 11155 M 0 -142 R D 9991 11155 M 0 -142 R D
10715 11155 M 0 -142 R D 11307 11155 M 0 -142 R D 11808 11155 M 0 -142 R D
12241 11155 M 0 -142 R D 12624 11155 M 0 -142 R D 15217 11155 M 0 -142 R D
16533 11155 M 0 -142 R D 17467 11155 M 0 -142 R D 2664 1690 M 0 9465 R D
2664 1690 M 444 0 R D gsave 2531 1690 translate 0 0 M 1.2 dup scale
-1294.55 0 N
(0.0001) show grestore 2664 3192 M 444 0 R D gsave 2531 3023 translate 0 0 M
1.2 dup scale -1294.55 0 N
(0.0010) show grestore 2664 4694 M 444 0 R D gsave 2531 4525 translate 0 0 M
1.2 dup scale -1294.55 0 N
(0.0100) show grestore 2664 6196 M 444 0 R D gsave 2531 6027 translate 0 0 M
1.2 dup scale -1294.55 0 N
(0.1000) show grestore 2664 7699 M 444 0 R D gsave 2531 7530 translate 0 0 M
1.2 dup scale -1294.55 0 N
(1.0000) show grestore 2664 9201 M 444 0 R D gsave 2531 9032 translate 0 0 M
1.2 dup scale -1529.93 0 N
(10.0000) show grestore 2664 10703 M 444 0 R D
gsave 2531 10534 translate 0 0 M 1.2 dup scale -1765.3 0 N
(100.0000) show grestore gsave 13 6422 translate 0 0 M 90 rotate
1.2 dup scale -387.985 0 N
(E\(k\)) show grestore 17467 1690 M 0 9465 R D 17467 1690 M -444 0 R D
17467 3192 M -444 0 R D 17467 4694 M -444 0 R D 17467 6196 M -444 0 R D
17467 7699 M -444 0 R D 17467 9201 M -444 0 R D 17467 10703 M -444 0 R D
40 setlinewidth 1.000 0.392 0.000 setrgbcolor 3983 8906 M 1126 -392 R
652 -303 R 467 -160 R 366 -401 R 293 46 R 472 -313 R 186 -108 R 175 -103 R
151 -173 R 141 36 R 135 -95 R 118 -93 R 214 -64 R 101 -148 R 90 154 R
90 -223 R 124 -85 R 113 71 R 140 -175 R 107 -100 R 85 65 R 137 -214 R
172 -120 R 86 -90 R 123 -84 R 151 -71 R 79 21 R 96 -115 R 152 -131 R
107 -64 R 131 -64 R 105 -96 R 112 -54 R 115 -64 R 107 -111 R 143 -99 R
119 -70 R 123 -81 R 109 -85 R 126 -110 R 115 -54 R 118 -124 R 116 -78 R
116 -55 R 116 -92 R 118 -90 R 120 -85 R 123 -115 R 107 -62 R 125 -106 R
122 -104 R 118 -86 R 117 -89 R 117 -70 R 117 -66 R 117 -55 R 118 -63 R
117 -21 R 119 -27 R 120 -28 R 119 9 R 119 60 R 115 39 R 119 31 R 119 81 R
117 60 R 120 60 R 118 25 R 118 -7 R 118 -21 R D
gsave 14400 10200 translate 0 0 M 1.1 dup scale
%%IncludeResource: font Times-Roman
423.333 /Times-Roman STDFONT
(Default) show
%%IncludeResource: font Helvetica
423.333 /Helvetica STDFONT grestore 0.000 1.000 0.000 setrgbcolor
3983 8935 M 1126 -301 R 652 -408 R 467 -230 R 366 -207 R 293 -140 R
472 -179 R 186 -171 R 175 -38 R 151 101 R 141 -197 R 135 -116 R 118 -40 R
214 -167 R 101 -95 R 90 116 R 90 -264 R 124 126 R 113 -69 R 140 -8 R
107 -153 R 85 88 R 137 -198 R 172 -125 R 86 5 R 123 -134 R 151 -28 R
79 -38 R 96 -72 R 152 -101 R 107 -43 R 131 -81 R 105 -72 R 112 -102 R
115 -57 R 107 -31 R 143 -125 R 119 -6 R 123 -78 R 109 -75 R 126 -49 R
115 -78 R 118 -80 R 116 -6 R 116 -104 R 116 -22 R 118 -80 R 120 -41 R
123 -46 R 107 -57 R 125 -32 R 122 -49 R 118 -39 R 117 -53 R 117 -32 R
117 -31 R 117 -35 R 118 -27 R 117 -9 R 119 -7 R 120 -42 R 119 -24 R 119 27 R
115 3 R 119 -12 R 119 4 R 117 13 R 120 6 R 118 12 R 118 -30 R 118 63 R D
gsave 14400 9420 translate 0 0 M 1.1 dup scale
%%IncludeResource: font Times-Roman
423.333 /Times-Roman STDFONT
(Minmod) show
%%IncludeResource: font Helvetica
423.333 /Helvetica STDFONT grestore 0.000 0.000 1.000 setrgbcolor
3983 8970 M 1125 -503 R 657 -476 R 464 -183 R 365 -255 R 297 -182 R
468 -329 R 189 -293 R 171 76 R 153 37 R 144 -247 R 131 -82 R 117 -14 R
216 -380 R 99 139 R 94 -109 R 86 -56 R 85 -36 R 81 -1 R 72 -269 R 144 260 R
63 -336 R 83 -6 R 160 -67 R 54 3 R 104 -255 R 81 98 R 90 -191 R 92 -9 R
131 -22 R 64 -162 R 101 14 R 131 -64 R 45 -175 R 91 53 R 113 -108 R 87 -67 R
96 -56 R 95 -92 R 99 -70 R 82 -46 R 113 -72 R 73 -86 R 94 -53 R 113 -37 R
81 -102 R 100 -49 R 109 -46 R 79 -94 R 90 -28 R 98 -90 R 101 -34 R 87 -100 R
103 -38 R 88 -32 R 97 -64 R 103 -65 R 90 -55 R 95 -15 R 92 -78 R 98 -30 R D
25 setlinewidth L2 0.000 0.000 0.000 setrgbcolor 3983 8427 M 1125 -376 R
657 -220 R 464 -156 R 365 -122 R 297 -99 R 468 -157 R 189 -63 R 171 -58 R
153 -51 R 144 -48 R 131 -44 R 117 -39 R 216 -72 R 99 -34 R 94 -31 R 86 -29 R
85 -29 R 81 -27 R 72 -24 R 144 -48 R 63 -21 R 83 -28 R 160 -54 R 54 -18 R
104 -34 R 81 -27 R 90 -31 R 92 -30 R 131 -44 R 64 -22 R 101 -33 R 131 -44 R
45 -15 R 91 -31 R 113 -38 R 87 -29 R 96 -32 R 95 -32 R 99 -33 R 82 -27 R
113 -38 R 73 -25 R 94 -31 R 113 -38 R 81 -27 R 100 -34 R 109 -36 R 79 -27 R
90 -30 R 98 -33 R 101 -33 R 87 -29 R 103 -35 R 88 -30 R 97 -32 R 103 -34 R
90 -31 R 95 -31 R 92 -31 R 98 -33 R D L1 3983 8602 M 1125 -452 R 657 -264 R
464 -186 R 365 -147 R 297 -119 R 468 -188 R 189 -76 R 171 -69 R 153 -62 R
144 -57 R 131 -53 R 117 -47 R 216 -87 R 99 -40 R 94 -38 R 86 -34 R 85 -34 R
81 -33 R 72 -29 R 144 -58 R 63 -25 R 83 -33 R 160 -65 R 54 -21 R 104 -42 R
81 -33 R 90 -36 R 92 -37 R 131 -52 R 64 -26 R 101 -41 R 131 -52 R 45 -18 R
91 -37 R 113 -45 R 87 -35 R 96 -39 R 95 -38 R 99 -40 R 82 -33 R 113 -45 R
73 -30 R 94 -37 R 113 -46 R 81 -32 R 100 -41 R 109 -43 R 79 -32 R 90 -36 R
98 -40 R 101 -40 R 87 -35 R 103 -41 R 88 -36 R 97 -39 R 103 -41 R 90 -37 R
95 -37 R 92 -38 R 98 -39 R D 0.000 0.000 1.000 setrgbcolor
gsave 14400 8640 translate 0 0 M 1.1 dup scale
%%IncludeResource: font Times-Roman
423.333 /Times-Roman STDFONT
(K0) show
%%IncludeResource: font Helvetica
423.333 /Helvetica STDFONT grestore L3 0.000 0.000 0.000 setrgbcolor
3983 4540 M 1125 -377 R 657 -220 R 464 -156 R 365 -122 R 297 -99 R
468 -157 R 189 -63 R 171 -58 R 153 -51 R 144 -49 R 131 -43 R 117 -40 R
216 -72 R 99 -34 R 94 -32 R 86 -28 R 85 -29 R 81 -27 R 72 -25 R 144 -48 R
63 -22 R 83 -28 R 160 -54 R 54 -19 R 104 -35 R 81 -28 R 90 -30 R 92 -32 R
131 -45 R 64 -22 R 101 -35 R 131 -45 R 45 -16 R 91 -32 R 113 -40 R 87 -31 R
96 -34 R 95 -34 R 99 -36 R 82 -30 R 113 -42 R 73 -27 R 94 -35 R 113 -43 R
81 -32 R 100 -39 R 109 -44 R 79 -32 R 90 -37 R 98 -42 R 101 -43 R 87 -38 R
41 -19 R D L1 3981 1689 M 0 9466 R D gsave 4680 2400 translate 0 0 M
1.1 dup scale
%%IncludeResource: font Times-Roman
423.333 /Times-Roman STDFONT
(32) show X 183.957 M
%%IncludeResource: font Times-Roman
262.467 /Times-Roman STDFONT
(3) show X 0 M
%%IncludeResource: font Times-Roman
423.333 /Times-Roman STDFONT
( cells) show
%%IncludeResource: font Helvetica
423.333 /Helvetica STDFONT grestore
%%PageTrailer
end
%%PageResources: font Helvetica
%%+ font Times-Roman
%%Trailer
%%Pages: 1
%%DocumentNeededResources: font Helvetica
%%+ font Times-Roman
%%EOF
